%!PS-Adobe-3.0 EPSF-3.0 
%%BoundingBox: 0 0 370 181
%%Pages: 0
%%Creator: LibreOffice 3.6
%%Title: none
%%CreationDate: none
%%LanguageLevel: 2
%%EndComments
%%BeginProlog
%%BeginResource: procset SDRes-Prolog 1.0 0
/b4_inc_state save def
/dict_count countdictstack def
/op_count count 1 sub def
userdict begin
0 setgray 0 setlinecap 1 setlinewidth 0 setlinejoin 10 setmiterlimit[] 0 setdash newpath
/languagelevel where {pop languagelevel 1 ne {false setstrokeadjust false setoverprint} if} if
/bdef {bind def} bind def
/c {setrgbcolor} bdef
/l {neg lineto} bdef
/rl {neg rlineto} bdef
/lc {setlinecap} bdef
/lj {setlinejoin} bdef
/lw {setlinewidth} bdef
/ml {setmiterlimit} bdef
/ld {setdash} bdef
/m {neg moveto} bdef
/ct {6 2 roll neg 6 2 roll neg 6 2 roll neg curveto} bdef
/r {rotate} bdef
/t {neg translate} bdef
/s {scale} bdef
/sw {show} bdef
/gs {gsave} bdef
/gr {grestore} bdef
/f {findfont dup length dict begin
{1 index /FID ne {def} {pop pop} ifelse} forall /Encoding ISOLatin1Encoding def
currentdict end /NFont exch definefont pop /NFont findfont} bdef
/p {closepath} bdef
/sf {scalefont setfont} bdef
/ef {eofill}bdef
/pc {closepath stroke}bdef
/ps {stroke}bdef
/pum {matrix currentmatrix}bdef
/pom {setmatrix}bdef
/bs {/aString exch def /nXOfs exch def /nWidth exch def currentpoint nXOfs 0 rmoveto pum nWidth aString stringwidth pop div 1 scale aString show pom moveto} bdef
%%EndResource
%%EndProlog
%%BeginSetup
%%EndSetup
%%Page: 1 1
%%BeginPageSetup
%%EndPageSetup
pum
0.02836 0.02827 s 
0 -6401 t
/tm matrix currentmatrix def
tm setmatrix
-1862 -4173 t 
1 1 s 
1.000 1.000 1.000 c 5126 9645 m  3094 9645 l  3094 4250 l  7158 4250 l 
7158 9645 l  5126 9645 l  p ef
0 lw 1 lj 5126 9645 m  3094 9645 l  3094 4250 l  7158 4250 l  7158 9645 l 
5126 9645 l  pc

3638 8812 m  3146 8812 l  3146 7827 l  4130 7827 l  4130 8812 l  3638 8812 l 
p ef
51 lw 0.503 0.503 0.503 c 3638 8812 m  3146 8812 l  3146 7827 l  4130 7827 l 
4130 8812 l  3638 8812 l  pc
pum
3489 8410 t
0.105 0.105 0.105 c 127 -39 m  134 -1 l  121 2 110 3 101 3 ct 85 3 73 0 64 -4 ct 
55 -9 49 -16 46 -24 ct 42 -32 41 -49 41 -75 ct 41 -223 l  9 -223 l  9 -257 l 
41 -257 l  41 -320 l  84 -346 l  84 -257 l  127 -257 l  127 -223 l  84 -223 l 
84 -73 l  84 -61 84 -53 86 -49 ct 88 -46 90 -43 93 -41 ct 97 -39 102 -38 108 -38 ct 
113 -38 119 -38 127 -39 ct p ef
pom
pum
3629 8617 t
107 0 m  82 0 l  82 -161 l  76 -155 68 -149 58 -143 ct 48 -137 39 -133 31 -130 ct 
31 -155 l  45 -161 58 -169 68 -179 ct 79 -188 86 -197 91 -206 ct 107 -206 l 
107 0 l  p ef
pom

1.000 1.000 1.000 c 3638 7828 m  3146 7828 l  3146 6844 l  4130 6844 l 
4130 7828 l  3638 7828 l  p ef
0.503 0.503 0.503 c 3638 7828 m  3146 7828 l  3146 6844 l  4130 6844 l 
4130 7828 l  3638 7828 l  pc
pum
3489 7428 t
0.105 0.105 0.105 c 127 -39 m  134 -1 l  121 2 110 3 101 3 ct 85 3 73 0 64 -4 ct 
55 -9 49 -16 46 -24 ct 42 -32 41 -49 41 -75 ct 41 -223 l  9 -223 l  9 -257 l 
41 -257 l  41 -320 l  84 -346 l  84 -257 l  127 -257 l  127 -223 l  84 -223 l 
84 -73 l  84 -61 84 -53 86 -49 ct 88 -46 90 -43 93 -41 ct 97 -39 102 -38 108 -38 ct 
113 -38 119 -38 127 -39 ct p ef
pom
pum
3629 7635 t
12 -54 m  38 -56 l  40 -44 45 -34 52 -27 ct 59 -21 68 -18 78 -18 ct 90 -18 100 -22 109 -31 ct 
117 -41 121 -53 121 -68 ct 121 -82 117 -93 109 -102 ct 101 -110 91 -114 78 -114 ct 
69 -114 62 -112 55 -108 ct 49 -105 44 -100 40 -94 ct 16 -97 l  36 -203 l  138 -203 l 
138 -179 l  56 -179 l  45 -123 l  58 -132 71 -136 84 -136 ct 102 -136 117 -130 130 -118 ct 
142 -105 148 -89 148 -70 ct 148 -51 143 -35 132 -22 ct 119 -5 101 3 78 3 ct 59 3 44 -2 32 -13 ct 
20 -23 14 -37 12 -54 ct p ef
pom

1.000 1.000 1.000 c 3638 6843 m  3146 6843 l  3146 5859 l  4130 5859 l 
4130 6843 l  3638 6843 l  p ef
0.503 0.503 0.503 c 3638 6843 m  3146 6843 l  3146 5859 l  4130 5859 l 
4130 6843 l  3638 6843 l  pc
pum
3489 6442 t
0.105 0.105 0.105 c 127 -39 m  134 -1 l  121 2 110 3 101 3 ct 85 3 73 0 64 -4 ct 
55 -9 49 -16 46 -24 ct 42 -32 41 -49 41 -75 ct 41 -223 l  9 -223 l  9 -257 l 
41 -257 l  41 -320 l  84 -346 l  84 -257 l  127 -257 l  127 -223 l  84 -223 l 
84 -73 l  84 -61 84 -53 86 -49 ct 88 -46 90 -43 93 -41 ct 97 -39 102 -38 108 -38 ct 
113 -38 119 -38 127 -39 ct p ef
pom
pum
3629 6649 t
16 -48 m  40 -50 l  42 -39 46 -31 52 -25 ct 58 -20 65 -18 74 -18 ct 82 -18 89 -19 94 -23 ct 
100 -27 105 -31 109 -37 ct 112 -43 116 -51 118 -61 ct 121 -71 122 -82 122 -92 ct 
122 -93 122 -95 122 -97 ct 117 -89 110 -82 101 -77 ct 92 -73 83 -70 73 -70 ct 56 -70 41 -76 30 -89 ct 
18 -101 12 -117 12 -137 ct 12 -158 18 -175 30 -188 ct 43 -201 58 -207 77 -207 ct 
90 -207 102 -203 113 -196 ct 124 -189 133 -179 138 -165 ct 144 -152 147 -133 147 -107 ct 
147 -81 144 -60 138 -45 ct 133 -29 124 -17 113 -9 ct 102 -1 89 3 73 3 ct 57 3 44 -1 34 -10 ct 
24 -19 18 -32 16 -48 ct p
119 -139 m  119 -153 115 -165 107 -173 ct 100 -182 90 -186 80 -186 ct 68 -186 59 -181 50 -172 ct 
42 -163 38 -151 38 -137 ct 38 -123 42 -113 50 -105 ct 58 -96 67 -92 79 -92 ct 91 -92 100 -96 108 -105 ct 
115 -113 119 -124 119 -139 ct p ef
pom

1.000 1.000 1.000 c 4622 8812 m  4130 8812 l  4130 7827 l  5114 7827 l 
5114 8812 l  4622 8812 l  p ef
0.503 0.503 0.503 c 4622 8812 m  4130 8812 l  4130 7827 l  5114 7827 l 
5114 8812 l  4622 8812 l  pc
pum
4473 8410 t
0.105 0.105 0.105 c 127 -39 m  134 -1 l  121 2 110 3 101 3 ct 85 3 73 0 64 -4 ct 
55 -9 49 -16 46 -24 ct 42 -32 41 -49 41 -75 ct 41 -223 l  9 -223 l  9 -257 l 
41 -257 l  41 -320 l  84 -346 l  84 -257 l  127 -257 l  127 -223 l  84 -223 l 
84 -73 l  84 -61 84 -53 86 -49 ct 88 -46 90 -43 93 -41 ct 97 -39 102 -38 108 -38 ct 
113 -38 119 -38 127 -39 ct p ef
pom
pum
4613 8617 t
12 -54 m  37 -57 l  40 -43 45 -33 52 -26 ct 59 -20 68 -17 78 -17 ct 89 -17 99 -21 108 -29 ct 
116 -37 120 -48 120 -60 ct 120 -72 116 -81 108 -89 ct 101 -96 91 -100 80 -100 ct 
75 -100 69 -99 62 -97 ct 65 -119 l  66 -119 68 -119 69 -119 ct 79 -119 89 -122 98 -127 ct 
106 -133 111 -142 111 -153 ct 111 -162 107 -170 101 -176 ct 95 -182 87 -185 77 -185 ct 
67 -185 59 -182 52 -176 ct 46 -170 42 -161 40 -148 ct 15 -153 l  18 -170 25 -183 36 -192 ct 
47 -201 60 -206 76 -206 ct 88 -206 98 -203 107 -199 ct 117 -194 124 -187 129 -179 ct 
134 -171 137 -162 137 -153 ct 137 -144 134 -136 129 -128 ct 125 -121 118 -115 108 -111 ct 
120 -108 130 -103 136 -94 ct 143 -85 147 -74 147 -60 ct 147 -42 140 -27 127 -15 ct 
114 -2 97 4 77 4 ct 59 4 44 -1 32 -12 ct 21 -23 14 -37 12 -54 ct p ef
pom

1.000 1.000 1.000 c 4622 7828 m  4130 7828 l  4130 6844 l  5114 6844 l 
5114 7828 l  4622 7828 l  p ef
0.503 0.503 0.503 c 4622 7828 m  4130 7828 l  4130 6844 l  5114 6844 l 
5114 7828 l  4622 7828 l  pc
pum
4473 7428 t
0.105 0.105 0.105 c 127 -39 m  134 -1 l  121 2 110 3 101 3 ct 85 3 73 0 64 -4 ct 
55 -9 49 -16 46 -24 ct 42 -32 41 -49 41 -75 ct 41 -223 l  9 -223 l  9 -257 l 
41 -257 l  41 -320 l  84 -346 l  84 -257 l  127 -257 l  127 -223 l  84 -223 l 
84 -73 l  84 -61 84 -53 86 -49 ct 88 -46 90 -43 93 -41 ct 97 -39 102 -38 108 -38 ct 
113 -38 119 -38 127 -39 ct p ef
pom
pum
4613 7635 t
144 -24 m  144 0 l  9 0 l  9 -6 9 -12 12 -18 ct 15 -27 21 -36 28 -45 ct 36 -54 47 -64 61 -76 ct 
84 -94 99 -109 107 -119 ct 114 -130 118 -140 118 -150 ct 118 -160 115 -168 108 -175 ct 
100 -182 91 -185 80 -185 ct 67 -185 58 -182 50 -174 ct 43 -167 39 -157 39 -144 ct 
13 -147 l  15 -166 22 -181 33 -191 ct 45 -201 61 -206 80 -206 ct 100 -206 115 -201 127 -190 ct 
138 -179 144 -165 144 -149 ct 144 -141 143 -133 139 -125 ct 136 -117 130 -109 122 -100 ct 
115 -91 102 -79 84 -64 ct 68 -51 59 -42 54 -38 ct 50 -33 47 -29 44 -24 ct 144 -24 l 
p ef
pom

1.000 1.000 1.000 c 5606 8812 m  5113 8812 l  5113 7827 l  6098 7827 l 
6098 8812 l  5606 8812 l  p ef
0.503 0.503 0.503 c 5606 8812 m  5113 8812 l  5113 7827 l  6098 7827 l 
6098 8812 l  5606 8812 l  pc
pum
5456 8410 t
0.105 0.105 0.105 c 127 -39 m  134 -1 l  121 2 110 3 101 3 ct 85 3 73 0 64 -4 ct 
55 -9 49 -16 46 -24 ct 42 -32 41 -49 41 -75 ct 41 -223 l  9 -223 l  9 -257 l 
41 -257 l  41 -320 l  84 -346 l  84 -257 l  127 -257 l  127 -223 l  84 -223 l 
84 -73 l  84 -61 84 -53 86 -49 ct 88 -46 90 -43 93 -41 ct 97 -39 102 -38 108 -38 ct 
113 -38 119 -38 127 -39 ct p ef
pom
pum
5596 8617 t
143 -155 m  118 -153 l  115 -163 112 -171 108 -175 ct 101 -182 93 -186 83 -186 ct 
75 -186 68 -184 62 -179 ct 54 -173 48 -165 43 -154 ct 38 -143 36 -127 36 -106 ct 
42 -115 49 -122 58 -127 ct 67 -131 76 -133 86 -133 ct 103 -133 117 -127 129 -115 ct 
141 -102 146 -86 146 -67 ct 146 -54 144 -42 138 -31 ct 133 -20 125 -12 115 -6 ct 
105 0 94 3 82 3 ct 61 3 44 -5 31 -20 ct 17 -36 11 -61 11 -97 ct 11 -136 18 -165 33 -183 ct 
46 -199 63 -207 85 -207 ct 101 -207 114 -202 124 -193 ct 135 -184 141 -171 143 -155 ct 
p
40 -67 m  40 -58 42 -50 45 -42 ct 49 -34 54 -28 61 -24 ct 67 -20 74 -18 82 -18 ct 
92 -18 102 -22 109 -31 ct 117 -39 121 -51 121 -65 ct 121 -80 117 -91 109 -99 ct 
102 -107 92 -111 81 -111 ct 69 -111 60 -107 52 -99 ct 44 -91 40 -80 40 -67 ct p ef
pom

1.000 1.000 1.000 c 6590 7828 m  6098 7828 l  6098 6844 l  7081 6844 l 
7081 7828 l  6590 7828 l  p ef
0.503 0.503 0.503 c 6590 7828 m  6098 7828 l  6098 6844 l  7081 6844 l 
7081 7828 l  6590 7828 l  pc
pum
6440 7428 t
0.105 0.105 0.105 c 127 -39 m  134 -1 l  121 2 110 3 101 3 ct 85 3 73 0 64 -4 ct 
55 -9 49 -16 46 -24 ct 42 -32 41 -49 41 -75 ct 41 -223 l  9 -223 l  9 -257 l 
41 -257 l  41 -320 l  84 -346 l  84 -257 l  127 -257 l  127 -223 l  84 -223 l 
84 -73 l  84 -61 84 -53 86 -49 ct 88 -46 90 -43 93 -41 ct 97 -39 102 -38 108 -38 ct 
113 -38 119 -38 127 -39 ct p ef
pom
pum
6579 7635 t
93 0 m  93 -49 l  4 -49 l  4 -72 l  97 -205 l  118 -205 l  118 -72 l  146 -72 l 
146 -49 l  118 -49 l  118 0 l  93 0 l  p
93 -72 m  93 -165 l  28 -72 l  93 -72 l  p ef
pom

1.000 1.000 1.000 c 6590 8812 m  6098 8812 l  6098 7827 l  7081 7827 l 
7081 8812 l  6590 8812 l  p ef
0.503 0.503 0.503 c 6590 8812 m  6098 8812 l  6098 7827 l  7081 7827 l 
7081 8812 l  6590 8812 l  pc
pum
6440 8410 t
0.105 0.105 0.105 c 127 -39 m  134 -1 l  121 2 110 3 101 3 ct 85 3 73 0 64 -4 ct 
55 -9 49 -16 46 -24 ct 42 -32 41 -49 41 -75 ct 41 -223 l  9 -223 l  9 -257 l 
41 -257 l  41 -320 l  84 -346 l  84 -257 l  127 -257 l  127 -223 l  84 -223 l 
84 -73 l  84 -61 84 -53 86 -49 ct 88 -46 90 -43 93 -41 ct 97 -39 102 -38 108 -38 ct 
113 -38 119 -38 127 -39 ct p ef
pom
pum
6579 8617 t
51 -112 m  40 -116 33 -121 27 -128 ct 22 -135 20 -144 20 -154 ct 20 -169 25 -181 36 -191 ct 
47 -202 61 -207 79 -207 ct 97 -207 111 -202 122 -191 ct 133 -181 139 -168 139 -153 ct 
139 -144 136 -135 131 -128 ct 126 -121 119 -116 108 -112 ct 121 -108 131 -101 137 -92 ct 
144 -83 147 -72 147 -59 ct 147 -42 141 -27 128 -15 ct 116 -3 100 3 79 3 ct 59 3 43 -3 30 -15 ct 
18 -27 12 -42 12 -60 ct 12 -73 15 -84 22 -93 ct 29 -103 38 -109 51 -112 ct p
46 -155 m  46 -145 49 -137 55 -131 ct 61 -125 69 -122 79 -122 ct 89 -122 97 -125 103 -131 ct 
110 -137 113 -144 113 -153 ct 113 -162 109 -170 103 -177 ct 97 -183 89 -186 79 -186 ct 
70 -186 62 -183 55 -177 ct 49 -171 46 -163 46 -155 ct p
38 -60 m  38 -53 39 -46 43 -39 ct 46 -32 51 -27 58 -23 ct 65 -20 72 -18 80 -18 ct 
92 -18 102 -22 109 -29 ct 117 -37 121 -47 121 -59 ct 121 -71 117 -81 109 -89 ct 
101 -97 91 -101 79 -101 ct 67 -101 57 -97 49 -89 ct 41 -81 38 -72 38 -60 ct p ef
pom

1.000 1.000 1.000 c 6590 6843 m  6098 6843 l  6098 5859 l  7081 5859 l 
7081 6843 l  6590 6843 l  p ef
0.503 0.503 0.503 c 6590 6843 m  6098 6843 l  6098 5859 l  7081 5859 l 
7081 6843 l  6590 6843 l  pc
pum
6440 6442 t
0.105 0.105 0.105 c 127 -39 m  134 -1 l  121 2 110 3 101 3 ct 85 3 73 0 64 -4 ct 
55 -9 49 -16 46 -24 ct 42 -32 41 -49 41 -75 ct 41 -223 l  9 -223 l  9 -257 l 
41 -257 l  41 -320 l  84 -346 l  84 -257 l  127 -257 l  127 -223 l  84 -223 l 
84 -73 l  84 -61 84 -53 86 -49 ct 88 -46 90 -43 93 -41 ct 97 -39 102 -38 108 -38 ct 
113 -38 119 -38 127 -39 ct p ef
pom
pum
6579 6649 t
14 -178 m  14 -202 l  147 -202 l  147 -183 l  134 -169 121 -150 108 -127 ct 
95 -104 85 -80 78 -56 ct 73 -39 70 -20 68 1 ct 42 1 l  43 -16 46 -35 52 -58 ct 
58 -81 67 -103 78 -124 ct 89 -146 101 -163 114 -178 ct 14 -178 l  p ef
pom

0.902 0.902 1.000 c 3638 5271 m  3146 5271 l  3146 4287 l  4130 4287 l 
4130 5271 l  3638 5271 l  p ef
0.503 0.503 0.503 c 3638 5271 m  3146 5271 l  3146 4287 l  4130 4287 l 
4130 5271 l  3638 5271 l  pc

0.902 0.902 1.000 c 4622 5271 m  4130 5271 l  4130 4287 l  5114 4287 l 
5114 5271 l  4622 5271 l  p ef
0.503 0.503 0.503 c 4622 5271 m  4130 5271 l  4130 4287 l  5114 4287 l 
5114 5271 l  4622 5271 l  pc

0.902 0.902 1.000 c 5606 5271 m  5113 5271 l  5113 4287 l  6098 4287 l 
6098 5271 l  5606 5271 l  p ef
0.503 0.503 0.503 c 5606 5271 m  5113 5271 l  5113 4287 l  6098 4287 l 
6098 5271 l  5606 5271 l  pc

0.902 0.902 1.000 c 6590 5271 m  6098 5271 l  6098 4287 l  7081 4287 l 
7081 5271 l  6590 5271 l  p ef
0.503 0.503 0.503 c 6590 5271 m  6098 5271 l  6098 4287 l  7081 4287 l 
7081 5271 l  6590 5271 l  pc

0.902 0.902 1.000 c 4622 6843 m  4130 6843 l  4130 5859 l  5114 5859 l 
5114 6843 l  4622 6843 l  p ef
0.503 0.503 0.503 c 4622 6843 m  4130 6843 l  4130 5859 l  5114 5859 l 
5114 6843 l  4622 6843 l  pc

0.902 0.902 1.000 c 5606 7828 m  5113 7828 l  5113 6844 l  6098 6844 l 
6098 7828 l  5606 7828 l  p ef
0.503 0.503 0.503 c 5606 7828 m  5113 7828 l  5113 6844 l  6098 6844 l 
6098 7828 l  5606 7828 l  pc

0.902 0.902 1.000 c 5606 6843 m  5113 6843 l  5113 5859 l  6098 5859 l 
6098 6843 l  5606 6843 l  p ef
0.503 0.503 0.503 c 5606 6843 m  5113 6843 l  5113 5859 l  6098 5859 l 
6098 6843 l  5606 6843 l  pc


pum
3389 9366 t
0.105 0.105 0.105 c 33 0 m  33 -256 l  71 -256 l  71 -220 l  79 -233 90 -243 103 -251 ct 
117 -258 132 -262 149 -262 ct 168 -262 184 -258 196 -250 ct 208 -242 216 -231 221 -217 ct 
242 -247 268 -262 301 -262 ct 326 -262 345 -255 359 -241 ct 373 -227 380 -205 380 -176 ct 
380 0 l  336 0 l  336 -161 l  336 -179 335 -191 332 -199 ct 329 -207 324 -213 317 -217 ct 
310 -222 301 -224 291 -224 ct 273 -224 258 -218 246 -206 ct 234 -194 228 -175 228 -149 ct 
228 0 l  185 0 l  185 -166 l  185 -186 181 -200 174 -210 ct 167 -220 156 -224 139 -224 ct 
127 -224 116 -221 106 -215 ct 95 -208 88 -199 83 -186 ct 78 -174 76 -156 76 -133 ct 
76 0 l  33 0 l  p ef
pom
pum
3800 9573 t
107 0 m  82 0 l  82 -161 l  76 -155 68 -149 58 -143 ct 48 -137 39 -133 31 -130 ct 
31 -155 l  45 -161 58 -169 68 -179 ct 79 -188 86 -197 91 -206 ct 107 -206 l 
107 0 l  p ef
pom

pum
4372 9366 t
33 0 m  33 -256 l  71 -256 l  71 -220 l  79 -233 90 -243 103 -251 ct 117 -258 132 -262 149 -262 ct 
168 -262 184 -258 196 -250 ct 208 -242 216 -231 221 -217 ct 242 -247 268 -262 301 -262 ct 
326 -262 345 -255 359 -241 ct 373 -227 380 -205 380 -176 ct 380 0 l  336 0 l 
336 -161 l  336 -179 335 -191 332 -199 ct 329 -207 324 -213 317 -217 ct 310 -222 301 -224 291 -224 ct 
273 -224 258 -218 246 -206 ct 234 -194 228 -175 228 -149 ct 228 0 l  185 0 l 
185 -166 l  185 -186 181 -200 174 -210 ct 167 -220 156 -224 139 -224 ct 127 -224 116 -221 106 -215 ct 
95 -208 88 -199 83 -186 ct 78 -174 76 -156 76 -133 ct 76 0 l  33 0 l  p ef
pom
pum
4783 9573 t
144 -24 m  144 0 l  9 0 l  9 -6 9 -12 12 -18 ct 15 -27 21 -36 28 -45 ct 36 -54 47 -64 61 -76 ct 
84 -94 99 -109 107 -119 ct 114 -130 118 -140 118 -150 ct 118 -160 115 -168 108 -175 ct 
100 -182 91 -185 80 -185 ct 67 -185 58 -182 50 -174 ct 43 -167 39 -157 39 -144 ct 
13 -147 l  15 -166 22 -181 33 -191 ct 45 -201 61 -206 80 -206 ct 100 -206 115 -201 127 -190 ct 
138 -179 144 -165 144 -149 ct 144 -141 143 -133 139 -125 ct 136 -117 130 -109 122 -100 ct 
115 -91 102 -79 84 -64 ct 68 -51 59 -42 54 -38 ct 50 -33 47 -29 44 -24 ct 144 -24 l 
p ef
pom

pum
5366 9366 t
33 0 m  33 -256 l  71 -256 l  71 -220 l  79 -233 90 -243 103 -251 ct 117 -258 132 -262 149 -262 ct 
168 -262 184 -258 196 -250 ct 208 -242 216 -231 221 -217 ct 242 -247 268 -262 301 -262 ct 
326 -262 345 -255 359 -241 ct 373 -227 380 -205 380 -176 ct 380 0 l  336 0 l 
336 -161 l  336 -179 335 -191 332 -199 ct 329 -207 324 -213 317 -217 ct 310 -222 301 -224 291 -224 ct 
273 -224 258 -218 246 -206 ct 234 -194 228 -175 228 -149 ct 228 0 l  185 0 l 
185 -166 l  185 -186 181 -200 174 -210 ct 167 -220 156 -224 139 -224 ct 127 -224 116 -221 106 -215 ct 
95 -208 88 -199 83 -186 ct 78 -174 76 -156 76 -133 ct 76 0 l  33 0 l  p ef
pom
pum
5777 9573 t
12 -54 m  37 -57 l  40 -43 45 -33 52 -26 ct 59 -20 68 -17 78 -17 ct 89 -17 99 -21 108 -29 ct 
116 -37 120 -48 120 -60 ct 120 -72 116 -81 108 -89 ct 101 -96 91 -100 80 -100 ct 
75 -100 69 -99 62 -97 ct 65 -119 l  66 -119 68 -119 69 -119 ct 79 -119 89 -122 98 -127 ct 
106 -133 111 -142 111 -153 ct 111 -162 107 -170 101 -176 ct 95 -182 87 -185 77 -185 ct 
67 -185 59 -182 52 -176 ct 46 -170 42 -161 40 -148 ct 15 -153 l  18 -170 25 -183 36 -192 ct 
47 -201 60 -206 76 -206 ct 88 -206 98 -203 107 -199 ct 117 -194 124 -187 129 -179 ct 
134 -171 137 -162 137 -153 ct 137 -144 134 -136 129 -128 ct 125 -121 118 -115 108 -111 ct 
120 -108 130 -103 136 -94 ct 143 -85 147 -74 147 -60 ct 147 -42 140 -27 127 -15 ct 
114 -2 97 4 77 4 ct 59 4 44 -1 32 -12 ct 21 -23 14 -37 12 -54 ct p ef
pom

pum
6341 9366 t
33 0 m  33 -256 l  71 -256 l  71 -220 l  79 -233 90 -243 103 -251 ct 117 -258 132 -262 149 -262 ct 
168 -262 184 -258 196 -250 ct 208 -242 216 -231 221 -217 ct 242 -247 268 -262 301 -262 ct 
326 -262 345 -255 359 -241 ct 373 -227 380 -205 380 -176 ct 380 0 l  336 0 l 
336 -161 l  336 -179 335 -191 332 -199 ct 329 -207 324 -213 317 -217 ct 310 -222 301 -224 291 -224 ct 
273 -224 258 -218 246 -206 ct 234 -194 228 -175 228 -149 ct 228 0 l  185 0 l 
185 -166 l  185 -186 181 -200 174 -210 ct 167 -220 156 -224 139 -224 ct 127 -224 116 -221 106 -215 ct 
95 -208 88 -199 83 -186 ct 78 -174 76 -156 76 -133 ct 76 0 l  33 0 l  p ef
pom
pum
6751 9573 t
93 0 m  93 -49 l  4 -49 l  4 -72 l  97 -205 l  118 -205 l  118 -72 l  146 -72 l 
146 -49 l  118 -49 l  118 0 l  93 0 l  p
93 -72 m  93 -165 l  28 -72 l  93 -72 l  p ef
pom

pum
3690 5762 t
90.5 r 45 0 m  45 -49 l  94 -49 l  94 0 l  45 0 l  p ef
185 0 m  185 -49 l  234 -49 l  234 0 l  185 0 l  p ef
324 0 m  324 -49 l  373 -49 l  373 0 l  324 0 l  p ef
pom

pum
6537 5763 t
90.4 r 45 0 m  45 -49 l  94 -49 l  94 0 l  45 0 l  p ef
185 0 m  185 -49 l  234 -49 l  234 0 l  185 0 l  p ef
324 0 m  324 -49 l  373 -49 l  373 0 l  324 0 l  p ef
pom
1.000 1.000 1.000 c 13878 6985 m  13465 6985 l  13465 6161 l  14290 6161 l 
14290 6985 l  13878 6985 l  p ef
0.503 0.503 0.503 c 13878 6985 m  13465 6985 l  13465 6161 l  14290 6161 l 
14290 6985 l  13878 6985 l  pc
pum
13614 6657 t
0.105 0.105 0.105 c 30 0 m  30 -239 l  66 -239 l  66 -205 l  74 -217 84 -226 96 -233 ct 
109 -240 123 -244 139 -244 ct 156 -244 171 -240 182 -233 ct 193 -226 201 -215 206 -202 ct 
225 -230 249 -244 279 -244 ct 303 -244 321 -237 334 -224 ct 346 -211 353 -191 353 -164 ct 
353 0 l  313 0 l  313 -150 l  313 -166 311 -178 309 -185 ct 306 -192 301 -198 295 -202 ct 
288 -207 280 -209 270 -209 ct 254 -209 240 -203 229 -192 ct 218 -181 212 -163 212 -139 ct 
212 0 l  172 0 l  172 -155 l  172 -173 168 -186 162 -195 ct 155 -204 144 -209 130 -209 ct 
118 -209 108 -206 98 -200 ct 88 -194 81 -185 77 -174 ct 73 -162 71 -146 71 -124 ct 
71 0 l  30 0 l  p ef
pom
pum
13995 6850 t
99 0 m  76 0 l  76 -149 l  70 -144 63 -138 54 -133 ct 44 -127 36 -123 29 -121 ct 
29 -143 l  42 -149 53 -157 63 -166 ct 73 -174 80 -183 84 -191 ct 99 -191 l  99 0 l 
p ef
pom

1.000 1.000 1.000 c 10652 6984 m  10239 6984 l  10239 6159 l  11065 6159 l 
11065 6984 l  10652 6984 l  p ef
0.503 0.503 0.503 c 10652 6984 m  10239 6984 l  10239 6159 l  11065 6159 l 
11065 6984 l  10652 6984 l  pc
pum
10387 6656 t
0.105 0.105 0.105 c 30 0 m  30 -239 l  66 -239 l  66 -205 l  74 -217 84 -226 96 -233 ct 
109 -240 123 -244 139 -244 ct 156 -244 171 -240 182 -233 ct 193 -226 201 -215 206 -202 ct 
225 -230 249 -244 279 -244 ct 303 -244 321 -237 334 -224 ct 346 -211 353 -191 353 -164 ct 
353 0 l  313 0 l  313 -150 l  313 -166 311 -178 309 -185 ct 306 -192 301 -198 295 -202 ct 
288 -207 280 -209 270 -209 ct 254 -209 240 -203 229 -192 ct 218 -181 212 -163 212 -139 ct 
212 0 l  172 0 l  172 -155 l  172 -173 168 -186 162 -195 ct 155 -204 144 -209 130 -209 ct 
118 -209 108 -206 98 -200 ct 88 -194 81 -185 77 -174 ct 73 -162 71 -146 71 -124 ct 
71 0 l  30 0 l  p ef
pom
pum
10768 6848 t
134 -22 m  134 0 l  8 0 l  8 -6 9 -11 11 -16 ct 14 -25 19 -33 26 -42 ct 33 -50 43 -59 57 -70 ct 
77 -87 91 -101 99 -111 ct 106 -121 110 -130 110 -139 ct 110 -148 106 -156 100 -162 ct 
93 -168 84 -172 74 -172 ct 63 -172 54 -168 47 -162 ct 40 -155 37 -145 37 -134 ct 
12 -136 l  14 -154 20 -168 31 -177 ct 42 -186 56 -191 74 -191 ct 93 -191 107 -186 118 -176 ct 
128 -166 134 -153 134 -138 ct 134 -131 132 -123 129 -116 ct 126 -108 121 -101 113 -93 ct 
106 -84 94 -73 77 -59 ct 63 -47 54 -39 50 -35 ct 46 -31 43 -27 41 -22 ct 134 -22 l 
p ef
pom

1.000 1.000 1.000 c 9826 6983 m  9413 6983 l  9413 6159 l  10239 6159 l 
10239 6983 l  9826 6983 l  p ef
0.503 0.503 0.503 c 9826 6983 m  9413 6983 l  9413 6159 l  10239 6159 l 
10239 6983 l  9826 6983 l  pc
pum
9561 6655 t
0.105 0.105 0.105 c 30 0 m  30 -239 l  66 -239 l  66 -205 l  74 -217 84 -226 96 -233 ct 
109 -240 123 -244 139 -244 ct 156 -244 171 -240 182 -233 ct 193 -226 201 -215 206 -202 ct 
225 -230 249 -244 279 -244 ct 303 -244 321 -237 334 -224 ct 346 -211 353 -191 353 -164 ct 
353 0 l  313 0 l  313 -150 l  313 -166 311 -178 309 -185 ct 306 -192 301 -198 295 -202 ct 
288 -207 280 -209 270 -209 ct 254 -209 240 -203 229 -192 ct 218 -181 212 -163 212 -139 ct 
212 0 l  172 0 l  172 -155 l  172 -173 168 -186 162 -195 ct 155 -204 144 -209 130 -209 ct 
118 -209 108 -206 98 -200 ct 88 -194 81 -185 77 -174 ct 73 -162 71 -146 71 -124 ct 
71 0 l  30 0 l  p ef
pom
pum
9942 6848 t
99 0 m  76 0 l  76 -149 l  70 -144 63 -138 54 -133 ct 44 -127 36 -123 29 -121 ct 
29 -143 l  42 -149 53 -157 63 -166 ct 73 -174 80 -183 84 -191 ct 99 -191 l  99 0 l 
p ef
pom

1.000 1.000 1.000 c 12294 6983 m  11881 6983 l  11881 6159 l  12706 6159 l 
12706 6983 l  12294 6983 l  p ef
0.503 0.503 0.503 c 12294 6983 m  11881 6983 l  11881 6159 l  12706 6159 l 
12706 6983 l  12294 6983 l  pc
pum
12029 6655 t
0.105 0.105 0.105 c 30 0 m  30 -239 l  66 -239 l  66 -205 l  74 -217 84 -226 96 -233 ct 
109 -240 123 -244 139 -244 ct 156 -244 171 -240 182 -233 ct 193 -226 201 -215 206 -202 ct 
225 -230 249 -244 279 -244 ct 303 -244 321 -237 334 -224 ct 346 -211 353 -191 353 -164 ct 
353 0 l  313 0 l  313 -150 l  313 -166 311 -178 309 -185 ct 306 -192 301 -198 295 -202 ct 
288 -207 280 -209 270 -209 ct 254 -209 240 -203 229 -192 ct 218 -181 212 -163 212 -139 ct 
212 0 l  172 0 l  172 -155 l  172 -173 168 -186 162 -195 ct 155 -204 144 -209 130 -209 ct 
118 -209 108 -206 98 -200 ct 88 -194 81 -185 77 -174 ct 73 -162 71 -146 71 -124 ct 
71 0 l  30 0 l  p ef
pom
pum
12410 6848 t
86 0 m  86 -46 l  3 -46 l  3 -67 l  90 -190 l  109 -190 l  109 -67 l  135 -67 l 
135 -46 l  109 -46 l  109 0 l  86 0 l  p
86 -67 m  86 -153 l  26 -67 l  86 -67 l  p ef
pom


pum
9728 7586 t
118 -36 m  124 -1 l  113 2 103 3 94 3 ct 79 3 68 1 60 -4 ct 52 -9 46 -15 43 -22 ct 
39 -30 38 -46 38 -70 ct 38 -208 l  8 -208 l  8 -239 l  38 -239 l  38 -298 l 
78 -322 l  78 -239 l  118 -239 l  118 -208 l  78 -208 l  78 -68 l  78 -56 78 -49 80 -46 ct 
81 -42 84 -40 87 -38 ct 90 -36 95 -35 101 -35 ct 105 -35 111 -35 118 -36 ct p ef
pom
pum
9855 7779 t
99 0 m  76 0 l  76 -149 l  70 -144 63 -138 54 -133 ct 44 -127 36 -123 29 -121 ct 
29 -143 l  42 -149 53 -157 63 -166 ct 73 -174 80 -183 84 -191 ct 99 -191 l  99 0 l 
p ef
pom

pum
10585 7623 t
118 -36 m  124 -1 l  113 2 103 3 94 3 ct 79 3 68 1 60 -4 ct 52 -9 46 -15 43 -22 ct 
39 -30 38 -46 38 -70 ct 38 -208 l  8 -208 l  8 -239 l  38 -239 l  38 -298 l 
78 -322 l  78 -239 l  118 -239 l  118 -208 l  78 -208 l  78 -68 l  78 -56 78 -49 80 -46 ct 
81 -42 84 -40 87 -38 ct 90 -36 95 -35 101 -35 ct 105 -35 111 -35 118 -36 ct p ef
pom
pum
10712 7816 t
134 -22 m  134 0 l  8 0 l  8 -6 9 -11 11 -16 ct 14 -25 19 -33 26 -42 ct 33 -50 43 -59 57 -70 ct 
77 -87 91 -101 99 -111 ct 106 -121 110 -130 110 -139 ct 110 -148 106 -156 100 -162 ct 
93 -168 84 -172 74 -172 ct 63 -172 54 -168 47 -162 ct 40 -155 37 -145 37 -134 ct 
12 -136 l  14 -154 20 -168 31 -177 ct 42 -186 56 -191 74 -191 ct 93 -191 107 -186 118 -176 ct 
128 -166 134 -153 134 -138 ct 134 -131 132 -123 129 -116 ct 126 -108 121 -101 113 -93 ct 
106 -84 94 -73 77 -59 ct 63 -47 54 -39 50 -35 ct 46 -31 43 -27 41 -22 ct 134 -22 l 
p ef
pom

pum
12218 7586 t
118 -36 m  124 -1 l  113 2 103 3 94 3 ct 79 3 68 1 60 -4 ct 52 -9 46 -15 43 -22 ct 
39 -30 38 -46 38 -70 ct 38 -208 l  8 -208 l  8 -239 l  38 -239 l  38 -298 l 
78 -322 l  78 -239 l  118 -239 l  118 -208 l  78 -208 l  78 -68 l  78 -56 78 -49 80 -46 ct 
81 -42 84 -40 87 -38 ct 90 -36 95 -35 101 -35 ct 105 -35 111 -35 118 -36 ct p ef
pom
pum
12345 7779 t
86 0 m  86 -46 l  3 -46 l  3 -67 l  90 -190 l  109 -190 l  109 -67 l  135 -67 l 
135 -46 l  109 -46 l  109 0 l  86 0 l  p
86 -67 m  86 -153 l  26 -67 l  86 -67 l  p ef
pom
1.000 1.000 1.000 c 11477 6984 m  11064 6984 l  11064 6159 l  11890 6159 l 
11890 6984 l  11477 6984 l  p ef
0.503 0.503 0.503 c 11477 6984 m  11064 6984 l  11064 6159 l  11890 6159 l 
11890 6984 l  11477 6984 l  pc
pum
11212 6656 t
0.105 0.105 0.105 c 30 0 m  30 -239 l  66 -239 l  66 -205 l  74 -217 84 -226 96 -233 ct 
109 -240 123 -244 139 -244 ct 156 -244 171 -240 182 -233 ct 193 -226 201 -215 206 -202 ct 
225 -230 249 -244 279 -244 ct 303 -244 321 -237 334 -224 ct 346 -211 353 -191 353 -164 ct 
353 0 l  313 0 l  313 -150 l  313 -166 311 -178 309 -185 ct 306 -192 301 -198 295 -202 ct 
288 -207 280 -209 270 -209 ct 254 -209 240 -203 229 -192 ct 218 -181 212 -163 212 -139 ct 
212 0 l  172 0 l  172 -155 l  172 -173 168 -186 162 -195 ct 155 -204 144 -209 130 -209 ct 
118 -209 108 -206 98 -200 ct 88 -194 81 -185 77 -174 ct 73 -162 71 -146 71 -124 ct 
71 0 l  30 0 l  p ef
pom
pum
11593 6848 t
134 -22 m  134 0 l  8 0 l  8 -6 9 -11 11 -16 ct 14 -25 19 -33 26 -42 ct 33 -50 43 -59 57 -70 ct 
77 -87 91 -101 99 -111 ct 106 -121 110 -130 110 -139 ct 110 -148 106 -156 100 -162 ct 
93 -168 84 -172 74 -172 ct 63 -172 54 -168 47 -162 ct 40 -155 37 -145 37 -134 ct 
12 -136 l  14 -154 20 -168 31 -177 ct 42 -186 56 -191 74 -191 ct 93 -191 107 -186 118 -176 ct 
128 -166 134 -153 134 -138 ct 134 -131 132 -123 129 -116 ct 126 -108 121 -101 113 -93 ct 
106 -84 94 -73 77 -59 ct 63 -47 54 -39 50 -35 ct 46 -31 43 -27 41 -22 ct 134 -22 l 
p ef
pom


pum
11423 7585 t
118 -36 m  124 -1 l  113 2 103 3 94 3 ct 79 3 68 1 60 -4 ct 52 -9 46 -15 43 -22 ct 
39 -30 38 -46 38 -70 ct 38 -208 l  8 -208 l  8 -239 l  38 -239 l  38 -298 l 
78 -322 l  78 -239 l  118 -239 l  118 -208 l  78 -208 l  78 -68 l  78 -56 78 -49 80 -46 ct 
81 -42 84 -40 87 -38 ct 90 -36 95 -35 101 -35 ct 105 -35 111 -35 118 -36 ct p ef
pom
pum
11550 7778 t
11 -51 m  35 -54 l  37 -40 42 -31 48 -25 ct 55 -19 63 -16 72 -16 ct 83 -16 92 -20 100 -28 ct 
107 -35 111 -45 111 -56 ct 111 -67 108 -76 101 -83 ct 94 -90 85 -93 74 -93 ct 69 -93 64 -92 57 -90 ct 
60 -111 l  61 -111 63 -111 64 -111 ct 74 -111 83 -113 91 -118 ct 99 -124 102 -132 102 -142 ct 
102 -151 100 -158 94 -164 ct 88 -169 80 -172 71 -172 ct 62 -172 55 -169 49 -163 ct 
43 -158 39 -149 37 -138 ct 14 -142 l  16 -158 23 -170 33 -178 ct 43 -187 56 -191 71 -191 ct 
81 -191 91 -189 99 -185 ct 108 -180 115 -174 120 -166 ct 124 -159 127 -151 127 -142 ct 
127 -134 124 -126 120 -119 ct 115 -113 109 -107 100 -103 ct 112 -101 120 -95 127 -87 ct 
133 -79 136 -69 136 -57 ct 136 -40 130 -26 118 -14 ct 106 -3 90 3 72 3 ct 55 3 41 -2 30 -12 ct 
19 -22 13 -35 11 -51 ct p ef
pom

pum
13803 7588 t
118 -36 m  124 -1 l  113 2 103 3 94 3 ct 79 3 68 1 60 -4 ct 52 -9 46 -15 43 -22 ct 
39 -30 38 -46 38 -70 ct 38 -208 l  8 -208 l  8 -239 l  38 -239 l  38 -298 l 
78 -322 l  78 -239 l  118 -239 l  118 -208 l  78 -208 l  78 -68 l  78 -56 78 -49 80 -46 ct 
81 -42 84 -40 87 -38 ct 90 -36 95 -35 101 -35 ct 105 -35 111 -35 118 -36 ct p ef
pom
pum
13930 7781 t
15 -44 m  37 -46 l  39 -36 43 -28 48 -23 ct 53 -19 60 -16 69 -16 ct 76 -16 82 -18 87 -21 ct 
93 -24 97 -29 101 -34 ct 104 -40 107 -47 109 -57 ct 112 -66 113 -76 113 -85 ct 
113 -86 113 -88 113 -90 ct 108 -83 102 -77 94 -72 ct 86 -67 77 -65 67 -65 ct 52 -65 38 -71 27 -82 ct 
17 -94 11 -109 11 -127 ct 11 -146 17 -162 28 -174 ct 40 -185 54 -191 71 -191 ct 
83 -191 95 -188 105 -181 ct 115 -175 123 -165 128 -153 ct 134 -141 136 -123 136 -99 ct 
136 -75 134 -56 128 -41 ct 123 -27 115 -16 105 -8 ct 94 -1 82 3 68 3 ct 53 3 41 -1 32 -9 ct 
22 -18 16 -29 15 -44 ct p
110 -128 m  110 -142 107 -152 100 -160 ct 92 -168 84 -172 74 -172 ct 63 -172 54 -168 47 -159 ct 
39 -151 35 -140 35 -126 ct 35 -114 39 -105 46 -97 ct 53 -89 62 -86 73 -86 ct 84 -86 93 -89 100 -97 ct 
107 -105 110 -115 110 -128 ct p ef
pom
0.503 0.503 0.503 c 3042 4198 m  2898 4198 2755 4396 2755 4595 ct 2755 6183 l 
2755 6381 2612 6579 2469 6579 ct 2612 6579 2755 6777 2755 6976 ct 2755 8564 l 
2755 8762 2898 8961 3042 8961 ct ps
2469 4198 m  2469 4198 l  pc
3042 8961 m  3042 8961 l  pc


pum
12806 6609 t
0.105 0.105 0.105 c 58 0 m  58 -64 l  121 -64 l  121 0 l  58 0 l  p ef
236 0 m  236 -64 l  299 -64 l  299 0 l  236 0 l  p ef
414 0 m  414 -64 l  477 -64 l  477 0 l  414 0 l  p ef
pom
0.503 0.503 0.503 c 14333 6036 m  14333 5892 14130 5749 13926 5749 ct 12297 5749 l 
12093 5749 11889 5606 11889 5463 ct 11889 5606 11685 5749 11481 5749 ct 9851 5749 l 
9647 5749 9443 5892 9443 6036 ct ps
14333 5463 m  14333 5463 l  pc
9443 6036 m  9443 6036 l  pc


pum
2372 7607 t
90.0 r 0.105 0.105 0.105 c 31 0 m  31 -302 l  92 -302 l  163 -88 l  170 -68 175 -53 178 -44 ct 
181 -55 187 -71 194 -92 ct 266 -302 l  320 -302 l  320 0 l  282 0 l  282 -253 l 
194 0 l  158 0 l  70 -257 l  70 0 l  31 0 l  p ef
354 0 m  434 -114 l  360 -219 l  407 -219 l  440 -168 l  447 -158 452 -150 456 -143 ct 
462 -152 467 -160 472 -167 ct 509 -219 l  554 -219 l  478 -116 l  559 0 l 
514 0 l  469 -68 l  457 -86 l  399 0 l  354 0 l  p ef
595 0 m  595 -302 l  636 -302 l  795 -65 l  795 -302 l  834 -302 l  834 0 l 
793 0 l  634 -238 l  634 0 l  595 0 l  p ef
1014 0 m  1014 -219 l  1047 -219 l  1047 -188 l  1054 -199 1063 -208 1075 -214 ct 
1086 -221 1099 -224 1114 -224 ct 1130 -224 1143 -221 1154 -214 ct 1164 -207 1171 -198 1176 -186 ct 
1193 -211 1216 -224 1243 -224 ct 1265 -224 1282 -218 1294 -206 ct 1305 -194 1311 -175 1311 -150 ct 
1311 0 l  1274 0 l  1274 -138 l  1274 -153 1273 -164 1271 -170 ct 1268 -177 1264 -182 1257 -186 ct 
1251 -190 1244 -192 1235 -192 ct 1220 -192 1207 -187 1197 -176 ct 1186 -166 1181 -150 1181 -127 ct 
1181 0 l  1144 0 l  1144 -142 l  1144 -159 1141 -171 1135 -179 ct 1129 -188 1119 -192 1105 -192 ct 
1095 -192 1085 -189 1076 -184 ct 1067 -178 1061 -170 1057 -159 ct 1053 -149 1051 -134 1051 -114 ct 
1051 0 l  1014 0 l  p ef
1509 -27 m  1495 -15 1482 -7 1469 -2 ct 1457 3 1443 5 1428 5 ct 1404 5 1386 -1 1373 -13 ct 
1360 -24 1353 -39 1353 -58 ct 1353 -68 1356 -78 1361 -87 ct 1366 -96 1372 -103 1380 -108 ct 
1388 -114 1397 -118 1407 -121 ct 1414 -123 1425 -124 1440 -126 ct 1470 -130 1492 -134 1506 -139 ct 
1506 -144 1506 -147 1506 -149 ct 1506 -164 1503 -174 1496 -181 ct 1486 -189 1472 -193 1453 -193 ct 
1436 -193 1423 -190 1415 -184 ct 1406 -178 1400 -167 1396 -152 ct 1360 -157 l 
1363 -172 1368 -185 1376 -194 ct 1384 -204 1395 -211 1409 -216 ct 1423 -221 1440 -224 1459 -224 ct 
1477 -224 1493 -222 1504 -217 ct 1516 -213 1525 -207 1530 -201 ct 1536 -194 1539 -186 1542 -176 ct 
1543 -169 1544 -158 1544 -141 ct 1544 -92 l  1544 -57 1544 -35 1546 -26 ct 1547 -17 1551 -8 1555 0 ct 
1516 0 l  1513 -8 1510 -17 1509 -27 ct p
1506 -110 m  1492 -104 1472 -100 1445 -96 ct 1430 -94 1419 -91 1413 -88 ct 1406 -86 1402 -82 1398 -76 ct 
1395 -71 1393 -65 1393 -59 ct 1393 -49 1397 -41 1404 -34 ct 1412 -27 1423 -24 1437 -24 ct 
1451 -24 1464 -27 1475 -33 ct 1487 -40 1495 -48 1500 -59 ct 1504 -68 1506 -80 1506 -96 ct 
1506 -110 l  p ef
1684 -33 m  1689 0 l  1679 2 1670 3 1661 3 ct 1648 3 1637 1 1630 -3 ct 1623 -8 1617 -13 1614 -20 ct 
1611 -27 1610 -42 1610 -64 ct 1610 -190 l  1582 -190 l  1582 -219 l  1610 -219 l 
1610 -273 l  1647 -296 l  1647 -219 l  1684 -219 l  1684 -190 l  1647 -190 l 
1647 -62 l  1647 -51 1647 -45 1649 -42 ct 1650 -39 1652 -36 1655 -34 ct 1658 -33 1662 -32 1668 -32 ct 
1672 -32 1677 -32 1684 -33 ct p ef
1720 0 m  1720 -219 l  1754 -219 l  1754 -186 l  1762 -201 1770 -212 1778 -217 ct 
1785 -222 1793 -224 1801 -224 ct 1814 -224 1827 -220 1840 -212 ct 1827 -178 l 
1818 -183 1809 -186 1800 -186 ct 1791 -186 1784 -183 1778 -178 ct 1771 -173 1767 -167 1764 -158 ct 
1760 -145 1758 -130 1758 -115 ct 1758 0 l  1720 0 l  p ef
1861 -260 m  1861 -303 l  1898 -303 l  1898 -260 l  1861 -260 l  p
1861 0 m  1861 -219 l  1898 -219 l  1898 0 l  1861 0 l  p ef
1929 0 m  2009 -114 l  1935 -219 l  1982 -219 l  2015 -168 l  2022 -158 2027 -150 2031 -143 ct 
2037 -152 2042 -160 2047 -167 ct 2084 -219 l  2129 -219 l  2053 -116 l  2134 0 l 
2089 0 l  2044 -68 l  2032 -86 l  1974 0 l  1929 0 l  p ef
pom

pum
10954 5338 t
32 0 m  32 -302 l  73 -302 l  232 -65 l  232 -302 l  271 -302 l  271 0 l 
230 0 l  71 -238 l  71 0 l  32 0 l  p ef
308 0 m  388 -114 l  314 -219 l  361 -219 l  394 -168 l  401 -158 406 -150 410 -143 ct 
416 -152 421 -160 426 -167 ct 463 -219 l  508 -219 l  432 -116 l  513 0 l 
468 0 l  423 -68 l  411 -86 l  353 0 l  308 0 l  p ef
674 0 m  636 0 l  636 -237 l  627 -228 616 -220 601 -211 ct 587 -202 574 -196 562 -192 ct 
562 -228 l  583 -237 601 -249 617 -263 ct 632 -277 643 -291 650 -304 ct 674 -304 l 
674 0 l  p ef
961 0 m  877 -219 l  917 -219 l  964 -88 l  969 -74 973 -59 978 -44 ct 981 -55 986 -69 992 -85 ct 
1040 -219 l  1079 -219 l  996 0 l  961 0 l  p ef
1262 -71 m  1300 -66 l  1294 -43 1283 -26 1267 -14 ct 1250 -1 1229 5 1204 5 ct 
1172 5 1146 -5 1128 -25 ct 1109 -44 1099 -72 1099 -108 ct 1099 -145 1109 -173 1128 -193 ct 
1147 -214 1172 -224 1202 -224 ct 1231 -224 1255 -214 1274 -194 ct 1292 -174 1302 -146 1302 -110 ct 
1302 -108 1302 -104 1301 -100 ct 1138 -100 l  1139 -76 1146 -58 1158 -45 ct 
1171 -32 1186 -26 1204 -26 ct 1218 -26 1229 -29 1239 -36 ct 1249 -43 1256 -55 1262 -71 ct 
p
1140 -131 m  1262 -131 l  1261 -149 1256 -163 1248 -172 ct 1237 -186 1221 -193 1202 -193 ct 
1185 -193 1171 -188 1159 -176 ct 1148 -165 1141 -150 1140 -131 ct p ef
1492 -80 m  1529 -75 l  1525 -50 1514 -31 1498 -16 ct 1481 -2 1461 5 1437 5 ct 
1407 5 1383 -5 1365 -24 ct 1347 -44 1338 -72 1338 -109 ct 1338 -132 1341 -153 1349 -171 ct 
1357 -189 1369 -202 1385 -211 ct 1401 -220 1419 -224 1437 -224 ct 1461 -224 1481 -218 1496 -206 ct 
1511 -194 1521 -177 1525 -155 ct 1489 -149 l  1485 -164 1479 -175 1471 -182 ct 
1462 -190 1451 -193 1439 -193 ct 1420 -193 1405 -187 1393 -173 ct 1382 -160 1376 -139 1376 -110 ct 
1376 -80 1381 -59 1393 -46 ct 1404 -32 1419 -26 1437 -26 ct 1451 -26 1464 -30 1473 -39 ct 
1483 -48 1489 -62 1492 -80 ct p ef
1641 -33 m  1646 0 l  1636 2 1627 3 1618 3 ct 1605 3 1594 1 1587 -3 ct 1580 -8 1574 -13 1571 -20 ct 
1568 -27 1567 -42 1567 -64 ct 1567 -190 l  1539 -190 l  1539 -219 l  1567 -219 l 
1567 -273 l  1604 -296 l  1604 -219 l  1641 -219 l  1641 -190 l  1604 -190 l 
1604 -62 l  1604 -51 1604 -45 1606 -42 ct 1607 -39 1609 -36 1612 -34 ct 1615 -33 1619 -32 1625 -32 ct 
1629 -32 1634 -32 1641 -33 ct p ef
1665 -109 m  1665 -150 1676 -180 1699 -200 ct 1718 -216 1741 -224 1768 -224 ct 
1798 -224 1823 -214 1842 -194 ct 1861 -175 1871 -147 1871 -113 ct 1871 -84 1866 -62 1858 -46 ct 
1849 -30 1837 -17 1821 -8 ct 1805 1 1787 5 1768 5 ct 1737 5 1712 -5 1693 -25 ct 
1675 -44 1665 -73 1665 -109 ct p
1703 -110 m  1703 -81 1709 -60 1722 -46 ct 1734 -33 1749 -26 1768 -26 ct 1786 -26 1802 -33 1814 -47 ct 
1826 -61 1832 -82 1832 -111 ct 1832 -138 1826 -158 1814 -172 ct 1802 -186 1786 -193 1768 -193 ct 
1749 -193 1734 -186 1722 -172 ct 1709 -159 1703 -138 1703 -110 ct p ef
1915 0 m  1915 -219 l  1949 -219 l  1949 -186 l  1957 -201 1965 -212 1973 -217 ct 
1980 -222 1988 -224 1996 -224 ct 2009 -224 2022 -220 2035 -212 ct 2022 -178 l 
2013 -183 2004 -186 1995 -186 ct 1986 -186 1979 -183 1973 -178 ct 1966 -173 1962 -167 1959 -158 ct 
1955 -145 1953 -130 1953 -115 ct 1953 0 l  1915 0 l  p ef
pom

pum
2366 10358 t
31 0 m  31 -302 l  92 -302 l  163 -88 l  170 -68 175 -53 178 -44 ct 181 -55 187 -71 194 -92 ct 
266 -302 l  320 -302 l  320 0 l  282 0 l  282 -253 l  194 0 l  158 0 l 
70 -257 l  70 0 l  31 0 l  p ef
522 -27 m  508 -15 495 -7 482 -2 ct 470 3 456 5 441 5 ct 417 5 399 -1 386 -13 ct 
373 -24 366 -39 366 -58 ct 366 -68 369 -78 374 -87 ct 379 -96 385 -103 393 -108 ct 
401 -114 410 -118 420 -121 ct 427 -123 438 -124 453 -126 ct 483 -130 505 -134 519 -139 ct 
519 -144 519 -147 519 -149 ct 519 -164 516 -174 509 -181 ct 499 -189 485 -193 466 -193 ct 
449 -193 436 -190 428 -184 ct 419 -178 413 -167 409 -152 ct 373 -157 l  376 -172 381 -185 389 -194 ct 
397 -204 408 -211 422 -216 ct 436 -221 453 -224 472 -224 ct 490 -224 506 -222 517 -217 ct 
529 -213 538 -207 543 -201 ct 549 -194 552 -186 555 -176 ct 556 -169 557 -158 557 -141 ct 
557 -92 l  557 -57 557 -35 559 -26 ct 560 -17 564 -8 568 0 ct 529 0 l  526 -8 523 -17 522 -27 ct 
p
519 -110 m  505 -104 485 -100 458 -96 ct 443 -94 432 -91 426 -88 ct 419 -86 415 -82 411 -76 ct 
408 -71 406 -65 406 -59 ct 406 -49 410 -41 417 -34 ct 425 -27 436 -24 450 -24 ct 
464 -24 477 -27 488 -33 ct 500 -40 508 -48 513 -59 ct 517 -68 519 -80 519 -96 ct 
519 -110 l  p ef
759 -80 m  796 -75 l  792 -50 781 -31 765 -16 ct 748 -2 728 5 704 5 ct 674 5 650 -5 632 -24 ct 
614 -44 605 -72 605 -109 ct 605 -132 608 -153 616 -171 ct 624 -189 636 -202 652 -211 ct 
668 -220 686 -224 704 -224 ct 728 -224 748 -218 763 -206 ct 778 -194 788 -177 792 -155 ct 
756 -149 l  752 -164 746 -175 738 -182 ct 729 -190 718 -193 706 -193 ct 687 -193 672 -187 660 -173 ct 
649 -160 643 -139 643 -110 ct 643 -80 648 -59 660 -46 ct 671 -32 686 -26 704 -26 ct 
718 -26 731 -30 740 -39 ct 750 -48 756 -62 759 -80 ct p ef
828 0 m  828 -302 l  865 -302 l  865 -194 l  882 -214 904 -224 931 -224 ct 
947 -224 961 -221 973 -214 ct 985 -208 994 -199 999 -188 ct 1004 -177 1007 -160 1007 -139 ct 
1007 0 l  969 0 l  969 -139 l  969 -157 965 -171 957 -179 ct 949 -188 938 -192 923 -192 ct 
912 -192 902 -189 892 -183 ct 882 -178 875 -170 871 -160 ct 867 -150 865 -137 865 -120 ct 
865 0 l  828 0 l  p ef
1065 -260 m  1065 -303 l  1102 -303 l  1102 -260 l  1065 -260 l  p
1065 0 m  1065 -219 l  1102 -219 l  1102 0 l  1065 0 l  p ef
1158 0 m  1158 -219 l  1191 -219 l  1191 -188 l  1207 -212 1231 -224 1261 -224 ct 
1274 -224 1287 -222 1298 -217 ct 1309 -212 1317 -206 1323 -198 ct 1328 -191 1332 -181 1334 -171 ct 
1335 -164 1336 -152 1336 -135 ct 1336 0 l  1299 0 l  1299 -133 l  1299 -148 1298 -160 1295 -167 ct 
1292 -175 1287 -181 1279 -185 ct 1272 -190 1263 -192 1253 -192 ct 1237 -192 1224 -187 1212 -177 ct 
1201 -167 1195 -148 1195 -120 ct 1195 0 l  1158 0 l  p ef
1545 -71 m  1583 -66 l  1577 -43 1566 -26 1550 -14 ct 1533 -1 1512 5 1487 5 ct 
1455 5 1429 -5 1411 -25 ct 1392 -44 1382 -72 1382 -108 ct 1382 -145 1392 -173 1411 -193 ct 
1430 -214 1455 -224 1485 -224 ct 1514 -224 1538 -214 1557 -194 ct 1575 -174 1585 -146 1585 -110 ct 
1585 -108 1585 -104 1584 -100 ct 1421 -100 l  1422 -76 1429 -58 1441 -45 ct 
1454 -32 1469 -26 1487 -26 ct 1501 -26 1512 -29 1522 -36 ct 1532 -43 1539 -55 1545 -71 ct 
p
1423 -131 m  1545 -131 l  1544 -149 1539 -163 1531 -172 ct 1520 -186 1504 -193 1485 -193 ct 
1468 -193 1454 -188 1442 -176 ct 1431 -165 1424 -150 1423 -131 ct p ef
1617 -91 m  1617 -128 l  1732 -128 l  1732 -91 l  1617 -91 l  p ef
1758 -109 m  1758 -150 1769 -180 1792 -200 ct 1811 -216 1834 -224 1861 -224 ct 
1891 -224 1916 -214 1935 -194 ct 1954 -175 1964 -147 1964 -113 ct 1964 -84 1959 -62 1951 -46 ct 
1942 -30 1930 -17 1914 -8 ct 1898 1 1880 5 1861 5 ct 1830 5 1805 -5 1786 -25 ct 
1768 -44 1758 -73 1758 -109 ct p
1796 -110 m  1796 -81 1802 -60 1815 -46 ct 1827 -33 1842 -26 1861 -26 ct 1879 -26 1895 -33 1907 -47 ct 
1919 -61 1925 -82 1925 -111 ct 1925 -138 1919 -158 1907 -172 ct 1895 -186 1879 -193 1861 -193 ct 
1842 -193 1827 -186 1815 -172 ct 1802 -159 1796 -138 1796 -110 ct p ef
2008 0 m  2008 -219 l  2042 -219 l  2042 -186 l  2050 -201 2058 -212 2066 -217 ct 
2073 -222 2081 -224 2089 -224 ct 2102 -224 2115 -220 2128 -212 ct 2115 -178 l 
2106 -183 2097 -186 2088 -186 ct 2079 -186 2072 -183 2066 -178 ct 2059 -173 2055 -167 2052 -158 ct 
2048 -145 2046 -130 2046 -115 ct 2046 0 l  2008 0 l  p ef
2149 -260 m  2149 -303 l  2186 -303 l  2186 -260 l  2149 -260 l  p
2149 0 m  2149 -219 l  2186 -219 l  2186 0 l  2149 0 l  p ef
2392 -71 m  2430 -66 l  2424 -43 2413 -26 2397 -14 ct 2380 -1 2359 5 2334 5 ct 
2302 5 2276 -5 2258 -25 ct 2239 -44 2229 -72 2229 -108 ct 2229 -145 2239 -173 2258 -193 ct 
2277 -214 2302 -224 2332 -224 ct 2361 -224 2385 -214 2404 -194 ct 2422 -174 2432 -146 2432 -110 ct 
2432 -108 2432 -104 2431 -100 ct 2268 -100 l  2269 -76 2276 -58 2288 -45 ct 
2301 -32 2316 -26 2334 -26 ct 2348 -26 2359 -29 2369 -36 ct 2379 -43 2386 -55 2392 -71 ct 
p
2270 -131 m  2392 -131 l  2391 -149 2386 -163 2378 -172 ct 2367 -186 2351 -193 2332 -193 ct 
2315 -193 2301 -188 2289 -176 ct 2278 -165 2271 -150 2270 -131 ct p ef
2479 0 m  2479 -219 l  2512 -219 l  2512 -188 l  2528 -212 2552 -224 2582 -224 ct 
2595 -224 2608 -222 2619 -217 ct 2630 -212 2638 -206 2644 -198 ct 2649 -191 2653 -181 2655 -171 ct 
2656 -164 2657 -152 2657 -135 ct 2657 0 l  2620 0 l  2620 -133 l  2620 -148 2619 -160 2616 -167 ct 
2613 -175 2608 -181 2600 -185 ct 2593 -190 2584 -192 2574 -192 ct 2558 -192 2545 -187 2533 -177 ct 
2522 -167 2516 -148 2516 -120 ct 2516 0 l  2479 0 l  p ef
2797 -33 m  2802 0 l  2792 2 2783 3 2774 3 ct 2761 3 2750 1 2743 -3 ct 2736 -8 2730 -13 2727 -20 ct 
2724 -27 2723 -42 2723 -64 ct 2723 -190 l  2695 -190 l  2695 -219 l  2723 -219 l 
2723 -273 l  2760 -296 l  2760 -219 l  2797 -219 l  2797 -190 l  2760 -190 l 
2760 -62 l  2760 -51 2760 -45 2762 -42 ct 2763 -39 2765 -36 2768 -34 ct 2771 -33 2775 -32 2781 -32 ct 
2785 -32 2790 -32 2797 -33 ct p ef
2985 -71 m  3023 -66 l  3017 -43 3006 -26 2990 -14 ct 2973 -1 2952 5 2927 5 ct 
2895 5 2869 -5 2851 -25 ct 2832 -44 2822 -72 2822 -108 ct 2822 -145 2832 -173 2851 -193 ct 
2870 -214 2895 -224 2925 -224 ct 2954 -224 2978 -214 2997 -194 ct 3015 -174 3025 -146 3025 -110 ct 
3025 -108 3025 -104 3024 -100 ct 2861 -100 l  2862 -76 2869 -58 2881 -45 ct 
2894 -32 2909 -26 2927 -26 ct 2941 -26 2952 -29 2962 -36 ct 2972 -43 2979 -55 2985 -71 ct 
p
2863 -131 m  2985 -131 l  2984 -149 2979 -163 2971 -172 ct 2960 -186 2944 -193 2925 -193 ct 
2908 -193 2894 -188 2882 -176 ct 2871 -165 2864 -150 2863 -131 ct p ef
3214 0 m  3214 -28 l  3200 -6 3180 5 3153 5 ct 3135 5 3119 0 3105 -9 ct 3090 -19 3079 -33 3071 -50 ct 
3062 -67 3058 -87 3058 -109 ct 3058 -131 3062 -151 3069 -169 ct 3077 -187 3088 -200 3102 -210 ct 
3117 -219 3133 -224 3151 -224 ct 3164 -224 3176 -221 3187 -216 ct 3197 -210 3205 -203 3212 -194 ct 
3212 -302 l  3249 -302 l  3249 0 l  3214 0 l  p
3097 -109 m  3097 -81 3103 -60 3114 -46 ct 3126 -32 3140 -26 3156 -26 ct 3173 -26 3186 -32 3198 -45 ct 
3209 -59 3215 -79 3215 -106 ct 3215 -136 3209 -158 3197 -172 ct 3186 -186 3172 -193 3155 -193 ct 
3138 -193 3124 -187 3113 -173 ct 3102 -160 3097 -138 3097 -109 ct p ef
3577 -71 m  3615 -66 l  3609 -43 3598 -26 3582 -14 ct 3565 -1 3544 5 3519 5 ct 
3487 5 3461 -5 3443 -25 ct 3424 -44 3414 -72 3414 -108 ct 3414 -145 3424 -173 3443 -193 ct 
3462 -214 3487 -224 3517 -224 ct 3546 -224 3570 -214 3589 -194 ct 3607 -174 3617 -146 3617 -110 ct 
3617 -108 3617 -104 3616 -100 ct 3453 -100 l  3454 -76 3461 -58 3473 -45 ct 
3486 -32 3501 -26 3519 -26 ct 3533 -26 3544 -29 3554 -36 ct 3564 -43 3571 -55 3577 -71 ct 
p
3455 -131 m  3577 -131 l  3576 -149 3571 -163 3563 -172 ct 3552 -186 3536 -193 3517 -193 ct 
3500 -193 3486 -188 3474 -176 ct 3463 -165 3456 -150 3455 -131 ct p ef
3664 0 m  3664 -219 l  3697 -219 l  3697 -188 l  3713 -212 3737 -224 3767 -224 ct 
3780 -224 3793 -222 3804 -217 ct 3815 -212 3823 -206 3829 -198 ct 3834 -191 3838 -181 3840 -171 ct 
3841 -164 3842 -152 3842 -135 ct 3842 0 l  3805 0 l  3805 -133 l  3805 -148 3804 -160 3801 -167 ct 
3798 -175 3793 -181 3785 -185 ct 3778 -190 3769 -192 3759 -192 ct 3743 -192 3730 -187 3718 -177 ct 
3707 -167 3701 -148 3701 -120 ct 3701 0 l  3664 0 l  p ef
4045 -80 m  4082 -75 l  4078 -50 4067 -31 4051 -16 ct 4034 -2 4014 5 3990 5 ct 
3960 5 3936 -5 3918 -24 ct 3900 -44 3891 -72 3891 -109 ct 3891 -132 3894 -153 3902 -171 ct 
3910 -189 3922 -202 3938 -211 ct 3954 -220 3972 -224 3990 -224 ct 4014 -224 4034 -218 4049 -206 ct 
4064 -194 4074 -177 4078 -155 ct 4042 -149 l  4038 -164 4032 -175 4024 -182 ct 
4015 -190 4004 -193 3992 -193 ct 3973 -193 3958 -187 3946 -173 ct 3935 -160 3929 -139 3929 -110 ct 
3929 -80 3934 -59 3946 -46 ct 3957 -32 3972 -26 3990 -26 ct 4004 -26 4017 -30 4026 -39 ct 
4036 -48 4042 -62 4045 -80 ct p ef
4099 -109 m  4099 -150 4110 -180 4133 -200 ct 4152 -216 4175 -224 4202 -224 ct 
4232 -224 4257 -214 4276 -194 ct 4295 -175 4305 -147 4305 -113 ct 4305 -84 4300 -62 4292 -46 ct 
4283 -30 4271 -17 4255 -8 ct 4239 1 4221 5 4202 5 ct 4171 5 4146 -5 4127 -25 ct 
4109 -44 4099 -73 4099 -109 ct p
4137 -110 m  4137 -81 4143 -60 4156 -46 ct 4168 -33 4183 -26 4202 -26 ct 4220 -26 4236 -33 4248 -47 ct 
4260 -61 4266 -82 4266 -111 ct 4266 -138 4260 -158 4248 -172 ct 4236 -186 4220 -193 4202 -193 ct 
4183 -193 4168 -186 4156 -172 ct 4143 -159 4137 -138 4137 -110 ct p ef
4492 0 m  4492 -28 l  4478 -6 4458 5 4431 5 ct 4413 5 4397 0 4383 -9 ct 4368 -19 4357 -33 4349 -50 ct 
4340 -67 4336 -87 4336 -109 ct 4336 -131 4340 -151 4347 -169 ct 4355 -187 4366 -200 4380 -210 ct 
4395 -219 4411 -224 4429 -224 ct 4442 -224 4454 -221 4465 -216 ct 4475 -210 4483 -203 4490 -194 ct 
4490 -302 l  4527 -302 l  4527 0 l  4492 0 l  p
4375 -109 m  4375 -81 4381 -60 4392 -46 ct 4404 -32 4418 -26 4434 -26 ct 4451 -26 4464 -32 4476 -45 ct 
4487 -59 4493 -79 4493 -106 ct 4493 -136 4487 -158 4475 -172 ct 4464 -186 4450 -193 4433 -193 ct 
4416 -193 4402 -187 4391 -173 ct 4380 -160 4375 -138 4375 -109 ct p ef
4587 -260 m  4587 -303 l  4624 -303 l  4624 -260 l  4587 -260 l  p
4587 0 m  4587 -219 l  4624 -219 l  4624 0 l  4587 0 l  p ef
4680 0 m  4680 -219 l  4713 -219 l  4713 -188 l  4729 -212 4753 -224 4783 -224 ct 
4796 -224 4809 -222 4820 -217 ct 4831 -212 4839 -206 4845 -198 ct 4850 -191 4854 -181 4856 -171 ct 
4857 -164 4858 -152 4858 -135 ct 4858 0 l  4821 0 l  4821 -133 l  4821 -148 4820 -160 4817 -167 ct 
4814 -175 4809 -181 4801 -185 ct 4794 -190 4785 -192 4775 -192 ct 4759 -192 4746 -187 4734 -177 ct 
4723 -167 4717 -148 4717 -120 ct 4717 0 l  4680 0 l  p ef
4911 18 m  4947 24 l  4949 35 4953 43 4960 48 ct 4969 55 4982 58 4998 58 ct 
5015 58 5028 55 5037 48 ct 5047 41 5053 31 5056 19 ct 5058 11 5059 -4 5059 -29 ct 
5043 -10 5023 0 4998 0 ct 4968 0 4945 -11 4928 -33 ct 4912 -54 4904 -80 4904 -111 ct 
4904 -132 4907 -151 4915 -169 ct 4923 -186 4934 -200 4948 -210 ct 4962 -219 4979 -224 4999 -224 ct 
5025 -224 5046 -214 5063 -193 ct 5063 -219 l  5097 -219 l  5097 -30 l  5097 4 5093 29 5087 43 ct 
5080 57 5069 68 5053 77 ct 5038 85 5020 89 4998 89 ct 4972 89 4951 83 4934 71 ct 
4918 60 4911 42 4911 18 ct p
4942 -113 m  4942 -85 4948 -64 4959 -51 ct 4970 -37 4985 -31 5002 -31 ct 5019 -31 5033 -37 5045 -50 ct 
5056 -64 5062 -84 5062 -112 ct 5062 -139 5056 -159 5044 -173 ct 5032 -186 5018 -193 5001 -193 ct 
4985 -193 4971 -187 4959 -173 ct 4948 -160 4942 -140 4942 -113 ct p ef
pom

pum
9666 10358 t
110 -1 m  110 -267 l  10 -267 l  10 -303 l  250 -303 l  250 -267 l  150 -267 l 
150 -1 l  110 -1 l  p ef
383 -27 m  369 -15 356 -7 343 -2 ct 331 3 317 5 302 5 ct 278 5 260 -1 247 -13 ct 
234 -24 227 -39 227 -58 ct 227 -68 230 -78 235 -87 ct 240 -96 246 -103 254 -108 ct 
262 -114 271 -118 281 -121 ct 288 -123 299 -124 314 -126 ct 344 -130 366 -134 380 -139 ct 
380 -144 380 -147 380 -149 ct 380 -164 377 -174 370 -181 ct 360 -189 346 -193 327 -193 ct 
310 -193 297 -190 289 -184 ct 280 -178 274 -167 270 -152 ct 234 -157 l  237 -172 242 -185 250 -194 ct 
258 -204 269 -211 283 -216 ct 297 -221 314 -224 333 -224 ct 351 -224 367 -222 378 -217 ct 
390 -213 399 -207 404 -201 ct 410 -194 413 -186 416 -176 ct 417 -169 418 -158 418 -141 ct 
418 -92 l  418 -57 418 -35 420 -26 ct 421 -17 425 -8 429 0 ct 390 0 l  387 -8 384 -17 383 -27 ct 
p
380 -110 m  366 -104 346 -100 319 -96 ct 304 -94 293 -91 287 -88 ct 280 -86 276 -82 272 -76 ct 
269 -71 267 -65 267 -59 ct 267 -49 271 -41 278 -34 ct 286 -27 297 -24 311 -24 ct 
325 -24 338 -27 349 -33 ct 361 -40 369 -48 374 -59 ct 378 -68 380 -80 380 -96 ct 
380 -110 l  p ef
462 -65 m  499 -71 l  501 -56 507 -45 516 -37 ct 525 -29 539 -26 556 -26 ct 
573 -26 585 -29 594 -36 ct 602 -43 606 -51 606 -60 ct 606 -69 602 -75 595 -80 ct 
590 -84 577 -88 557 -93 ct 530 -100 511 -106 500 -111 ct 490 -116 482 -123 476 -131 ct 
471 -140 468 -150 468 -161 ct 468 -171 470 -180 475 -188 ct 479 -196 486 -203 493 -209 ct 
499 -213 507 -217 517 -220 ct 527 -223 538 -224 549 -224 ct 566 -224 581 -222 594 -217 ct 
607 -212 617 -205 623 -196 ct 629 -188 634 -177 636 -163 ct 600 -158 l  598 -169 593 -178 585 -184 ct 
577 -190 566 -193 552 -193 ct 535 -193 522 -191 515 -185 ct 508 -179 504 -173 504 -165 ct 
504 -160 506 -156 509 -152 ct 512 -148 516 -145 523 -142 ct 527 -141 538 -138 556 -133 ct 
582 -126 600 -120 611 -116 ct 621 -111 629 -105 635 -96 ct 641 -88 644 -77 644 -64 ct 
644 -52 641 -40 633 -29 ct 626 -18 616 -10 602 -4 ct 588 2 573 5 556 5 ct 527 5 506 -1 491 -13 ct 
476 -25 466 -42 462 -65 ct p ef
688 0 m  688 -302 l  725 -302 l  725 -130 l  813 -219 l  861 -219 l  778 -138 l 
870 0 l  824 0 l  752 -112 l  725 -87 l  725 0 l  688 0 l  p ef
885 -91 m  885 -128 l  1000 -128 l  1000 -91 l  885 -91 l  p ef
1026 -109 m  1026 -150 1037 -180 1060 -200 ct 1079 -216 1102 -224 1129 -224 ct 
1159 -224 1184 -214 1203 -194 ct 1222 -175 1232 -147 1232 -113 ct 1232 -84 1227 -62 1219 -46 ct 
1210 -30 1198 -17 1182 -8 ct 1166 1 1148 5 1129 5 ct 1098 5 1073 -5 1054 -25 ct 
1036 -44 1026 -73 1026 -109 ct p
1064 -110 m  1064 -81 1070 -60 1083 -46 ct 1095 -33 1110 -26 1129 -26 ct 1147 -26 1163 -33 1175 -47 ct 
1187 -61 1193 -82 1193 -111 ct 1193 -138 1187 -158 1175 -172 ct 1163 -186 1147 -193 1129 -193 ct 
1110 -193 1095 -186 1083 -172 ct 1070 -159 1064 -138 1064 -110 ct p ef
1276 0 m  1276 -219 l  1310 -219 l  1310 -186 l  1318 -201 1326 -212 1334 -217 ct 
1341 -222 1349 -224 1357 -224 ct 1370 -224 1383 -220 1396 -212 ct 1383 -178 l 
1374 -183 1365 -186 1356 -186 ct 1347 -186 1340 -183 1334 -178 ct 1327 -173 1323 -167 1320 -158 ct 
1316 -145 1314 -130 1314 -115 ct 1314 0 l  1276 0 l  p ef
1417 -260 m  1417 -303 l  1454 -303 l  1454 -260 l  1417 -260 l  p
1417 0 m  1417 -219 l  1454 -219 l  1454 0 l  1417 0 l  p ef
1660 -71 m  1698 -66 l  1692 -43 1681 -26 1665 -14 ct 1648 -1 1627 5 1602 5 ct 
1570 5 1544 -5 1526 -25 ct 1507 -44 1497 -72 1497 -108 ct 1497 -145 1507 -173 1526 -193 ct 
1545 -214 1570 -224 1600 -224 ct 1629 -224 1653 -214 1672 -194 ct 1690 -174 1700 -146 1700 -110 ct 
1700 -108 1700 -104 1699 -100 ct 1536 -100 l  1537 -76 1544 -58 1556 -45 ct 
1569 -32 1584 -26 1602 -26 ct 1616 -26 1627 -29 1637 -36 ct 1647 -43 1654 -55 1660 -71 ct 
p
1538 -131 m  1660 -131 l  1659 -149 1654 -163 1646 -172 ct 1635 -186 1619 -193 1600 -193 ct 
1583 -193 1569 -188 1557 -176 ct 1546 -165 1539 -150 1538 -131 ct p ef
1747 0 m  1747 -219 l  1780 -219 l  1780 -188 l  1796 -212 1820 -224 1850 -224 ct 
1863 -224 1876 -222 1887 -217 ct 1898 -212 1906 -206 1912 -198 ct 1917 -191 1921 -181 1923 -171 ct 
1924 -164 1925 -152 1925 -135 ct 1925 0 l  1888 0 l  1888 -133 l  1888 -148 1887 -160 1884 -167 ct 
1881 -175 1876 -181 1868 -185 ct 1861 -190 1852 -192 1842 -192 ct 1826 -192 1813 -187 1801 -177 ct 
1790 -167 1784 -148 1784 -120 ct 1784 0 l  1747 0 l  p ef
2065 -33 m  2070 0 l  2060 2 2051 3 2042 3 ct 2029 3 2018 1 2011 -3 ct 2004 -8 1998 -13 1995 -20 ct 
1992 -27 1991 -42 1991 -64 ct 1991 -190 l  1963 -190 l  1963 -219 l  1991 -219 l 
1991 -273 l  2028 -296 l  2028 -219 l  2065 -219 l  2065 -190 l  2028 -190 l 
2028 -62 l  2028 -51 2028 -45 2030 -42 ct 2031 -39 2033 -36 2036 -34 ct 2039 -33 2043 -32 2049 -32 ct 
2053 -32 2058 -32 2065 -33 ct p ef
2252 -71 m  2290 -66 l  2284 -43 2273 -26 2257 -14 ct 2240 -1 2219 5 2194 5 ct 
2162 5 2136 -5 2118 -25 ct 2099 -44 2089 -72 2089 -108 ct 2089 -145 2099 -173 2118 -193 ct 
2137 -214 2162 -224 2192 -224 ct 2221 -224 2245 -214 2264 -194 ct 2282 -174 2292 -146 2292 -110 ct 
2292 -108 2292 -104 2291 -100 ct 2128 -100 l  2129 -76 2136 -58 2148 -45 ct 
2161 -32 2176 -26 2194 -26 ct 2208 -26 2219 -29 2229 -36 ct 2239 -43 2246 -55 2252 -71 ct 
p
2130 -131 m  2252 -131 l  2251 -149 2246 -163 2238 -172 ct 2227 -186 2211 -193 2192 -193 ct 
2175 -193 2161 -188 2149 -176 ct 2138 -165 2131 -150 2130 -131 ct p ef
2481 0 m  2481 -28 l  2467 -6 2447 5 2420 5 ct 2402 5 2386 0 2372 -9 ct 2357 -19 2346 -33 2338 -50 ct 
2329 -67 2325 -87 2325 -109 ct 2325 -131 2329 -151 2336 -169 ct 2344 -187 2355 -200 2369 -210 ct 
2384 -219 2400 -224 2418 -224 ct 2431 -224 2443 -221 2454 -216 ct 2464 -210 2472 -203 2479 -194 ct 
2479 -302 l  2516 -302 l  2516 0 l  2481 0 l  p
2364 -109 m  2364 -81 2370 -60 2381 -46 ct 2393 -32 2407 -26 2423 -26 ct 2440 -26 2453 -32 2465 -45 ct 
2476 -59 2482 -79 2482 -106 ct 2482 -136 2476 -158 2464 -172 ct 2453 -186 2439 -193 2422 -193 ct 
2405 -193 2391 -187 2380 -173 ct 2369 -160 2364 -138 2364 -109 ct p ef
2845 -71 m  2883 -66 l  2877 -43 2866 -26 2850 -14 ct 2833 -1 2812 5 2787 5 ct 
2755 5 2729 -5 2711 -25 ct 2692 -44 2682 -72 2682 -108 ct 2682 -145 2692 -173 2711 -193 ct 
2730 -214 2755 -224 2785 -224 ct 2814 -224 2838 -214 2857 -194 ct 2875 -174 2885 -146 2885 -110 ct 
2885 -108 2885 -104 2884 -100 ct 2721 -100 l  2722 -76 2729 -58 2741 -45 ct 
2754 -32 2769 -26 2787 -26 ct 2801 -26 2812 -29 2822 -36 ct 2832 -43 2839 -55 2845 -71 ct 
p
2723 -131 m  2845 -131 l  2844 -149 2839 -163 2831 -172 ct 2820 -186 2804 -193 2785 -193 ct 
2768 -193 2754 -188 2742 -176 ct 2731 -165 2724 -150 2723 -131 ct p ef
2932 0 m  2932 -219 l  2965 -219 l  2965 -188 l  2981 -212 3005 -224 3035 -224 ct 
3048 -224 3061 -222 3072 -217 ct 3083 -212 3091 -206 3097 -198 ct 3102 -191 3106 -181 3108 -171 ct 
3109 -164 3110 -152 3110 -135 ct 3110 0 l  3073 0 l  3073 -133 l  3073 -148 3072 -160 3069 -167 ct 
3066 -175 3061 -181 3053 -185 ct 3046 -190 3037 -192 3027 -192 ct 3011 -192 2998 -187 2986 -177 ct 
2975 -167 2969 -148 2969 -120 ct 2969 0 l  2932 0 l  p ef
3312 -80 m  3349 -75 l  3345 -50 3334 -31 3318 -16 ct 3301 -2 3281 5 3257 5 ct 
3227 5 3203 -5 3185 -24 ct 3167 -44 3158 -72 3158 -109 ct 3158 -132 3161 -153 3169 -171 ct 
3177 -189 3189 -202 3205 -211 ct 3221 -220 3239 -224 3257 -224 ct 3281 -224 3301 -218 3316 -206 ct 
3331 -194 3341 -177 3345 -155 ct 3309 -149 l  3305 -164 3299 -175 3291 -182 ct 
3282 -190 3271 -193 3259 -193 ct 3240 -193 3225 -187 3213 -173 ct 3202 -160 3196 -139 3196 -110 ct 
3196 -80 3201 -59 3213 -46 ct 3224 -32 3239 -26 3257 -26 ct 3271 -26 3284 -30 3293 -39 ct 
3303 -48 3309 -62 3312 -80 ct p ef
3367 -109 m  3367 -150 3378 -180 3401 -200 ct 3420 -216 3443 -224 3470 -224 ct 
3500 -224 3525 -214 3544 -194 ct 3563 -175 3573 -147 3573 -113 ct 3573 -84 3568 -62 3560 -46 ct 
3551 -30 3539 -17 3523 -8 ct 3507 1 3489 5 3470 5 ct 3439 5 3414 -5 3395 -25 ct 
3377 -44 3367 -73 3367 -109 ct p
3405 -110 m  3405 -81 3411 -60 3424 -46 ct 3436 -33 3451 -26 3470 -26 ct 3488 -26 3504 -33 3516 -47 ct 
3528 -61 3534 -82 3534 -111 ct 3534 -138 3528 -158 3516 -172 ct 3504 -186 3488 -193 3470 -193 ct 
3451 -193 3436 -186 3424 -172 ct 3411 -159 3405 -138 3405 -110 ct p ef
3760 0 m  3760 -28 l  3746 -6 3726 5 3699 5 ct 3681 5 3665 0 3651 -9 ct 3636 -19 3625 -33 3617 -50 ct 
3608 -67 3604 -87 3604 -109 ct 3604 -131 3608 -151 3615 -169 ct 3623 -187 3634 -200 3648 -210 ct 
3663 -219 3679 -224 3697 -224 ct 3710 -224 3722 -221 3733 -216 ct 3743 -210 3751 -203 3758 -194 ct 
3758 -302 l  3795 -302 l  3795 0 l  3760 0 l  p
3643 -109 m  3643 -81 3649 -60 3660 -46 ct 3672 -32 3686 -26 3702 -26 ct 3719 -26 3732 -32 3744 -45 ct 
3755 -59 3761 -79 3761 -106 ct 3761 -136 3755 -158 3743 -172 ct 3732 -186 3718 -193 3701 -193 ct 
3684 -193 3670 -187 3659 -173 ct 3648 -160 3643 -138 3643 -109 ct p ef
3855 -260 m  3855 -303 l  3892 -303 l  3892 -260 l  3855 -260 l  p
3855 0 m  3855 -219 l  3892 -219 l  3892 0 l  3855 0 l  p ef
3948 0 m  3948 -219 l  3981 -219 l  3981 -188 l  3997 -212 4021 -224 4051 -224 ct 
4064 -224 4077 -222 4088 -217 ct 4099 -212 4107 -206 4113 -198 ct 4118 -191 4122 -181 4124 -171 ct 
4125 -164 4126 -152 4126 -135 ct 4126 0 l  4089 0 l  4089 -133 l  4089 -148 4088 -160 4085 -167 ct 
4082 -175 4077 -181 4069 -185 ct 4062 -190 4053 -192 4043 -192 ct 4027 -192 4014 -187 4002 -177 ct 
3991 -167 3985 -148 3985 -120 ct 3985 0 l  3948 0 l  p ef
4178 18 m  4214 24 l  4216 35 4220 43 4227 48 ct 4236 55 4249 58 4265 58 ct 
4282 58 4295 55 4304 48 ct 4314 41 4320 31 4323 19 ct 4325 11 4326 -4 4326 -29 ct 
4310 -10 4290 0 4265 0 ct 4235 0 4212 -11 4195 -33 ct 4179 -54 4171 -80 4171 -111 ct 
4171 -132 4174 -151 4182 -169 ct 4190 -186 4201 -200 4215 -210 ct 4229 -219 4246 -224 4266 -224 ct 
4292 -224 4313 -214 4330 -193 ct 4330 -219 l  4364 -219 l  4364 -30 l  4364 4 4360 29 4354 43 ct 
4347 57 4336 68 4320 77 ct 4305 85 4287 89 4265 89 ct 4239 89 4218 83 4201 71 ct 
4185 60 4178 42 4178 18 ct p
4209 -113 m  4209 -85 4215 -64 4226 -51 ct 4237 -37 4252 -31 4269 -31 ct 4286 -31 4300 -37 4312 -50 ct 
4323 -64 4329 -84 4329 -112 ct 4329 -139 4323 -159 4311 -173 ct 4299 -186 4285 -193 4268 -193 ct 
4252 -193 4238 -187 4226 -173 ct 4215 -160 4209 -140 4209 -113 ct p ef
pom
0 6401 t 
pom
count op_count sub {pop} repeat countdictstack dict_count sub {end} repeat b4_inc_state restore
%%PageTrailer
%%Trailer
%%EOF
