%!PS-Adobe-3.0 EPSF-3.0 
%%BoundingBox: 0 0 153 158
%%Pages: 0
%%Creator: LibreOffice 3.6
%%Title: none
%%CreationDate: none
%%LanguageLevel: 2
%%EndComments
%%BeginProlog
%%BeginResource: procset SDRes-Prolog 1.0 0
/b4_inc_state save def
/dict_count countdictstack def
/op_count count 1 sub def
userdict begin
0 setgray 0 setlinecap 1 setlinewidth 0 setlinejoin 10 setmiterlimit[] 0 setdash newpath
/languagelevel where {pop languagelevel 1 ne {false setstrokeadjust false setoverprint} if} if
/bdef {bind def} bind def
/c {setrgbcolor} bdef
/l {neg lineto} bdef
/rl {neg rlineto} bdef
/lc {setlinecap} bdef
/lj {setlinejoin} bdef
/lw {setlinewidth} bdef
/ml {setmiterlimit} bdef
/ld {setdash} bdef
/m {neg moveto} bdef
/ct {6 2 roll neg 6 2 roll neg 6 2 roll neg curveto} bdef
/r {rotate} bdef
/t {neg translate} bdef
/s {scale} bdef
/sw {show} bdef
/gs {gsave} bdef
/gr {grestore} bdef
/f {findfont dup length dict begin
{1 index /FID ne {def} {pop pop} ifelse} forall /Encoding ISOLatin1Encoding def
currentdict end /NFont exch definefont pop /NFont findfont} bdef
/p {closepath} bdef
/sf {scalefont setfont} bdef
/ef {eofill}bdef
/pc {closepath stroke}bdef
/ps {stroke}bdef
/pum {matrix currentmatrix}bdef
/pom {setmatrix}bdef
/bs {/aString exch def /nXOfs exch def /nWidth exch def currentpoint nXOfs 0 rmoveto pum nWidth aString stringwidth pop div 1 scale aString show pom moveto} bdef
%%EndResource
%%EndProlog
%%BeginSetup
%%EndSetup
%%Page: 1 1
%%BeginPageSetup
%%EndPageSetup
pum
0.02826 0.02827 s 
0 -5588 t
/tm matrix currentmatrix def
tm setmatrix
-1861 -4173 t 
1 1 s 
1.000 1.000 1.000 c 5125 9645 m  3093 9645 l  3093 4250 l  7156 4250 l 
7156 9645 l  5125 9645 l  p ef
0 lw 1 lj 5125 9645 m  3093 9645 l  3093 4250 l  7156 4250 l  7156 9645 l 
5125 9645 l  pc

3637 8811 m  3145 8811 l  3145 7827 l  4129 7827 l  4129 8811 l  3637 8811 l 
p ef
51 lw 0.503 0.503 0.503 c 3637 8811 m  3145 8811 l  3145 7827 l  4129 7827 l 
4129 8811 l  3637 8811 l  pc
pum
3488 8410 t
0.105 0.105 0.105 c 127 -39 m  134 -1 l  121 2 110 3 101 3 ct 85 3 73 0 64 -4 ct 
55 -9 49 -16 46 -24 ct 42 -32 41 -49 41 -75 ct 41 -223 l  9 -223 l  9 -257 l 
41 -257 l  41 -320 l  84 -346 l  84 -257 l  127 -257 l  127 -223 l  84 -223 l 
84 -73 l  84 -61 84 -53 86 -49 ct 88 -46 90 -43 93 -41 ct 97 -39 102 -38 108 -38 ct 
113 -38 119 -38 127 -39 ct p ef
pom
pum
3628 8617 t
107 0 m  82 0 l  82 -161 l  76 -155 68 -149 58 -143 ct 48 -137 39 -133 31 -130 ct 
31 -155 l  45 -161 58 -169 68 -179 ct 79 -188 86 -197 91 -206 ct 107 -206 l 
107 0 l  p ef
pom

1.000 1.000 1.000 c 3637 7828 m  3145 7828 l  3145 6844 l  4129 6844 l 
4129 7828 l  3637 7828 l  p ef
0.503 0.503 0.503 c 3637 7828 m  3145 7828 l  3145 6844 l  4129 6844 l 
4129 7828 l  3637 7828 l  pc
pum
3488 7427 t
0.105 0.105 0.105 c 127 -39 m  134 -1 l  121 2 110 3 101 3 ct 85 3 73 0 64 -4 ct 
55 -9 49 -16 46 -24 ct 42 -32 41 -49 41 -75 ct 41 -223 l  9 -223 l  9 -257 l 
41 -257 l  41 -320 l  84 -346 l  84 -257 l  127 -257 l  127 -223 l  84 -223 l 
84 -73 l  84 -61 84 -53 86 -49 ct 88 -46 90 -43 93 -41 ct 97 -39 102 -38 108 -38 ct 
113 -38 119 -38 127 -39 ct p ef
pom
pum
3628 7634 t
12 -54 m  38 -56 l  40 -44 45 -34 52 -27 ct 59 -21 68 -18 78 -18 ct 90 -18 100 -22 109 -31 ct 
117 -41 121 -53 121 -68 ct 121 -82 117 -93 109 -102 ct 101 -110 91 -114 78 -114 ct 
69 -114 62 -112 55 -108 ct 49 -105 44 -100 40 -94 ct 16 -97 l  36 -203 l  138 -203 l 
138 -179 l  56 -179 l  45 -123 l  58 -132 71 -136 84 -136 ct 102 -136 117 -130 130 -118 ct 
142 -105 148 -89 148 -70 ct 148 -51 143 -35 132 -22 ct 119 -5 101 3 78 3 ct 59 3 44 -2 32 -13 ct 
20 -23 14 -37 12 -54 ct p ef
pom

1.000 1.000 1.000 c 3637 6843 m  3145 6843 l  3145 5858 l  4129 5858 l 
4129 6843 l  3637 6843 l  p ef
0.503 0.503 0.503 c 3637 6843 m  3145 6843 l  3145 5858 l  4129 5858 l 
4129 6843 l  3637 6843 l  pc
pum
3488 6442 t
0.105 0.105 0.105 c 127 -39 m  134 -1 l  121 2 110 3 101 3 ct 85 3 73 0 64 -4 ct 
55 -9 49 -16 46 -24 ct 42 -32 41 -49 41 -75 ct 41 -223 l  9 -223 l  9 -257 l 
41 -257 l  41 -320 l  84 -346 l  84 -257 l  127 -257 l  127 -223 l  84 -223 l 
84 -73 l  84 -61 84 -53 86 -49 ct 88 -46 90 -43 93 -41 ct 97 -39 102 -38 108 -38 ct 
113 -38 119 -38 127 -39 ct p ef
pom
pum
3628 6649 t
16 -48 m  40 -50 l  42 -39 46 -31 52 -25 ct 58 -20 65 -18 74 -18 ct 82 -18 89 -19 94 -23 ct 
100 -27 105 -31 109 -37 ct 112 -43 116 -51 118 -61 ct 121 -71 122 -82 122 -92 ct 
122 -93 122 -95 122 -97 ct 117 -89 110 -82 101 -77 ct 92 -73 83 -70 73 -70 ct 56 -70 41 -76 30 -89 ct 
18 -101 12 -117 12 -137 ct 12 -158 18 -175 30 -188 ct 43 -201 58 -207 77 -207 ct 
90 -207 102 -203 113 -196 ct 124 -189 133 -179 138 -165 ct 144 -152 147 -133 147 -107 ct 
147 -81 144 -60 138 -45 ct 133 -29 124 -17 113 -9 ct 102 -1 89 3 73 3 ct 57 3 44 -1 34 -10 ct 
24 -19 18 -32 16 -48 ct p
119 -139 m  119 -153 115 -165 107 -173 ct 100 -182 90 -186 80 -186 ct 68 -186 59 -181 50 -172 ct 
42 -163 38 -151 38 -137 ct 38 -123 42 -113 50 -105 ct 58 -96 67 -92 79 -92 ct 91 -92 100 -96 108 -105 ct 
115 -113 119 -124 119 -139 ct p ef
pom

1.000 1.000 1.000 c 4621 8811 m  4129 8811 l  4129 7827 l  5113 7827 l 
5113 8811 l  4621 8811 l  p ef
0.503 0.503 0.503 c 4621 8811 m  4129 8811 l  4129 7827 l  5113 7827 l 
5113 8811 l  4621 8811 l  pc
pum
4471 8410 t
0.105 0.105 0.105 c 127 -39 m  134 -1 l  121 2 110 3 101 3 ct 85 3 73 0 64 -4 ct 
55 -9 49 -16 46 -24 ct 42 -32 41 -49 41 -75 ct 41 -223 l  9 -223 l  9 -257 l 
41 -257 l  41 -320 l  84 -346 l  84 -257 l  127 -257 l  127 -223 l  84 -223 l 
84 -73 l  84 -61 84 -53 86 -49 ct 88 -46 90 -43 93 -41 ct 97 -39 102 -38 108 -38 ct 
113 -38 119 -38 127 -39 ct p ef
pom
pum
4611 8617 t
12 -54 m  37 -57 l  40 -43 45 -33 52 -26 ct 59 -20 68 -17 78 -17 ct 89 -17 99 -21 108 -29 ct 
116 -37 120 -48 120 -60 ct 120 -72 116 -81 108 -89 ct 101 -96 91 -100 80 -100 ct 
75 -100 69 -99 62 -97 ct 65 -119 l  66 -119 68 -119 69 -119 ct 79 -119 89 -122 98 -127 ct 
106 -133 111 -142 111 -153 ct 111 -162 107 -170 101 -176 ct 95 -182 87 -185 77 -185 ct 
67 -185 59 -182 52 -176 ct 46 -170 42 -161 40 -148 ct 15 -153 l  18 -170 25 -183 36 -192 ct 
47 -201 60 -206 76 -206 ct 88 -206 98 -203 107 -199 ct 117 -194 124 -187 129 -179 ct 
134 -171 137 -162 137 -153 ct 137 -144 134 -136 129 -128 ct 125 -121 118 -115 108 -111 ct 
120 -108 130 -103 136 -94 ct 143 -85 147 -74 147 -60 ct 147 -42 140 -27 127 -15 ct 
114 -2 97 4 77 4 ct 59 4 44 -1 32 -12 ct 21 -23 14 -37 12 -54 ct p ef
pom

1.000 1.000 1.000 c 4621 7828 m  4129 7828 l  4129 6844 l  5113 6844 l 
5113 7828 l  4621 7828 l  p ef
0.503 0.503 0.503 c 4621 7828 m  4129 7828 l  4129 6844 l  5113 6844 l 
5113 7828 l  4621 7828 l  pc
pum
4471 7427 t
0.105 0.105 0.105 c 127 -39 m  134 -1 l  121 2 110 3 101 3 ct 85 3 73 0 64 -4 ct 
55 -9 49 -16 46 -24 ct 42 -32 41 -49 41 -75 ct 41 -223 l  9 -223 l  9 -257 l 
41 -257 l  41 -320 l  84 -346 l  84 -257 l  127 -257 l  127 -223 l  84 -223 l 
84 -73 l  84 -61 84 -53 86 -49 ct 88 -46 90 -43 93 -41 ct 97 -39 102 -38 108 -38 ct 
113 -38 119 -38 127 -39 ct p ef
pom
pum
4611 7634 t
144 -24 m  144 0 l  9 0 l  9 -6 9 -12 12 -18 ct 15 -27 21 -36 28 -45 ct 36 -54 47 -64 61 -76 ct 
84 -94 99 -109 107 -119 ct 114 -130 118 -140 118 -150 ct 118 -160 115 -168 108 -175 ct 
100 -182 91 -185 80 -185 ct 67 -185 58 -182 50 -174 ct 43 -167 39 -157 39 -144 ct 
13 -147 l  15 -166 22 -181 33 -191 ct 45 -201 61 -206 80 -206 ct 100 -206 115 -201 127 -190 ct 
138 -179 144 -165 144 -149 ct 144 -141 143 -133 139 -125 ct 136 -117 130 -109 122 -100 ct 
115 -91 102 -79 84 -64 ct 68 -51 59 -42 54 -38 ct 50 -33 47 -29 44 -24 ct 144 -24 l 
p ef
pom

1.000 1.000 1.000 c 5604 8811 m  5112 8811 l  5112 7827 l  6096 7827 l 
6096 8811 l  5604 8811 l  p ef
0.503 0.503 0.503 c 5604 8811 m  5112 8811 l  5112 7827 l  6096 7827 l 
6096 8811 l  5604 8811 l  pc
pum
5454 8410 t
0.105 0.105 0.105 c 127 -39 m  134 -1 l  121 2 110 3 101 3 ct 85 3 73 0 64 -4 ct 
55 -9 49 -16 46 -24 ct 42 -32 41 -49 41 -75 ct 41 -223 l  9 -223 l  9 -257 l 
41 -257 l  41 -320 l  84 -346 l  84 -257 l  127 -257 l  127 -223 l  84 -223 l 
84 -73 l  84 -61 84 -53 86 -49 ct 88 -46 90 -43 93 -41 ct 97 -39 102 -38 108 -38 ct 
113 -38 119 -38 127 -39 ct p ef
pom
pum
5594 8617 t
143 -155 m  118 -153 l  115 -163 112 -171 108 -175 ct 101 -182 93 -186 83 -186 ct 
75 -186 68 -184 62 -179 ct 54 -173 48 -165 43 -154 ct 38 -143 36 -127 36 -106 ct 
42 -115 49 -122 58 -127 ct 67 -131 76 -133 86 -133 ct 103 -133 117 -127 129 -115 ct 
141 -102 146 -86 146 -67 ct 146 -54 144 -42 138 -31 ct 133 -20 125 -12 115 -6 ct 
105 0 94 3 82 3 ct 61 3 44 -5 31 -20 ct 17 -36 11 -61 11 -97 ct 11 -136 18 -165 33 -183 ct 
46 -199 63 -207 85 -207 ct 101 -207 114 -202 124 -193 ct 135 -184 141 -171 143 -155 ct 
p
40 -67 m  40 -58 42 -50 45 -42 ct 49 -34 54 -28 61 -24 ct 67 -20 74 -18 82 -18 ct 
92 -18 102 -22 109 -31 ct 117 -39 121 -51 121 -65 ct 121 -80 117 -91 109 -99 ct 
102 -107 92 -111 81 -111 ct 69 -111 60 -107 52 -99 ct 44 -91 40 -80 40 -67 ct p ef
pom

1.000 1.000 1.000 c 6588 7828 m  6096 7828 l  6096 6844 l  7079 6844 l 
7079 7828 l  6588 7828 l  p ef
0.503 0.503 0.503 c 6588 7828 m  6096 7828 l  6096 6844 l  7079 6844 l 
7079 7828 l  6588 7828 l  pc
pum
6438 7427 t
0.105 0.105 0.105 c 127 -39 m  134 -1 l  121 2 110 3 101 3 ct 85 3 73 0 64 -4 ct 
55 -9 49 -16 46 -24 ct 42 -32 41 -49 41 -75 ct 41 -223 l  9 -223 l  9 -257 l 
41 -257 l  41 -320 l  84 -346 l  84 -257 l  127 -257 l  127 -223 l  84 -223 l 
84 -73 l  84 -61 84 -53 86 -49 ct 88 -46 90 -43 93 -41 ct 97 -39 102 -38 108 -38 ct 
113 -38 119 -38 127 -39 ct p ef
pom
pum
6578 7634 t
93 0 m  93 -49 l  4 -49 l  4 -72 l  97 -205 l  118 -205 l  118 -72 l  146 -72 l 
146 -49 l  118 -49 l  118 0 l  93 0 l  p
93 -72 m  93 -165 l  28 -72 l  93 -72 l  p ef
pom

1.000 1.000 1.000 c 6588 8811 m  6096 8811 l  6096 7827 l  7079 7827 l 
7079 8811 l  6588 8811 l  p ef
0.503 0.503 0.503 c 6588 8811 m  6096 8811 l  6096 7827 l  7079 7827 l 
7079 8811 l  6588 8811 l  pc
pum
6438 8410 t
0.105 0.105 0.105 c 127 -39 m  134 -1 l  121 2 110 3 101 3 ct 85 3 73 0 64 -4 ct 
55 -9 49 -16 46 -24 ct 42 -32 41 -49 41 -75 ct 41 -223 l  9 -223 l  9 -257 l 
41 -257 l  41 -320 l  84 -346 l  84 -257 l  127 -257 l  127 -223 l  84 -223 l 
84 -73 l  84 -61 84 -53 86 -49 ct 88 -46 90 -43 93 -41 ct 97 -39 102 -38 108 -38 ct 
113 -38 119 -38 127 -39 ct p ef
pom
pum
6578 8617 t
51 -112 m  40 -116 33 -121 27 -128 ct 22 -135 20 -144 20 -154 ct 20 -169 25 -181 36 -191 ct 
47 -202 61 -207 79 -207 ct 97 -207 111 -202 122 -191 ct 133 -181 139 -168 139 -153 ct 
139 -144 136 -135 131 -128 ct 126 -121 119 -116 108 -112 ct 121 -108 131 -101 137 -92 ct 
144 -83 147 -72 147 -59 ct 147 -42 141 -27 128 -15 ct 116 -3 100 3 79 3 ct 59 3 43 -3 30 -15 ct 
18 -27 12 -42 12 -60 ct 12 -73 15 -84 22 -93 ct 29 -103 38 -109 51 -112 ct p
46 -155 m  46 -145 49 -137 55 -131 ct 61 -125 69 -122 79 -122 ct 89 -122 97 -125 103 -131 ct 
110 -137 113 -144 113 -153 ct 113 -162 109 -170 103 -177 ct 97 -183 89 -186 79 -186 ct 
70 -186 62 -183 55 -177 ct 49 -171 46 -163 46 -155 ct p
38 -60 m  38 -53 39 -46 43 -39 ct 46 -32 51 -27 58 -23 ct 65 -20 72 -18 80 -18 ct 
92 -18 102 -22 109 -29 ct 117 -37 121 -47 121 -59 ct 121 -71 117 -81 109 -89 ct 
101 -97 91 -101 79 -101 ct 67 -101 57 -97 49 -89 ct 41 -81 38 -72 38 -60 ct p ef
pom

1.000 1.000 1.000 c 6588 6843 m  6096 6843 l  6096 5858 l  7079 5858 l 
7079 6843 l  6588 6843 l  p ef
0.503 0.503 0.503 c 6588 6843 m  6096 6843 l  6096 5858 l  7079 5858 l 
7079 6843 l  6588 6843 l  pc
pum
6438 6442 t
0.105 0.105 0.105 c 127 -39 m  134 -1 l  121 2 110 3 101 3 ct 85 3 73 0 64 -4 ct 
55 -9 49 -16 46 -24 ct 42 -32 41 -49 41 -75 ct 41 -223 l  9 -223 l  9 -257 l 
41 -257 l  41 -320 l  84 -346 l  84 -257 l  127 -257 l  127 -223 l  84 -223 l 
84 -73 l  84 -61 84 -53 86 -49 ct 88 -46 90 -43 93 -41 ct 97 -39 102 -38 108 -38 ct 
113 -38 119 -38 127 -39 ct p ef
pom
pum
6578 6649 t
14 -178 m  14 -202 l  147 -202 l  147 -183 l  134 -169 121 -150 108 -127 ct 
95 -104 85 -80 78 -56 ct 73 -39 70 -20 68 1 ct 42 1 l  43 -16 46 -35 52 -58 ct 
58 -81 67 -103 78 -124 ct 89 -146 101 -163 114 -178 ct 14 -178 l  p ef
pom

0.902 0.902 1.000 c 3637 5271 m  3145 5271 l  3145 4287 l  4129 4287 l 
4129 5271 l  3637 5271 l  p ef
0.503 0.503 0.503 c 3637 5271 m  3145 5271 l  3145 4287 l  4129 4287 l 
4129 5271 l  3637 5271 l  pc

0.902 0.902 1.000 c 4621 5271 m  4129 5271 l  4129 4287 l  5113 4287 l 
5113 5271 l  4621 5271 l  p ef
0.503 0.503 0.503 c 4621 5271 m  4129 5271 l  4129 4287 l  5113 4287 l 
5113 5271 l  4621 5271 l  pc

0.902 0.902 1.000 c 5604 5271 m  5112 5271 l  5112 4287 l  6096 4287 l 
6096 5271 l  5604 5271 l  p ef
0.503 0.503 0.503 c 5604 5271 m  5112 5271 l  5112 4287 l  6096 4287 l 
6096 5271 l  5604 5271 l  pc

0.902 0.902 1.000 c 6588 5271 m  6096 5271 l  6096 4287 l  7079 4287 l 
7079 5271 l  6588 5271 l  p ef
0.503 0.503 0.503 c 6588 5271 m  6096 5271 l  6096 4287 l  7079 4287 l 
7079 5271 l  6588 5271 l  pc

0.902 0.902 1.000 c 4621 6843 m  4129 6843 l  4129 5858 l  5113 5858 l 
5113 6843 l  4621 6843 l  p ef
0.503 0.503 0.503 c 4621 6843 m  4129 6843 l  4129 5858 l  5113 5858 l 
5113 6843 l  4621 6843 l  pc

0.902 0.902 1.000 c 5604 7828 m  5112 7828 l  5112 6844 l  6096 6844 l 
6096 7828 l  5604 7828 l  p ef
0.503 0.503 0.503 c 5604 7828 m  5112 7828 l  5112 6844 l  6096 6844 l 
6096 7828 l  5604 7828 l  pc

0.902 0.902 1.000 c 5604 6843 m  5112 6843 l  5112 5858 l  6096 5858 l 
6096 6843 l  5604 6843 l  p ef
0.503 0.503 0.503 c 5604 6843 m  5112 6843 l  5112 5858 l  6096 5858 l 
6096 6843 l  5604 6843 l  pc


pum
3388 9366 t
0.105 0.105 0.105 c 33 0 m  33 -256 l  71 -256 l  71 -220 l  79 -233 90 -243 103 -251 ct 
117 -258 132 -262 149 -262 ct 168 -262 184 -258 196 -250 ct 208 -242 216 -231 221 -217 ct 
242 -247 268 -262 301 -262 ct 326 -262 345 -255 359 -241 ct 373 -227 380 -205 380 -176 ct 
380 0 l  336 0 l  336 -161 l  336 -179 335 -191 332 -199 ct 329 -207 324 -213 317 -217 ct 
310 -222 301 -224 291 -224 ct 273 -224 258 -218 246 -206 ct 234 -194 228 -175 228 -149 ct 
228 0 l  185 0 l  185 -166 l  185 -186 181 -200 174 -210 ct 167 -220 156 -224 139 -224 ct 
127 -224 116 -221 106 -215 ct 95 -208 88 -199 83 -186 ct 78 -174 76 -156 76 -133 ct 
76 0 l  33 0 l  p ef
pom
pum
3799 9573 t
107 0 m  82 0 l  82 -161 l  76 -155 68 -149 58 -143 ct 48 -137 39 -133 31 -130 ct 
31 -155 l  45 -161 58 -169 68 -179 ct 79 -188 86 -197 91 -206 ct 107 -206 l 
107 0 l  p ef
pom

pum
4370 9366 t
33 0 m  33 -256 l  71 -256 l  71 -220 l  79 -233 90 -243 103 -251 ct 117 -258 132 -262 149 -262 ct 
168 -262 184 -258 196 -250 ct 208 -242 216 -231 221 -217 ct 242 -247 268 -262 301 -262 ct 
326 -262 345 -255 359 -241 ct 373 -227 380 -205 380 -176 ct 380 0 l  336 0 l 
336 -161 l  336 -179 335 -191 332 -199 ct 329 -207 324 -213 317 -217 ct 310 -222 301 -224 291 -224 ct 
273 -224 258 -218 246 -206 ct 234 -194 228 -175 228 -149 ct 228 0 l  185 0 l 
185 -166 l  185 -186 181 -200 174 -210 ct 167 -220 156 -224 139 -224 ct 127 -224 116 -221 106 -215 ct 
95 -208 88 -199 83 -186 ct 78 -174 76 -156 76 -133 ct 76 0 l  33 0 l  p ef
pom
pum
4781 9573 t
144 -24 m  144 0 l  9 0 l  9 -6 9 -12 12 -18 ct 15 -27 21 -36 28 -45 ct 36 -54 47 -64 61 -76 ct 
84 -94 99 -109 107 -119 ct 114 -130 118 -140 118 -150 ct 118 -160 115 -168 108 -175 ct 
100 -182 91 -185 80 -185 ct 67 -185 58 -182 50 -174 ct 43 -167 39 -157 39 -144 ct 
13 -147 l  15 -166 22 -181 33 -191 ct 45 -201 61 -206 80 -206 ct 100 -206 115 -201 127 -190 ct 
138 -179 144 -165 144 -149 ct 144 -141 143 -133 139 -125 ct 136 -117 130 -109 122 -100 ct 
115 -91 102 -79 84 -64 ct 68 -51 59 -42 54 -38 ct 50 -33 47 -29 44 -24 ct 144 -24 l 
p ef
pom

pum
5364 9366 t
33 0 m  33 -256 l  71 -256 l  71 -220 l  79 -233 90 -243 103 -251 ct 117 -258 132 -262 149 -262 ct 
168 -262 184 -258 196 -250 ct 208 -242 216 -231 221 -217 ct 242 -247 268 -262 301 -262 ct 
326 -262 345 -255 359 -241 ct 373 -227 380 -205 380 -176 ct 380 0 l  336 0 l 
336 -161 l  336 -179 335 -191 332 -199 ct 329 -207 324 -213 317 -217 ct 310 -222 301 -224 291 -224 ct 
273 -224 258 -218 246 -206 ct 234 -194 228 -175 228 -149 ct 228 0 l  185 0 l 
185 -166 l  185 -186 181 -200 174 -210 ct 167 -220 156 -224 139 -224 ct 127 -224 116 -221 106 -215 ct 
95 -208 88 -199 83 -186 ct 78 -174 76 -156 76 -133 ct 76 0 l  33 0 l  p ef
pom
pum
5775 9573 t
12 -54 m  37 -57 l  40 -43 45 -33 52 -26 ct 59 -20 68 -17 78 -17 ct 89 -17 99 -21 108 -29 ct 
116 -37 120 -48 120 -60 ct 120 -72 116 -81 108 -89 ct 101 -96 91 -100 80 -100 ct 
75 -100 69 -99 62 -97 ct 65 -119 l  66 -119 68 -119 69 -119 ct 79 -119 89 -122 98 -127 ct 
106 -133 111 -142 111 -153 ct 111 -162 107 -170 101 -176 ct 95 -182 87 -185 77 -185 ct 
67 -185 59 -182 52 -176 ct 46 -170 42 -161 40 -148 ct 15 -153 l  18 -170 25 -183 36 -192 ct 
47 -201 60 -206 76 -206 ct 88 -206 98 -203 107 -199 ct 117 -194 124 -187 129 -179 ct 
134 -171 137 -162 137 -153 ct 137 -144 134 -136 129 -128 ct 125 -121 118 -115 108 -111 ct 
120 -108 130 -103 136 -94 ct 143 -85 147 -74 147 -60 ct 147 -42 140 -27 127 -15 ct 
114 -2 97 4 77 4 ct 59 4 44 -1 32 -12 ct 21 -23 14 -37 12 -54 ct p ef
pom

pum
6339 9366 t
33 0 m  33 -256 l  71 -256 l  71 -220 l  79 -233 90 -243 103 -251 ct 117 -258 132 -262 149 -262 ct 
168 -262 184 -258 196 -250 ct 208 -242 216 -231 221 -217 ct 242 -247 268 -262 301 -262 ct 
326 -262 345 -255 359 -241 ct 373 -227 380 -205 380 -176 ct 380 0 l  336 0 l 
336 -161 l  336 -179 335 -191 332 -199 ct 329 -207 324 -213 317 -217 ct 310 -222 301 -224 291 -224 ct 
273 -224 258 -218 246 -206 ct 234 -194 228 -175 228 -149 ct 228 0 l  185 0 l 
185 -166 l  185 -186 181 -200 174 -210 ct 167 -220 156 -224 139 -224 ct 127 -224 116 -221 106 -215 ct 
95 -208 88 -199 83 -186 ct 78 -174 76 -156 76 -133 ct 76 0 l  33 0 l  p ef
pom
pum
6750 9573 t
93 0 m  93 -49 l  4 -49 l  4 -72 l  97 -205 l  118 -205 l  118 -72 l  146 -72 l 
146 -49 l  118 -49 l  118 0 l  93 0 l  p
93 -72 m  93 -165 l  28 -72 l  93 -72 l  p ef
pom

pum
3689 5762 t
90.5 r 45 0 m  45 -49 l  94 -49 l  94 0 l  45 0 l  p ef
185 0 m  185 -49 l  234 -49 l  234 0 l  185 0 l  p ef
324 0 m  324 -49 l  373 -49 l  373 0 l  324 0 l  p ef
pom

pum
6536 5763 t
90.4 r 45 0 m  45 -49 l  94 -49 l  94 0 l  45 0 l  p ef
185 0 m  185 -49 l  234 -49 l  234 0 l  185 0 l  p ef
324 0 m  324 -49 l  373 -49 l  373 0 l  324 0 l  p ef
pom
0.503 0.503 0.503 c 3041 4198 m  2897 4198 2754 4396 2754 4595 ct 2754 6182 l 
2754 6380 2612 6579 2469 6579 ct 2612 6579 2754 6777 2754 6976 ct 2754 8563 l 
2754 8761 2897 8960 3041 8960 ct ps
2469 4198 m  2469 4198 l  pc
3041 8960 m  3041 8960 l  pc


pum
2371 7606 t
90.0 r 0.105 0.105 0.105 c 23 -70 m  59 -74 l  62 -57 68 -45 76 -37 ct 85 -29 96 -26 109 -26 ct 
120 -26 131 -28 139 -33 ct 148 -39 155 -46 160 -54 ct 166 -63 170 -75 174 -90 ct 
178 -105 180 -120 180 -135 ct 180 -137 180 -139 179 -143 ct 172 -131 162 -121 149 -114 ct 
136 -107 122 -103 107 -103 ct 82 -103 61 -112 44 -130 ct 26 -148 18 -172 18 -202 ct 
18 -232 27 -257 45 -276 ct 63 -294 86 -304 113 -304 ct 132 -304 150 -298 167 -288 ct 
183 -277 196 -262 204 -243 ct 212 -223 217 -195 217 -158 ct 217 -119 212 -88 204 -65 ct 
196 -42 183 -25 167 -13 ct 150 -1 131 5 108 5 ct 85 5 65 -2 50 -15 ct 35 -28 26 -46 23 -70 ct 
p
175 -204 m  175 -225 170 -242 158 -254 ct 147 -267 133 -273 117 -273 ct 101 -273 86 -266 74 -253 ct 
62 -239 56 -222 56 -201 ct 56 -181 62 -166 73 -154 ct 85 -142 99 -136 116 -136 ct 
134 -136 148 -142 159 -154 ct 170 -166 175 -182 175 -204 ct p ef
240 0 m  320 -114 l  246 -219 l  293 -219 l  326 -168 l  333 -158 338 -150 342 -143 ct 
348 -152 353 -160 358 -167 ct 395 -219 l  440 -219 l  364 -116 l  445 0 l 
400 0 l  355 -68 l  343 -86 l  285 0 l  240 0 l  p ef
586 0 m  586 -72 l  454 -72 l  454 -106 l  593 -302 l  623 -302 l  623 -106 l 
664 -106 l  664 -72 l  623 -72 l  623 0 l  586 0 l  p
586 -106 m  586 -243 l  491 -106 l  586 -106 l  p ef
832 0 m  832 -219 l  865 -219 l  865 -188 l  872 -199 881 -208 893 -214 ct 
904 -221 917 -224 932 -224 ct 948 -224 961 -221 972 -214 ct 982 -207 989 -198 994 -186 ct 
1011 -211 1034 -224 1061 -224 ct 1083 -224 1100 -218 1112 -206 ct 1123 -194 1129 -175 1129 -150 ct 
1129 0 l  1092 0 l  1092 -138 l  1092 -153 1091 -164 1089 -170 ct 1086 -177 1082 -182 1075 -186 ct 
1069 -190 1062 -192 1053 -192 ct 1038 -192 1025 -187 1015 -176 ct 1004 -166 999 -150 999 -127 ct 
999 0 l  962 0 l  962 -142 l  962 -159 959 -171 953 -179 ct 947 -188 937 -192 923 -192 ct 
913 -192 903 -189 894 -184 ct 885 -178 879 -170 875 -159 ct 871 -149 869 -134 869 -114 ct 
869 0 l  832 0 l  p ef
1327 -27 m  1313 -15 1300 -7 1287 -2 ct 1275 3 1261 5 1246 5 ct 1222 5 1204 -1 1191 -13 ct 
1178 -24 1171 -39 1171 -58 ct 1171 -68 1174 -78 1179 -87 ct 1184 -96 1190 -103 1198 -108 ct 
1206 -114 1215 -118 1225 -121 ct 1232 -123 1243 -124 1258 -126 ct 1288 -130 1310 -134 1324 -139 ct 
1324 -144 1324 -147 1324 -149 ct 1324 -164 1321 -174 1314 -181 ct 1304 -189 1290 -193 1271 -193 ct 
1254 -193 1241 -190 1233 -184 ct 1224 -178 1218 -167 1214 -152 ct 1178 -157 l 
1181 -172 1186 -185 1194 -194 ct 1202 -204 1213 -211 1227 -216 ct 1241 -221 1258 -224 1277 -224 ct 
1295 -224 1311 -222 1322 -217 ct 1334 -213 1343 -207 1348 -201 ct 1354 -194 1357 -186 1360 -176 ct 
1361 -169 1362 -158 1362 -141 ct 1362 -92 l  1362 -57 1362 -35 1364 -26 ct 1365 -17 1369 -8 1373 0 ct 
1334 0 l  1331 -8 1328 -17 1327 -27 ct p
1324 -110 m  1310 -104 1290 -100 1263 -96 ct 1248 -94 1237 -91 1231 -88 ct 1224 -86 1220 -82 1216 -76 ct 
1213 -71 1211 -65 1211 -59 ct 1211 -49 1215 -41 1222 -34 ct 1230 -27 1241 -24 1255 -24 ct 
1269 -24 1282 -27 1293 -33 ct 1305 -40 1313 -48 1318 -59 ct 1322 -68 1324 -80 1324 -96 ct 
1324 -110 l  p ef
1501 -33 m  1506 0 l  1496 2 1487 3 1478 3 ct 1465 3 1454 1 1447 -3 ct 1440 -8 1434 -13 1431 -20 ct 
1428 -27 1427 -42 1427 -64 ct 1427 -190 l  1399 -190 l  1399 -219 l  1427 -219 l 
1427 -273 l  1464 -296 l  1464 -219 l  1501 -219 l  1501 -190 l  1464 -190 l 
1464 -62 l  1464 -51 1464 -45 1466 -42 ct 1467 -39 1469 -36 1472 -34 ct 1475 -33 1479 -32 1485 -32 ct 
1489 -32 1494 -32 1501 -33 ct p ef
1537 0 m  1537 -219 l  1571 -219 l  1571 -186 l  1579 -201 1587 -212 1595 -217 ct 
1602 -222 1610 -224 1618 -224 ct 1631 -224 1644 -220 1657 -212 ct 1644 -178 l 
1635 -183 1626 -186 1617 -186 ct 1608 -186 1601 -183 1595 -178 ct 1588 -173 1584 -167 1581 -158 ct 
1577 -145 1575 -130 1575 -115 ct 1575 0 l  1537 0 l  p ef
1678 -260 m  1678 -303 l  1715 -303 l  1715 -260 l  1678 -260 l  p
1678 0 m  1678 -219 l  1715 -219 l  1715 0 l  1678 0 l  p ef
1746 0 m  1826 -114 l  1752 -219 l  1799 -219 l  1832 -168 l  1839 -158 1844 -150 1848 -143 ct 
1854 -152 1859 -160 1864 -167 ct 1901 -219 l  1946 -219 l  1870 -116 l  1951 0 l 
1906 0 l  1861 -68 l  1849 -86 l  1791 0 l  1746 0 l  p ef
pom
0 5588 t 
pom
count op_count sub {pop} repeat countdictstack dict_count sub {end} repeat b4_inc_state restore
%%PageTrailer
%%Trailer
%%EOF
