%!PS-Adobe-3.0 EPSF-3.0 
%%BoundingBox: 0 0 161 184
%%Pages: 0
%%Creator: LibreOffice 3.6
%%Title: none
%%CreationDate: none
%%LanguageLevel: 2
%%EndComments
%%BeginProlog
%%BeginResource: procset SDRes-Prolog 1.0 0
/b4_inc_state save def
/dict_count countdictstack def
/op_count count 1 sub def
userdict begin
0 setgray 0 setlinecap 1 setlinewidth 0 setlinejoin 10 setmiterlimit[] 0 setdash newpath
/languagelevel where {pop languagelevel 1 ne {false setstrokeadjust false setoverprint} if} if
/bdef {bind def} bind def
/c {setrgbcolor} bdef
/l {neg lineto} bdef
/rl {neg rlineto} bdef
/lc {setlinecap} bdef
/lj {setlinejoin} bdef
/lw {setlinewidth} bdef
/ml {setmiterlimit} bdef
/ld {setdash} bdef
/m {neg moveto} bdef
/ct {6 2 roll neg 6 2 roll neg 6 2 roll neg curveto} bdef
/r {rotate} bdef
/t {neg translate} bdef
/s {scale} bdef
/sw {show} bdef
/gs {gsave} bdef
/gr {grestore} bdef
/f {findfont dup length dict begin
{1 index /FID ne {def} {pop pop} ifelse} forall /Encoding ISOLatin1Encoding def
currentdict end /NFont exch definefont pop /NFont findfont} bdef
/p {closepath} bdef
/sf {scalefont setfont} bdef
/ef {eofill}bdef
/pc {closepath stroke}bdef
/ps {stroke}bdef
/pum {matrix currentmatrix}bdef
/pom {setmatrix}bdef
/bs {/aString exch def /nXOfs exch def /nWidth exch def currentpoint nXOfs 0 rmoveto pum nWidth aString stringwidth pop div 1 scale aString show pom moveto} bdef
%%EndResource
%%EndProlog
%%BeginSetup
%%EndSetup
%%Page: 1 1
%%BeginPageSetup
%%EndPageSetup
pum
0.02828 0.02839 s 
0 -6480 t
/tm matrix currentmatrix def
tm setmatrix
-9211 -2773 t 
1 1 s 
1.000 1.000 1.000 c 11909 8360 m  9211 8360 l  9211 2774 l  14606 2774 l 
14606 8360 l  11909 8360 l  p ef
0 lw 1 lj 11909 8360 m  9211 8360 l  9211 2774 l  14606 2774 l  14606 8360 l 
11909 8360 l  pc

13875 5886 m  13462 5886 l  13462 5061 l  14286 5061 l  14286 5886 l  13875 5886 l 
p ef
51 lw 0.503 0.503 0.503 c 13875 5886 m  13462 5886 l  13462 5061 l  14286 5061 l 
14286 5886 l  13875 5886 l  pc
pum
13610 5557 t
0.105 0.105 0.105 c 30 0 m  30 -239 l  66 -239 l  66 -205 l  74 -217 84 -226 96 -233 ct 
109 -240 123 -244 139 -244 ct 156 -244 171 -240 182 -233 ct 193 -226 201 -215 206 -202 ct 
225 -230 249 -244 279 -244 ct 303 -244 321 -237 334 -224 ct 346 -211 353 -191 353 -164 ct 
353 0 l  313 0 l  313 -150 l  313 -166 311 -178 309 -185 ct 306 -192 301 -198 295 -202 ct 
288 -207 280 -209 270 -209 ct 254 -209 240 -203 229 -192 ct 218 -181 212 -163 212 -139 ct 
212 0 l  172 0 l  172 -155 l  172 -173 168 -186 162 -195 ct 155 -204 144 -209 130 -209 ct 
118 -209 108 -206 98 -200 ct 88 -194 81 -185 77 -174 ct 73 -162 71 -146 71 -124 ct 
71 0 l  30 0 l  p ef
pom
pum
13991 5750 t
99 0 m  76 0 l  76 -149 l  70 -144 63 -138 54 -133 ct 44 -127 36 -123 29 -121 ct 
29 -143 l  42 -149 53 -157 63 -166 ct 73 -174 80 -183 84 -191 ct 99 -191 l  99 0 l 
p ef
pom

1.000 1.000 1.000 c 10649 5885 m  10236 5885 l  10236 5059 l  11062 5059 l 
11062 5885 l  10649 5885 l  p ef
0.503 0.503 0.503 c 10649 5885 m  10236 5885 l  10236 5059 l  11062 5059 l 
11062 5885 l  10649 5885 l  pc
pum
10384 5556 t
0.105 0.105 0.105 c 30 0 m  30 -239 l  66 -239 l  66 -205 l  74 -217 84 -226 96 -233 ct 
109 -240 123 -244 139 -244 ct 156 -244 171 -240 182 -233 ct 193 -226 201 -215 206 -202 ct 
225 -230 249 -244 279 -244 ct 303 -244 321 -237 334 -224 ct 346 -211 353 -191 353 -164 ct 
353 0 l  313 0 l  313 -150 l  313 -166 311 -178 309 -185 ct 306 -192 301 -198 295 -202 ct 
288 -207 280 -209 270 -209 ct 254 -209 240 -203 229 -192 ct 218 -181 212 -163 212 -139 ct 
212 0 l  172 0 l  172 -155 l  172 -173 168 -186 162 -195 ct 155 -204 144 -209 130 -209 ct 
118 -209 108 -206 98 -200 ct 88 -194 81 -185 77 -174 ct 73 -162 71 -146 71 -124 ct 
71 0 l  30 0 l  p ef
pom
pum
10765 5748 t
134 -22 m  134 0 l  8 0 l  8 -6 9 -11 11 -16 ct 14 -25 19 -33 26 -42 ct 33 -50 43 -59 57 -70 ct 
77 -87 91 -101 99 -111 ct 106 -121 110 -130 110 -139 ct 110 -148 106 -156 100 -162 ct 
93 -168 84 -172 74 -172 ct 63 -172 54 -168 47 -162 ct 40 -155 37 -145 37 -134 ct 
12 -136 l  14 -154 20 -168 31 -177 ct 42 -186 56 -191 74 -191 ct 93 -191 107 -186 118 -176 ct 
128 -166 134 -153 134 -138 ct 134 -131 132 -123 129 -116 ct 126 -108 121 -101 113 -93 ct 
106 -84 94 -73 77 -59 ct 63 -47 54 -39 50 -35 ct 46 -31 43 -27 41 -22 ct 134 -22 l 
p ef
pom

1.000 1.000 1.000 c 9823 5884 m  9410 5884 l  9410 5059 l  10236 5059 l 
10236 5884 l  9823 5884 l  p ef
0.503 0.503 0.503 c 9823 5884 m  9410 5884 l  9410 5059 l  10236 5059 l 
10236 5884 l  9823 5884 l  pc
pum
9559 5555 t
0.105 0.105 0.105 c 30 0 m  30 -239 l  66 -239 l  66 -205 l  74 -217 84 -226 96 -233 ct 
109 -240 123 -244 139 -244 ct 156 -244 171 -240 182 -233 ct 193 -226 201 -215 206 -202 ct 
225 -230 249 -244 279 -244 ct 303 -244 321 -237 334 -224 ct 346 -211 353 -191 353 -164 ct 
353 0 l  313 0 l  313 -150 l  313 -166 311 -178 309 -185 ct 306 -192 301 -198 295 -202 ct 
288 -207 280 -209 270 -209 ct 254 -209 240 -203 229 -192 ct 218 -181 212 -163 212 -139 ct 
212 0 l  172 0 l  172 -155 l  172 -173 168 -186 162 -195 ct 155 -204 144 -209 130 -209 ct 
118 -209 108 -206 98 -200 ct 88 -194 81 -185 77 -174 ct 73 -162 71 -146 71 -124 ct 
71 0 l  30 0 l  p ef
pom
pum
9940 5748 t
99 0 m  76 0 l  76 -149 l  70 -144 63 -138 54 -133 ct 44 -127 36 -123 29 -121 ct 
29 -143 l  42 -149 53 -157 63 -166 ct 73 -174 80 -183 84 -191 ct 99 -191 l  99 0 l 
p ef
pom

1.000 1.000 1.000 c 12290 5884 m  11877 5884 l  11877 5059 l  12702 5059 l 
12702 5884 l  12290 5884 l  p ef
0.503 0.503 0.503 c 12290 5884 m  11877 5884 l  11877 5059 l  12702 5059 l 
12702 5884 l  12290 5884 l  pc
pum
12026 5555 t
0.105 0.105 0.105 c 30 0 m  30 -239 l  66 -239 l  66 -205 l  74 -217 84 -226 96 -233 ct 
109 -240 123 -244 139 -244 ct 156 -244 171 -240 182 -233 ct 193 -226 201 -215 206 -202 ct 
225 -230 249 -244 279 -244 ct 303 -244 321 -237 334 -224 ct 346 -211 353 -191 353 -164 ct 
353 0 l  313 0 l  313 -150 l  313 -166 311 -178 309 -185 ct 306 -192 301 -198 295 -202 ct 
288 -207 280 -209 270 -209 ct 254 -209 240 -203 229 -192 ct 218 -181 212 -163 212 -139 ct 
212 0 l  172 0 l  172 -155 l  172 -173 168 -186 162 -195 ct 155 -204 144 -209 130 -209 ct 
118 -209 108 -206 98 -200 ct 88 -194 81 -185 77 -174 ct 73 -162 71 -146 71 -124 ct 
71 0 l  30 0 l  p ef
pom
pum
12407 5748 t
86 0 m  86 -46 l  3 -46 l  3 -67 l  90 -190 l  109 -190 l  109 -67 l  135 -67 l 
135 -46 l  109 -46 l  109 0 l  86 0 l  p
86 -67 m  86 -153 l  26 -67 l  86 -67 l  p ef
pom


pum
9726 6486 t
118 -36 m  124 -1 l  113 2 103 3 94 3 ct 79 3 68 1 60 -4 ct 52 -9 46 -15 43 -22 ct 
39 -30 38 -46 38 -70 ct 38 -208 l  8 -208 l  8 -239 l  38 -239 l  38 -298 l 
78 -322 l  78 -239 l  118 -239 l  118 -208 l  78 -208 l  78 -68 l  78 -56 78 -49 80 -46 ct 
81 -42 84 -40 87 -38 ct 90 -36 95 -35 101 -35 ct 105 -35 111 -35 118 -36 ct p ef
pom
pum
9853 6679 t
99 0 m  76 0 l  76 -149 l  70 -144 63 -138 54 -133 ct 44 -127 36 -123 29 -121 ct 
29 -143 l  42 -149 53 -157 63 -166 ct 73 -174 80 -183 84 -191 ct 99 -191 l  99 0 l 
p ef
pom

pum
10582 6523 t
118 -36 m  124 -1 l  113 2 103 3 94 3 ct 79 3 68 1 60 -4 ct 52 -9 46 -15 43 -22 ct 
39 -30 38 -46 38 -70 ct 38 -208 l  8 -208 l  8 -239 l  38 -239 l  38 -298 l 
78 -322 l  78 -239 l  118 -239 l  118 -208 l  78 -208 l  78 -68 l  78 -56 78 -49 80 -46 ct 
81 -42 84 -40 87 -38 ct 90 -36 95 -35 101 -35 ct 105 -35 111 -35 118 -36 ct p ef
pom
pum
10709 6716 t
134 -22 m  134 0 l  8 0 l  8 -6 9 -11 11 -16 ct 14 -25 19 -33 26 -42 ct 33 -50 43 -59 57 -70 ct 
77 -87 91 -101 99 -111 ct 106 -121 110 -130 110 -139 ct 110 -148 106 -156 100 -162 ct 
93 -168 84 -172 74 -172 ct 63 -172 54 -168 47 -162 ct 40 -155 37 -145 37 -134 ct 
12 -136 l  14 -154 20 -168 31 -177 ct 42 -186 56 -191 74 -191 ct 93 -191 107 -186 118 -176 ct 
128 -166 134 -153 134 -138 ct 134 -131 132 -123 129 -116 ct 126 -108 121 -101 113 -93 ct 
106 -84 94 -73 77 -59 ct 63 -47 54 -39 50 -35 ct 46 -31 43 -27 41 -22 ct 134 -22 l 
p ef
pom

pum
12215 6486 t
118 -36 m  124 -1 l  113 2 103 3 94 3 ct 79 3 68 1 60 -4 ct 52 -9 46 -15 43 -22 ct 
39 -30 38 -46 38 -70 ct 38 -208 l  8 -208 l  8 -239 l  38 -239 l  38 -298 l 
78 -322 l  78 -239 l  118 -239 l  118 -208 l  78 -208 l  78 -68 l  78 -56 78 -49 80 -46 ct 
81 -42 84 -40 87 -38 ct 90 -36 95 -35 101 -35 ct 105 -35 111 -35 118 -36 ct p ef
pom
pum
12342 6679 t
86 0 m  86 -46 l  3 -46 l  3 -67 l  90 -190 l  109 -190 l  109 -67 l  135 -67 l 
135 -46 l  109 -46 l  109 0 l  86 0 l  p
86 -67 m  86 -153 l  26 -67 l  86 -67 l  p ef
pom
1.000 1.000 1.000 c 11473 5885 m  11061 5885 l  11061 5059 l  11886 5059 l 
11886 5885 l  11473 5885 l  p ef
0.503 0.503 0.503 c 11473 5885 m  11061 5885 l  11061 5059 l  11886 5059 l 
11886 5885 l  11473 5885 l  pc
pum
11209 5556 t
0.105 0.105 0.105 c 30 0 m  30 -239 l  66 -239 l  66 -205 l  74 -217 84 -226 96 -233 ct 
109 -240 123 -244 139 -244 ct 156 -244 171 -240 182 -233 ct 193 -226 201 -215 206 -202 ct 
225 -230 249 -244 279 -244 ct 303 -244 321 -237 334 -224 ct 346 -211 353 -191 353 -164 ct 
353 0 l  313 0 l  313 -150 l  313 -166 311 -178 309 -185 ct 306 -192 301 -198 295 -202 ct 
288 -207 280 -209 270 -209 ct 254 -209 240 -203 229 -192 ct 218 -181 212 -163 212 -139 ct 
212 0 l  172 0 l  172 -155 l  172 -173 168 -186 162 -195 ct 155 -204 144 -209 130 -209 ct 
118 -209 108 -206 98 -200 ct 88 -194 81 -185 77 -174 ct 73 -162 71 -146 71 -124 ct 
71 0 l  30 0 l  p ef
pom
pum
11590 5748 t
134 -22 m  134 0 l  8 0 l  8 -6 9 -11 11 -16 ct 14 -25 19 -33 26 -42 ct 33 -50 43 -59 57 -70 ct 
77 -87 91 -101 99 -111 ct 106 -121 110 -130 110 -139 ct 110 -148 106 -156 100 -162 ct 
93 -168 84 -172 74 -172 ct 63 -172 54 -168 47 -162 ct 40 -155 37 -145 37 -134 ct 
12 -136 l  14 -154 20 -168 31 -177 ct 42 -186 56 -191 74 -191 ct 93 -191 107 -186 118 -176 ct 
128 -166 134 -153 134 -138 ct 134 -131 132 -123 129 -116 ct 126 -108 121 -101 113 -93 ct 
106 -84 94 -73 77 -59 ct 63 -47 54 -39 50 -35 ct 46 -31 43 -27 41 -22 ct 134 -22 l 
p ef
pom


pum
11420 6485 t
118 -36 m  124 -1 l  113 2 103 3 94 3 ct 79 3 68 1 60 -4 ct 52 -9 46 -15 43 -22 ct 
39 -30 38 -46 38 -70 ct 38 -208 l  8 -208 l  8 -239 l  38 -239 l  38 -298 l 
78 -322 l  78 -239 l  118 -239 l  118 -208 l  78 -208 l  78 -68 l  78 -56 78 -49 80 -46 ct 
81 -42 84 -40 87 -38 ct 90 -36 95 -35 101 -35 ct 105 -35 111 -35 118 -36 ct p ef
pom
pum
11547 6678 t
11 -51 m  35 -54 l  37 -40 42 -31 48 -25 ct 55 -19 63 -16 72 -16 ct 83 -16 92 -20 100 -28 ct 
107 -35 111 -45 111 -56 ct 111 -67 108 -76 101 -83 ct 94 -90 85 -93 74 -93 ct 69 -93 64 -92 57 -90 ct 
60 -111 l  61 -111 63 -111 64 -111 ct 74 -111 83 -113 91 -118 ct 99 -124 102 -132 102 -142 ct 
102 -151 100 -158 94 -164 ct 88 -169 80 -172 71 -172 ct 62 -172 55 -169 49 -163 ct 
43 -158 39 -149 37 -138 ct 14 -142 l  16 -158 23 -170 33 -178 ct 43 -187 56 -191 71 -191 ct 
81 -191 91 -189 99 -185 ct 108 -180 115 -174 120 -166 ct 124 -159 127 -151 127 -142 ct 
127 -134 124 -126 120 -119 ct 115 -113 109 -107 100 -103 ct 112 -101 120 -95 127 -87 ct 
133 -79 136 -69 136 -57 ct 136 -40 130 -26 118 -14 ct 106 -3 90 3 72 3 ct 55 3 41 -2 30 -12 ct 
19 -22 13 -35 11 -51 ct p ef
pom

pum
13799 6488 t
118 -36 m  124 -1 l  113 2 103 3 94 3 ct 79 3 68 1 60 -4 ct 52 -9 46 -15 43 -22 ct 
39 -30 38 -46 38 -70 ct 38 -208 l  8 -208 l  8 -239 l  38 -239 l  38 -298 l 
78 -322 l  78 -239 l  118 -239 l  118 -208 l  78 -208 l  78 -68 l  78 -56 78 -49 80 -46 ct 
81 -42 84 -40 87 -38 ct 90 -36 95 -35 101 -35 ct 105 -35 111 -35 118 -36 ct p ef
pom
pum
13926 6681 t
15 -44 m  37 -46 l  39 -36 43 -28 48 -23 ct 53 -19 60 -16 69 -16 ct 76 -16 82 -18 87 -21 ct 
93 -24 97 -29 101 -34 ct 104 -40 107 -47 109 -57 ct 112 -66 113 -76 113 -85 ct 
113 -86 113 -88 113 -90 ct 108 -83 102 -77 94 -72 ct 86 -67 77 -65 67 -65 ct 52 -65 38 -71 27 -82 ct 
17 -94 11 -109 11 -127 ct 11 -146 17 -162 28 -174 ct 40 -185 54 -191 71 -191 ct 
83 -191 95 -188 105 -181 ct 115 -175 123 -165 128 -153 ct 134 -141 136 -123 136 -99 ct 
136 -75 134 -56 128 -41 ct 123 -27 115 -16 105 -8 ct 94 -1 82 3 68 3 ct 53 3 41 -1 32 -9 ct 
22 -18 16 -29 15 -44 ct p
110 -128 m  110 -142 107 -152 100 -160 ct 92 -168 84 -172 74 -172 ct 63 -172 54 -168 47 -159 ct 
39 -151 35 -140 35 -126 ct 35 -114 39 -105 46 -97 ct 53 -89 62 -86 73 -86 ct 84 -86 93 -89 100 -97 ct 
107 -105 110 -115 110 -128 ct p ef
pom

pum
12803 5509 t
58 0 m  58 -64 l  121 -64 l  121 0 l  58 0 l  p ef
236 0 m  236 -64 l  299 -64 l  299 0 l  236 0 l  p ef
414 0 m  414 -64 l  477 -64 l  477 0 l  414 0 l  p ef
pom
0.503 0.503 0.503 c 14329 4936 m  14329 4792 14127 4649 13923 4649 ct 12293 4649 l 
12089 4649 11885 4506 11885 4363 ct 11885 4506 11681 4649 11477 4649 ct 9848 4649 l 
9644 4649 9440 4792 9440 4936 ct ps
14329 4363 m  14329 4363 l  pc
9440 4936 m  9440 4936 l  pc


pum
10951 4239 t
0.105 0.105 0.105 c 23 -70 m  59 -74 l  62 -57 68 -45 76 -37 ct 85 -29 96 -26 109 -26 ct 
120 -26 131 -28 139 -33 ct 148 -39 155 -46 160 -54 ct 166 -63 170 -75 174 -90 ct 
178 -105 180 -120 180 -135 ct 180 -137 180 -139 179 -143 ct 172 -131 162 -121 149 -114 ct 
136 -107 122 -103 107 -103 ct 82 -103 61 -112 44 -130 ct 26 -148 18 -172 18 -202 ct 
18 -232 27 -257 45 -276 ct 63 -294 86 -304 113 -304 ct 132 -304 150 -298 167 -288 ct 
183 -277 196 -262 204 -243 ct 212 -223 217 -195 217 -158 ct 217 -119 212 -88 204 -65 ct 
196 -42 183 -25 167 -13 ct 150 -1 131 5 108 5 ct 85 5 65 -2 50 -15 ct 35 -28 26 -46 23 -70 ct 
p
175 -204 m  175 -225 170 -242 158 -254 ct 147 -267 133 -273 117 -273 ct 101 -273 86 -266 74 -253 ct 
62 -239 56 -222 56 -201 ct 56 -181 62 -166 73 -154 ct 85 -142 99 -136 116 -136 ct 
134 -136 148 -142 159 -154 ct 170 -166 175 -182 175 -204 ct p ef
240 0 m  320 -114 l  246 -219 l  293 -219 l  326 -168 l  333 -158 338 -150 342 -143 ct 
348 -152 353 -160 358 -167 ct 395 -219 l  440 -219 l  364 -116 l  445 0 l 
400 0 l  355 -68 l  343 -86 l  285 0 l  240 0 l  p ef
607 0 m  569 0 l  569 -237 l  560 -228 549 -220 534 -211 ct 520 -202 507 -196 495 -192 ct 
495 -228 l  516 -237 534 -249 550 -263 ct 565 -277 576 -291 583 -304 ct 607 -304 l 
607 0 l  p ef
893 0 m  809 -219 l  849 -219 l  896 -88 l  901 -74 905 -59 910 -44 ct 913 -55 918 -69 924 -85 ct 
972 -219 l  1011 -219 l  928 0 l  893 0 l  p ef
1194 -71 m  1232 -66 l  1226 -43 1215 -26 1199 -14 ct 1182 -1 1161 5 1136 5 ct 
1104 5 1078 -5 1060 -25 ct 1041 -44 1031 -72 1031 -108 ct 1031 -145 1041 -173 1060 -193 ct 
1079 -214 1104 -224 1134 -224 ct 1163 -224 1187 -214 1206 -194 ct 1224 -174 1234 -146 1234 -110 ct 
1234 -108 1234 -104 1233 -100 ct 1070 -100 l  1071 -76 1078 -58 1090 -45 ct 
1103 -32 1118 -26 1136 -26 ct 1150 -26 1161 -29 1171 -36 ct 1181 -43 1188 -55 1194 -71 ct 
p
1072 -131 m  1194 -131 l  1193 -149 1188 -163 1180 -172 ct 1169 -186 1153 -193 1134 -193 ct 
1117 -193 1103 -188 1091 -176 ct 1080 -165 1073 -150 1072 -131 ct p ef
1424 -80 m  1461 -75 l  1457 -50 1446 -31 1430 -16 ct 1413 -2 1393 5 1369 5 ct 
1339 5 1315 -5 1297 -24 ct 1279 -44 1270 -72 1270 -109 ct 1270 -132 1273 -153 1281 -171 ct 
1289 -189 1301 -202 1317 -211 ct 1333 -220 1351 -224 1369 -224 ct 1393 -224 1413 -218 1428 -206 ct 
1443 -194 1453 -177 1457 -155 ct 1421 -149 l  1417 -164 1411 -175 1403 -182 ct 
1394 -190 1383 -193 1371 -193 ct 1352 -193 1337 -187 1325 -173 ct 1314 -160 1308 -139 1308 -110 ct 
1308 -80 1313 -59 1325 -46 ct 1336 -32 1351 -26 1369 -26 ct 1383 -26 1396 -30 1405 -39 ct 
1415 -48 1421 -62 1424 -80 ct p ef
1573 -33 m  1578 0 l  1568 2 1559 3 1550 3 ct 1537 3 1526 1 1519 -3 ct 1512 -8 1506 -13 1503 -20 ct 
1500 -27 1499 -42 1499 -64 ct 1499 -190 l  1471 -190 l  1471 -219 l  1499 -219 l 
1499 -273 l  1536 -296 l  1536 -219 l  1573 -219 l  1573 -190 l  1536 -190 l 
1536 -62 l  1536 -51 1536 -45 1538 -42 ct 1539 -39 1541 -36 1544 -34 ct 1547 -33 1551 -32 1557 -32 ct 
1561 -32 1566 -32 1573 -33 ct p ef
1596 -109 m  1596 -150 1607 -180 1630 -200 ct 1649 -216 1672 -224 1699 -224 ct 
1729 -224 1754 -214 1773 -194 ct 1792 -175 1802 -147 1802 -113 ct 1802 -84 1797 -62 1789 -46 ct 
1780 -30 1768 -17 1752 -8 ct 1736 1 1718 5 1699 5 ct 1668 5 1643 -5 1624 -25 ct 
1606 -44 1596 -73 1596 -109 ct p
1634 -110 m  1634 -81 1640 -60 1653 -46 ct 1665 -33 1680 -26 1699 -26 ct 1717 -26 1733 -33 1745 -47 ct 
1757 -61 1763 -82 1763 -111 ct 1763 -138 1757 -158 1745 -172 ct 1733 -186 1717 -193 1699 -193 ct 
1680 -193 1665 -186 1653 -172 ct 1640 -159 1634 -138 1634 -110 ct p ef
1846 0 m  1846 -219 l  1880 -219 l  1880 -186 l  1888 -201 1896 -212 1904 -217 ct 
1911 -222 1919 -224 1927 -224 ct 1940 -224 1953 -220 1966 -212 ct 1953 -178 l 
1944 -183 1935 -186 1926 -186 ct 1917 -186 1910 -183 1904 -178 ct 1897 -173 1893 -167 1890 -158 ct 
1886 -145 1884 -130 1884 -115 ct 1884 0 l  1846 0 l  p ef
pom
0 6480 t 
pom
count op_count sub {pop} repeat countdictstack dict_count sub {end} repeat b4_inc_state restore
%%PageTrailer
%%Trailer
%%EOF
