%!PS-Adobe-3.0 EPSF-3.0 
%%BoundingBox: 0 0 416 248
%%Pages: 0
%%Creator: LibreOffice 3.6
%%Title: none
%%CreationDate: none
%%LanguageLevel: 2
%%EndComments
%%BeginProlog
%%BeginResource: procset SDRes-Prolog 1.0 0
/b4_inc_state save def
/dict_count countdictstack def
/op_count count 1 sub def
userdict begin
0 setgray 0 setlinecap 1 setlinewidth 0 setlinejoin 10 setmiterlimit[] 0 setdash newpath
/languagelevel where {pop languagelevel 1 ne {false setstrokeadjust false setoverprint} if} if
/bdef {bind def} bind def
/c {setrgbcolor} bdef
/l {neg lineto} bdef
/rl {neg rlineto} bdef
/lc {setlinecap} bdef
/lj {setlinejoin} bdef
/lw {setlinewidth} bdef
/ml {setmiterlimit} bdef
/ld {setdash} bdef
/m {neg moveto} bdef
/ct {6 2 roll neg 6 2 roll neg 6 2 roll neg curveto} bdef
/r {rotate} bdef
/t {neg translate} bdef
/s {scale} bdef
/sw {show} bdef
/gs {gsave} bdef
/gr {grestore} bdef
/f {findfont dup length dict begin
{1 index /FID ne {def} {pop pop} ifelse} forall /Encoding ISOLatin1Encoding def
currentdict end /NFont exch definefont pop /NFont findfont} bdef
/p {closepath} bdef
/sf {scalefont setfont} bdef
/ef {eofill}bdef
/pc {closepath stroke}bdef
/ps {stroke}bdef
/pum {matrix currentmatrix}bdef
/pom {setmatrix}bdef
/bs {/aString exch def /nXOfs exch def /nWidth exch def currentpoint nXOfs 0 rmoveto pum nWidth aString stringwidth pop div 1 scale aString show pom moveto} bdef
%%EndResource
%%EndProlog
%%BeginSetup
%%EndSetup
%%Page: 1 1
%%BeginPageSetup
%%EndPageSetup
pum
0.02835 0.02829 s 
0 -8764 t
/tm matrix currentmatrix def
tm setmatrix
-2904 -1633 t 
1 1 s 
0.281 0.722 0.722 c 10237 10394 m  2904 10394 l  2904 1633 l  17570 1633 l 
17570 10394 l  10237 10394 l  p ef
0 lw 1 lj 0.503 0.503 0.503 c 10237 10394 m  2904 10394 l  2904 1633 l 
17570 1633 l  17570 10394 l  10237 10394 l  pc


pum
3218 2271 t
0.316 0.316 0.316 c 200 -130 m  200 -190 l  354 -190 l  354 -49 l  339 -34 318 -22 289 -11 ct 
261 0 232 6 203 6 ct 166 6 134 -2 106 -17 ct 79 -33 58 -55 44 -84 ct 31 -113 24 -144 24 -178 ct 
24 -215 31 -248 47 -276 ct 62 -305 85 -327 115 -342 ct 137 -354 165 -360 199 -360 ct 
243 -360 277 -351 302 -332 ct 327 -314 343 -288 350 -256 ct 279 -243 l  274 -260 264 -274 251 -284 ct 
237 -294 220 -299 199 -299 ct 168 -299 143 -289 125 -269 ct 106 -249 97 -220 97 -181 ct 
97 -139 107 -108 125 -87 ct 144 -66 168 -55 199 -55 ct 213 -55 228 -58 244 -64 ct 
259 -70 271 -77 282 -85 ct 282 -130 l  200 -130 l  p ef
485 0 m  418 0 l  418 -256 l  481 -256 l  481 -220 l  491 -237 501 -248 510 -254 ct 
518 -259 528 -262 539 -262 ct 554 -262 569 -258 584 -249 ct 563 -190 l  551 -198 541 -201 531 -201 ct 
521 -201 513 -199 507 -193 ct 500 -188 495 -179 491 -165 ct 487 -151 485 -123 485 -79 ct 
485 0 l  p ef
615 -291 m  615 -354 l  683 -354 l  683 -291 l  615 -291 l  p
615 0 m  615 -256 l  683 -256 l  683 0 l  615 0 l  p ef
990 0 m  927 0 l  927 -37 l  917 -23 905 -12 890 -5 ct 876 2 862 6 847 6 ct 
818 6 793 -6 772 -30 ct 751 -53 740 -86 740 -129 ct 740 -172 750 -205 771 -228 ct 
791 -251 817 -262 848 -262 ct 877 -262 902 -250 923 -226 ct 923 -354 l  990 -354 l 
990 0 l  p
809 -134 m  809 -106 813 -86 821 -74 ct 832 -56 847 -48 867 -48 ct 882 -48 896 -54 906 -67 ct 
917 -81 923 -101 923 -127 ct 923 -156 918 -178 907 -191 ct 896 -204 883 -210 866 -210 ct 
850 -210 837 -204 826 -191 ct 815 -178 809 -159 809 -134 ct p ef
pom
0.812 0.906 0.960 c 6678 7918 m  3213 7918 l  3213 2522 l  10142 2522 l 
10142 7918 l  6678 7918 l  p ef
0.503 0.503 0.503 c 6678 7918 m  3213 7918 l  3213 2522 l  10142 2522 l 
10142 7918 l  6678 7918 l  pc

0.003 0.281 1.000 c 6655 4174 m  3358 4174 l  3358 3476 l  9951 3476 l  9951 4174 l 
6655 4174 l  p ef
0.503 0.503 0.503 c 6655 4174 m  3358 4174 l  3358 3476 l  9951 3476 l 
9951 4174 l  6655 4174 l  pc

0.003 0.281 1.000 c 4628 5443 m  3358 5443 l  3358 4427 l  5898 4427 l  5898 5443 l 
4628 5443 l  p ef
0.503 0.503 0.503 c 4628 5443 m  3358 5443 l  3358 4427 l  5898 4427 l 
5898 5443 l  4628 5443 l  pc

0.601 0.800 1.000 c 4945 7602 m  3357 7602 l  3357 6315 l  6532 6315 l 
6532 7602 l  4945 7602 l  p ef
0.503 0.503 0.503 c 4945 7602 m  3357 7602 l  3357 6315 l  6532 6315 l 
6532 7602 l  4945 7602 l  pc


pum
3740 4869 t
1.000 1.000 1.000 c 28 0 m  28 -278 l  146 -278 l  176 -278 198 -276 211 -271 ct 
225 -266 235 -257 243 -244 ct 252 -231 256 -216 256 -200 ct 256 -179 249 -162 237 -148 ct 
225 -135 207 -126 182 -123 ct 194 -116 204 -108 212 -99 ct 220 -91 231 -76 244 -54 ct 
278 0 l  211 0 l  171 -60 l  156 -82 146 -96 141 -101 ct 136 -107 130 -111 124 -113 ct 
118 -115 109 -116 96 -116 ct 85 -116 l  85 0 l  28 0 l  p
85 -160 m  126 -160 l  153 -160 170 -162 176 -164 ct 183 -166 188 -170 192 -176 ct 
196 -181 198 -188 198 -196 ct 198 -206 195 -213 190 -219 ct 185 -225 178 -229 169 -230 ct 
165 -231 151 -231 128 -231 ct 85 -231 l  85 -160 l  p ef
423 -64 m  476 -55 l  470 -35 459 -20 444 -10 ct 429 0 411 5 389 5 ct 354 5 328 -6 311 -29 ct 
298 -48 291 -71 291 -99 ct 291 -132 300 -158 317 -177 ct 335 -196 357 -206 384 -206 ct 
414 -206 437 -196 454 -176 ct 472 -156 480 -126 479 -85 ct 346 -85 l  346 -69 351 -57 359 -48 ct 
367 -39 377 -35 389 -35 ct 398 -35 405 -37 410 -42 ct 416 -46 420 -54 423 -64 ct 
p
426 -118 m  426 -133 422 -145 414 -153 ct 407 -161 398 -165 387 -165 ct 375 -165 366 -161 358 -152 ct 
350 -144 347 -132 347 -118 ct 426 -118 l  p ef
518 13 m  579 21 l  580 28 582 33 586 36 ct 591 39 599 41 610 41 ct 624 41 634 39 641 35 ct 
646 32 649 28 651 21 ct 653 17 654 9 654 -3 ct 654 -33 l  638 -11 618 0 594 0 ct 
567 0 545 -11 529 -34 ct 517 -52 511 -75 511 -102 ct 511 -135 519 -161 535 -179 ct 
552 -197 572 -206 596 -206 ct 621 -206 641 -195 657 -173 ct 657 -201 l  707 -201 l 
707 -20 l  707 3 705 21 701 33 ct 697 45 692 54 685 61 ct 678 67 668 73 657 76 ct 
645 80 630 82 612 82 ct 578 82 553 76 539 64 ct 525 53 518 38 518 20 ct 518 18 518 16 518 13 ct 
p
565 -105 m  565 -83 570 -68 578 -58 ct 586 -48 596 -43 608 -43 ct 622 -43 632 -48 641 -58 ct 
650 -68 655 -83 655 -103 ct 655 -124 651 -140 642 -150 ct 633 -160 623 -165 609 -165 ct 
597 -165 586 -160 578 -150 ct 570 -140 565 -125 565 -105 ct p ef
760 -229 m  760 -278 l  813 -278 l  813 -229 l  760 -229 l  p
760 0 m  760 -201 l  813 -201 l  813 0 l  760 0 l  p ef
851 -57 m  905 -65 l  907 -55 911 -47 918 -42 ct 925 -36 935 -34 948 -34 ct 
961 -34 972 -36 979 -41 ct 983 -45 986 -49 986 -55 ct 986 -59 984 -63 982 -65 ct 
979 -68 973 -70 964 -72 ct 921 -82 894 -90 882 -98 ct 866 -109 858 -124 858 -144 ct 
858 -161 865 -176 879 -188 ct 893 -199 914 -205 943 -205 ct 971 -205 991 -201 1005 -192 ct 
1018 -183 1027 -170 1032 -152 ct 982 -143 l  980 -151 976 -157 970 -161 ct 964 -165 955 -167 944 -167 ct 
930 -167 920 -165 914 -161 ct 910 -158 908 -155 908 -150 ct 908 -147 910 -143 913 -141 ct 
918 -137 935 -132 963 -126 ct 991 -119 1011 -111 1022 -102 ct 1033 -93 1039 -79 1039 -62 ct 
1039 -44 1031 -28 1016 -15 ct 1001 -2 978 5 948 5 ct 920 5 898 -1 882 -12 ct 866 -23 856 -38 851 -57 ct 
p ef
1178 -201 m  1178 -159 l  1142 -159 l  1142 -77 l  1142 -61 1142 -51 1143 -49 ct 
1143 -46 1145 -44 1148 -42 ct 1150 -40 1153 -39 1157 -39 ct 1161 -39 1169 -41 1178 -44 ct 
1182 -3 l  1170 2 1156 5 1140 5 ct 1131 5 1122 3 1114 0 ct 1107 -3 1101 -7 1098 -12 ct 
1094 -17 1091 -24 1090 -33 ct 1089 -39 1088 -52 1088 -71 ct 1088 -159 l  1064 -159 l 
1064 -201 l  1088 -201 l  1088 -241 l  1142 -272 l  1142 -201 l  1178 -201 l 
p ef
1334 -64 m  1387 -55 l  1381 -35 1370 -20 1355 -10 ct 1340 0 1322 5 1300 5 ct 
1265 5 1239 -6 1222 -29 ct 1209 -48 1202 -71 1202 -99 ct 1202 -132 1211 -158 1228 -177 ct 
1246 -196 1268 -206 1295 -206 ct 1325 -206 1348 -196 1365 -176 ct 1383 -156 1391 -126 1390 -85 ct 
1257 -85 l  1257 -69 1262 -57 1270 -48 ct 1278 -39 1288 -35 1300 -35 ct 1309 -35 1316 -37 1321 -42 ct 
1327 -46 1331 -54 1334 -64 ct p
1337 -118 m  1337 -133 1333 -145 1325 -153 ct 1318 -161 1309 -165 1298 -165 ct 
1286 -165 1277 -161 1269 -152 ct 1261 -144 1258 -132 1258 -118 ct 1337 -118 l 
p ef
1484 0 m  1431 0 l  1431 -201 l  1480 -201 l  1480 -173 l  1488 -186 1496 -195 1503 -200 ct 
1510 -204 1517 -206 1526 -206 ct 1538 -206 1550 -203 1561 -196 ct 1544 -149 l 
1535 -155 1527 -158 1519 -158 ct 1512 -158 1506 -156 1500 -152 ct 1495 -148 1491 -140 1488 -130 ct 
1485 -119 1484 -96 1484 -62 ct 1484 0 l  p ef
1567 -57 m  1621 -65 l  1623 -55 1627 -47 1634 -42 ct 1641 -36 1651 -34 1664 -34 ct 
1677 -34 1688 -36 1695 -41 ct 1699 -45 1702 -49 1702 -55 ct 1702 -59 1700 -63 1698 -65 ct 
1695 -68 1689 -70 1680 -72 ct 1637 -82 1610 -90 1598 -98 ct 1582 -109 1574 -124 1574 -144 ct 
1574 -161 1581 -176 1595 -188 ct 1609 -199 1630 -205 1659 -205 ct 1687 -205 1707 -201 1721 -192 ct 
1734 -183 1743 -170 1748 -152 ct 1698 -143 l  1696 -151 1692 -157 1686 -161 ct 
1680 -165 1671 -167 1660 -167 ct 1646 -167 1636 -165 1630 -161 ct 1626 -158 1624 -155 1624 -150 ct 
1624 -147 1626 -143 1629 -141 ct 1634 -137 1651 -132 1679 -126 ct 1707 -119 1727 -111 1738 -102 ct 
1749 -93 1755 -79 1755 -62 ct 1755 -44 1747 -28 1732 -15 ct 1717 -2 1694 5 1664 5 ct 
1636 5 1614 -1 1598 -12 ct 1582 -23 1572 -38 1567 -57 ct p ef
pom
pum
3869 5301 t
24 -201 m  73 -201 l  73 -174 l  91 -195 111 -206 136 -206 ct 149 -206 160 -203 169 -198 ct 
179 -193 186 -185 192 -174 ct 201 -185 211 -193 221 -198 ct 231 -203 242 -206 254 -206 ct 
269 -206 281 -203 291 -197 ct 302 -191 309 -182 314 -171 ct 318 -162 320 -148 320 -129 ct 
320 0 l  267 0 l  267 -115 l  267 -135 265 -148 261 -154 ct 256 -161 249 -165 238 -165 ct 
231 -165 224 -163 217 -158 ct 211 -154 206 -147 203 -138 ct 200 -130 199 -116 199 -97 ct 
199 0 l  146 0 l  146 -110 l  146 -130 145 -143 143 -148 ct 141 -154 138 -158 134 -161 ct 
130 -164 124 -165 118 -165 ct 109 -165 102 -163 95 -159 ct 89 -154 84 -148 81 -139 ct 
79 -131 77 -117 77 -98 ct 77 0 l  24 0 l  24 -201 l  p ef
491 -64 m  544 -55 l  538 -35 527 -20 512 -10 ct 497 0 479 5 457 5 ct 422 5 396 -6 379 -29 ct 
366 -48 359 -71 359 -99 ct 359 -132 368 -158 385 -177 ct 403 -196 425 -206 452 -206 ct 
482 -206 505 -196 522 -176 ct 540 -156 548 -126 547 -85 ct 414 -85 l  414 -69 419 -57 427 -48 ct 
435 -39 445 -35 457 -35 ct 466 -35 473 -37 478 -42 ct 484 -46 488 -54 491 -64 ct 
p
494 -118 m  494 -133 490 -145 482 -153 ct 475 -161 466 -165 455 -165 ct 443 -165 434 -161 426 -152 ct 
418 -144 415 -132 415 -118 ct 494 -118 l  p ef
587 -201 m  636 -201 l  636 -174 l  654 -195 674 -206 699 -206 ct 712 -206 723 -203 732 -198 ct 
742 -193 749 -185 755 -174 ct 764 -185 774 -193 784 -198 ct 794 -203 805 -206 817 -206 ct 
832 -206 844 -203 854 -197 ct 865 -191 872 -182 877 -171 ct 881 -162 883 -148 883 -129 ct 
883 0 l  830 0 l  830 -115 l  830 -135 828 -148 824 -154 ct 819 -161 812 -165 801 -165 ct 
794 -165 787 -163 780 -158 ct 774 -154 769 -147 766 -138 ct 763 -130 762 -116 762 -97 ct 
762 0 l  709 0 l  709 -110 l  709 -130 708 -143 706 -148 ct 704 -154 701 -158 697 -161 ct 
693 -164 687 -165 681 -165 ct 672 -165 665 -163 658 -159 ct 652 -154 647 -148 644 -139 ct 
642 -131 640 -117 640 -98 ct 640 0 l  587 0 l  587 -201 l  p ef
926 -103 m  926 -121 930 -138 939 -154 ct 947 -171 960 -184 976 -192 ct 992 -201 1009 -205 1029 -205 ct 
1060 -205 1085 -196 1104 -176 ct 1123 -156 1133 -131 1133 -101 ct 1133 -70 1123 -45 1104 -25 ct 
1084 -5 1059 5 1030 5 ct 1011 5 994 1 977 -8 ct 960 -16 947 -28 939 -44 ct 930 -60 926 -80 926 -103 ct 
p
980 -100 m  980 -80 985 -65 994 -54 ct 1004 -44 1015 -38 1029 -38 ct 1043 -38 1055 -44 1064 -54 ct 
1074 -65 1078 -80 1078 -101 ct 1078 -120 1074 -135 1064 -146 ct 1055 -157 1043 -162 1029 -162 ct 
1015 -162 1004 -157 994 -146 ct 985 -135 980 -120 980 -100 ct p ef
1226 0 m  1173 0 l  1173 -201 l  1222 -201 l  1222 -173 l  1230 -186 1238 -195 1245 -200 ct 
1252 -204 1259 -206 1268 -206 ct 1280 -206 1292 -203 1303 -196 ct 1286 -149 l 
1277 -155 1269 -158 1261 -158 ct 1254 -158 1248 -156 1242 -152 ct 1237 -148 1233 -140 1230 -130 ct 
1227 -119 1226 -96 1226 -62 ct 1226 0 l  p ef
1303 -201 m  1359 -201 l  1407 -58 l  1454 -201 l  1510 -201 l  1438 -7 l 
1426 28 l  1421 40 1417 49 1412 55 ct 1408 61 1403 66 1398 70 ct 1392 74 1386 77 1378 79 ct 
1370 81 1361 82 1350 82 ct 1340 82 1330 81 1320 79 ct 1316 37 l  1324 39 1331 40 1338 40 ct 
1350 40 1360 36 1366 29 ct 1371 21 1376 12 1379 1 ct 1303 -201 l  p ef
pom

pum
5050 3986 t
15 -99 m  75 -105 l  78 -85 86 -70 97 -61 ct 108 -51 122 -47 141 -47 ct 161 -47 175 -51 185 -59 ct 
195 -67 200 -77 200 -88 ct 200 -95 198 -101 194 -107 ct 190 -112 183 -116 172 -120 ct 
165 -122 149 -126 123 -133 ct 90 -141 67 -151 54 -163 ct 36 -179 26 -200 26 -224 ct 
26 -239 31 -253 39 -267 ct 48 -280 61 -290 77 -297 ct 94 -304 113 -308 137 -308 ct 
175 -308 203 -300 223 -283 ct 242 -266 252 -243 253 -215 ct 192 -215 l  189 -230 183 -241 175 -248 ct 
166 -254 153 -257 136 -257 ct 118 -257 104 -254 94 -247 ct 88 -242 85 -236 85 -228 ct 
85 -221 88 -214 94 -209 ct 101 -203 120 -196 150 -189 ct 180 -182 202 -175 216 -167 ct 
230 -160 241 -150 249 -137 ct 257 -124 261 -108 261 -88 ct 261 -71 257 -55 247 -40 ct 
237 -25 224 -13 206 -6 ct 189 1 167 5 140 5 ct 102 5 73 -4 52 -22 ct 32 -39 19 -65 15 -99 ct 
p ef
372 -302 m  372 -191 l  391 -213 413 -224 439 -224 ct 453 -224 465 -222 475 -217 ct 
486 -212 494 -205 500 -198 ct 505 -190 509 -181 511 -172 ct 513 -163 514 -148 514 -129 ct 
514 0 l  456 0 l  456 -116 l  456 -139 455 -153 453 -159 ct 450 -166 446 -171 441 -174 ct 
435 -178 428 -180 420 -180 ct 410 -180 402 -177 394 -173 ct 387 -168 381 -161 377 -151 ct 
374 -142 372 -128 372 -110 ct 372 0 l  314 0 l  314 -302 l  372 -302 l  p ef
616 -152 m  563 -162 l  569 -183 579 -199 594 -209 ct 608 -219 630 -224 658 -224 ct 
684 -224 703 -221 716 -215 ct 729 -209 737 -201 743 -192 ct 748 -182 750 -165 750 -140 ct 
750 -72 l  750 -53 751 -39 753 -29 ct 754 -20 758 -10 763 0 ct 706 0 l  704 -4 702 -10 700 -17 ct 
699 -21 698 -23 698 -24 ct 688 -14 677 -7 666 -2 ct 655 3 643 5 630 5 ct 607 5 590 -1 577 -13 ct 
564 -26 557 -41 557 -60 ct 557 -72 560 -83 566 -93 ct 572 -103 580 -110 591 -115 ct 
602 -120 617 -125 637 -129 ct 664 -134 683 -139 693 -143 ct 693 -149 l  693 -160 691 -168 685 -173 ct 
680 -177 669 -180 654 -180 ct 644 -180 636 -178 630 -174 ct 624 -170 619 -162 616 -152 ct 
p
693 -105 m  686 -103 674 -100 658 -96 ct 642 -93 631 -89 626 -86 ct 619 -81 615 -74 615 -66 ct 
615 -58 618 -51 624 -45 ct 630 -39 638 -36 647 -36 ct 658 -36 668 -39 677 -46 ct 
684 -51 689 -58 691 -65 ct 693 -70 693 -80 693 -94 ct 693 -105 l  p ef
865 0 m  807 0 l  807 -219 l  861 -219 l  861 -188 l  870 -203 878 -212 886 -217 ct 
893 -222 901 -224 911 -224 ct 924 -224 937 -220 949 -213 ct 931 -163 l  921 -169 912 -172 904 -172 ct 
896 -172 889 -170 883 -165 ct 877 -161 873 -153 870 -141 ct 867 -129 865 -105 865 -68 ct 
865 0 l  p ef
1101 -70 m  1159 -60 l  1152 -39 1140 -23 1124 -12 ct 1108 -1 1088 5 1064 5 ct 
1026 5 997 -7 979 -32 ct 965 -52 957 -77 957 -108 ct 957 -144 967 -173 986 -193 ct 
1005 -214 1029 -224 1058 -224 ct 1091 -224 1116 -213 1135 -192 ct 1154 -170 1163 -137 1162 -93 ct 
1017 -93 l  1017 -76 1022 -62 1031 -53 ct 1040 -43 1051 -38 1064 -38 ct 1074 -38 1081 -41 1087 -46 ct 
1094 -51 1098 -59 1101 -70 ct p
1105 -128 m  1104 -145 1100 -158 1092 -167 ct 1083 -175 1073 -180 1062 -180 ct 
1049 -180 1038 -175 1030 -166 ct 1022 -157 1018 -144 1018 -128 ct 1105 -128 l 
p ef
1413 0 m  1359 0 l  1359 -32 l  1350 -20 1339 -10 1327 -4 ct 1315 2 1302 5 1290 5 ct 
1265 5 1243 -5 1225 -25 ct 1207 -46 1198 -74 1198 -110 ct 1198 -147 1207 -176 1225 -195 ct 
1242 -214 1264 -224 1291 -224 ct 1315 -224 1337 -214 1355 -193 ct 1355 -302 l 
1413 -302 l  1413 0 l  p
1258 -114 m  1258 -91 1261 -74 1267 -63 ct 1277 -48 1290 -41 1307 -41 ct 1320 -41 1331 -46 1341 -58 ct 
1350 -69 1355 -86 1355 -109 ct 1355 -134 1350 -152 1341 -163 ct 1332 -174 1320 -180 1306 -180 ct 
1292 -180 1281 -174 1272 -163 ct 1262 -152 1258 -136 1258 -114 ct p ef
1584 -219 m  1638 -219 l  1638 -189 l  1657 -212 1679 -224 1706 -224 ct 1720 -224 1732 -221 1742 -215 ct 
1753 -210 1761 -201 1768 -189 ct 1777 -201 1788 -210 1799 -215 ct 1810 -221 1822 -224 1835 -224 ct 
1851 -224 1865 -221 1876 -214 ct 1887 -208 1895 -198 1901 -185 ct 1905 -176 1907 -161 1907 -140 ct 
1907 0 l  1849 0 l  1849 -125 l  1849 -147 1847 -161 1843 -167 ct 1837 -176 1829 -180 1818 -180 ct 
1810 -180 1802 -177 1795 -172 ct 1788 -167 1783 -160 1779 -150 ct 1776 -141 1775 -126 1775 -105 ct 
1775 0 l  1717 0 l  1717 -120 l  1717 -141 1716 -155 1714 -161 ct 1711 -167 1708 -172 1704 -175 ct 
1700 -178 1694 -180 1686 -180 ct 1677 -180 1669 -177 1662 -172 ct 1655 -168 1650 -161 1647 -152 ct 
1644 -143 1642 -127 1642 -106 ct 1642 0 l  1584 0 l  1584 -219 l  p ef
2092 -70 m  2150 -60 l  2143 -39 2131 -23 2115 -12 ct 2099 -1 2079 5 2055 5 ct 
2017 5 1988 -7 1970 -32 ct 1956 -52 1948 -77 1948 -108 ct 1948 -144 1958 -173 1977 -193 ct 
1996 -214 2020 -224 2049 -224 ct 2082 -224 2107 -213 2126 -192 ct 2145 -170 2154 -137 2153 -93 ct 
2008 -93 l  2008 -76 2013 -62 2022 -53 ct 2031 -43 2042 -38 2055 -38 ct 2065 -38 2072 -41 2078 -46 ct 
2085 -51 2089 -59 2092 -70 ct p
2096 -128 m  2095 -145 2091 -158 2083 -167 ct 2074 -175 2064 -180 2053 -180 ct 
2040 -180 2029 -175 2021 -166 ct 2013 -157 2009 -144 2009 -128 ct 2096 -128 l 
p ef
2198 -219 m  2252 -219 l  2252 -189 l  2271 -212 2293 -224 2320 -224 ct 2334 -224 2346 -221 2356 -215 ct 
2367 -210 2375 -201 2382 -189 ct 2391 -201 2402 -210 2413 -215 ct 2424 -221 2436 -224 2449 -224 ct 
2465 -224 2479 -221 2490 -214 ct 2501 -208 2509 -198 2515 -185 ct 2519 -176 2521 -161 2521 -140 ct 
2521 0 l  2463 0 l  2463 -125 l  2463 -147 2461 -161 2457 -167 ct 2451 -176 2443 -180 2432 -180 ct 
2424 -180 2416 -177 2409 -172 ct 2402 -167 2397 -160 2393 -150 ct 2390 -141 2389 -126 2389 -105 ct 
2389 0 l  2331 0 l  2331 -120 l  2331 -141 2330 -155 2328 -161 ct 2325 -167 2322 -172 2318 -175 ct 
2314 -178 2308 -180 2300 -180 ct 2291 -180 2283 -177 2276 -172 ct 2269 -168 2264 -161 2261 -152 ct 
2258 -143 2256 -127 2256 -106 ct 2256 0 l  2198 0 l  2198 -219 l  p ef
2565 -113 m  2565 -132 2570 -150 2579 -169 ct 2589 -187 2602 -200 2620 -210 ct 
2637 -219 2656 -224 2678 -224 ct 2711 -224 2738 -213 2760 -192 ct 2781 -170 2791 -143 2791 -110 ct 
2791 -77 2781 -50 2759 -28 ct 2738 -6 2711 5 2678 5 ct 2658 5 2639 0 2621 -9 ct 
2603 -18 2589 -31 2579 -49 ct 2570 -66 2565 -87 2565 -113 ct p
2624 -109 m  2624 -88 2630 -71 2640 -60 ct 2650 -48 2663 -42 2678 -42 ct 2693 -42 2706 -48 2716 -60 ct 
2726 -71 2732 -88 2732 -110 ct 2732 -131 2726 -148 2716 -159 ct 2706 -171 2693 -177 2678 -177 ct 
2663 -177 2650 -171 2640 -159 ct 2630 -148 2624 -131 2624 -109 ct p ef
2893 0 m  2835 0 l  2835 -219 l  2889 -219 l  2889 -188 l  2898 -203 2906 -212 2914 -217 ct 
2921 -222 2929 -224 2939 -224 ct 2952 -224 2965 -220 2977 -213 ct 2959 -163 l 
2949 -169 2940 -172 2932 -172 ct 2924 -172 2917 -170 2911 -165 ct 2905 -161 2901 -153 2898 -141 ct 
2895 -129 2893 -105 2893 -68 ct 2893 0 l  p ef
2975 -219 m  3037 -219 l  3089 -63 l  3140 -219 l  3200 -219 l  3123 -8 l 
3109 30 l  3104 43 3099 53 3095 59 ct 3090 66 3085 71 3079 76 ct 3073 80 3065 83 3057 86 ct 
3048 88 3038 89 3027 89 ct 3016 89 3005 88 2994 86 ct 2989 40 l  2998 42 3006 43 3014 43 ct 
3027 43 3037 39 3043 31 ct 3050 23 3055 13 3058 1 ct 2975 -219 l  p ef
pom
52 lw 0.003 0.003 0.003 c 4628 6015 m  4628 5763 l  ps
4628 6269 m  4717 6002 l  4539 6002 l  4628 6269 l  p ef
4628 5507 m  4539 5774 l  4717 5774 l  4628 5507 l  p ef
6215 6015 m  6215 4529 l  ps
6215 6269 m  6304 6002 l  6126 6002 l  6215 6269 l  p ef
6215 4274 m  6126 4540 l  6304 4540 l  6215 4274 l  p ef

pum
4237 7098 t
0.316 0.316 0.316 c 99 0 m  99 -251 l  9 -251 l  9 -302 l  250 -302 l  250 -251 l 
160 -251 l  160 0 l  99 0 l  p ef
346 -302 m  346 -191 l  365 -213 387 -224 413 -224 ct 427 -224 439 -222 449 -217 ct 
460 -212 468 -205 474 -198 ct 479 -190 483 -181 485 -172 ct 487 -163 488 -148 488 -129 ct 
488 0 l  430 0 l  430 -116 l  430 -139 429 -153 427 -159 ct 424 -166 420 -171 415 -174 ct 
409 -178 402 -180 394 -180 ct 384 -180 376 -177 368 -173 ct 361 -168 355 -161 351 -151 ct 
348 -142 346 -128 346 -110 ct 346 0 l  288 0 l  288 -302 l  346 -302 l  p ef
602 0 m  544 0 l  544 -219 l  598 -219 l  598 -188 l  607 -203 615 -212 623 -217 ct 
630 -222 638 -224 648 -224 ct 661 -224 674 -220 686 -213 ct 668 -163 l  658 -169 649 -172 641 -172 ct 
633 -172 626 -170 620 -165 ct 614 -161 610 -153 607 -141 ct 604 -129 602 -105 602 -68 ct 
602 0 l  p ef
839 -70 m  897 -60 l  890 -39 878 -23 862 -12 ct 846 -1 826 5 802 5 ct 764 5 735 -7 717 -32 ct 
703 -52 695 -77 695 -108 ct 695 -144 705 -173 724 -193 ct 743 -214 767 -224 796 -224 ct 
829 -224 854 -213 873 -192 ct 892 -170 901 -137 900 -93 ct 755 -93 l  755 -76 760 -62 769 -53 ct 
778 -43 789 -38 802 -38 ct 812 -38 819 -41 825 -46 ct 832 -51 836 -59 839 -70 ct 
p
843 -128 m  842 -145 838 -158 830 -167 ct 821 -175 811 -180 800 -180 ct 787 -180 776 -175 768 -166 ct 
760 -157 756 -144 756 -128 ct 843 -128 l  p ef
993 -152 m  940 -162 l  946 -183 956 -199 971 -209 ct 985 -219 1007 -224 1035 -224 ct 
1061 -224 1080 -221 1093 -215 ct 1106 -209 1114 -201 1120 -192 ct 1125 -182 1127 -165 1127 -140 ct 
1127 -72 l  1127 -53 1128 -39 1130 -29 ct 1131 -20 1135 -10 1140 0 ct 1083 0 l 
1081 -4 1079 -10 1077 -17 ct 1076 -21 1075 -23 1075 -24 ct 1065 -14 1054 -7 1043 -2 ct 
1032 3 1020 5 1007 5 ct 984 5 967 -1 954 -13 ct 941 -26 934 -41 934 -60 ct 934 -72 937 -83 943 -93 ct 
949 -103 957 -110 968 -115 ct 979 -120 994 -125 1014 -129 ct 1041 -134 1060 -139 1070 -143 ct 
1070 -149 l  1070 -160 1068 -168 1062 -173 ct 1057 -177 1046 -180 1031 -180 ct 
1021 -180 1013 -178 1007 -174 ct 1001 -170 996 -162 993 -152 ct p
1070 -105 m  1063 -103 1051 -100 1035 -96 ct 1019 -93 1008 -89 1003 -86 ct 996 -81 992 -74 992 -66 ct 
992 -58 995 -51 1001 -45 ct 1007 -39 1015 -36 1024 -36 ct 1035 -36 1045 -39 1054 -46 ct 
1061 -51 1066 -58 1068 -65 ct 1070 -70 1070 -80 1070 -94 ct 1070 -105 l  p ef
1388 0 m  1334 0 l  1334 -32 l  1325 -20 1314 -10 1302 -4 ct 1290 2 1277 5 1265 5 ct 
1240 5 1218 -5 1200 -25 ct 1182 -46 1173 -74 1173 -110 ct 1173 -147 1182 -176 1200 -195 ct 
1217 -214 1239 -224 1266 -224 ct 1290 -224 1312 -214 1330 -193 ct 1330 -302 l 
1388 -302 l  1388 0 l  p
1233 -114 m  1233 -91 1236 -74 1242 -63 ct 1252 -48 1265 -41 1282 -41 ct 1295 -41 1306 -46 1316 -58 ct 
1325 -69 1330 -86 1330 -109 ct 1330 -134 1325 -152 1316 -163 ct 1307 -174 1295 -180 1281 -180 ct 
1267 -180 1256 -174 1247 -163 ct 1237 -152 1233 -136 1233 -114 ct p ef
pom
0.003 0.281 1.000 c 8028 5443 m  6759 5443 l  6759 4427 l  9298 4427 l  9298 5443 l 
8028 5443 l  p ef
0 lw 0.503 0.503 0.503 c 8028 5443 m  6759 5443 l  6759 4427 l  9298 4427 l 
9298 5443 l  8028 5443 l  pc

0.601 0.800 1.000 c 8345 7602 m  6758 7602 l  6758 6315 l  9932 6315 l 
9932 7602 l  8345 7602 l  p ef
0.503 0.503 0.503 c 8345 7602 m  6758 7602 l  6758 6315 l  9932 6315 l 
9932 7602 l  8345 7602 l  pc


pum
7141 4869 t
1.000 1.000 1.000 c 28 0 m  28 -278 l  146 -278 l  176 -278 198 -276 211 -271 ct 
225 -266 235 -257 243 -244 ct 252 -231 256 -216 256 -200 ct 256 -179 249 -162 237 -148 ct 
225 -135 207 -126 182 -123 ct 194 -116 204 -108 212 -99 ct 220 -91 231 -76 244 -54 ct 
278 0 l  211 0 l  171 -60 l  156 -82 146 -96 141 -101 ct 136 -107 130 -111 124 -113 ct 
118 -115 109 -116 96 -116 ct 85 -116 l  85 0 l  28 0 l  p
85 -160 m  126 -160 l  153 -160 170 -162 176 -164 ct 183 -166 188 -170 192 -176 ct 
196 -181 198 -188 198 -196 ct 198 -206 195 -213 190 -219 ct 185 -225 178 -229 169 -230 ct 
165 -231 151 -231 128 -231 ct 85 -231 l  85 -160 l  p ef
423 -64 m  476 -55 l  470 -35 459 -20 444 -10 ct 429 0 411 5 389 5 ct 354 5 328 -6 311 -29 ct 
298 -48 291 -71 291 -99 ct 291 -132 300 -158 317 -177 ct 335 -196 357 -206 384 -206 ct 
414 -206 437 -196 454 -176 ct 472 -156 480 -126 479 -85 ct 346 -85 l  346 -69 351 -57 359 -48 ct 
367 -39 377 -35 389 -35 ct 398 -35 405 -37 410 -42 ct 416 -46 420 -54 423 -64 ct 
p
426 -118 m  426 -133 422 -145 414 -153 ct 407 -161 398 -165 387 -165 ct 375 -165 366 -161 358 -152 ct 
350 -144 347 -132 347 -118 ct 426 -118 l  p ef
518 13 m  579 21 l  580 28 582 33 586 36 ct 591 39 599 41 610 41 ct 624 41 634 39 641 35 ct 
646 32 649 28 651 21 ct 653 17 654 9 654 -3 ct 654 -33 l  638 -11 618 0 594 0 ct 
567 0 545 -11 529 -34 ct 517 -52 511 -75 511 -102 ct 511 -135 519 -161 535 -179 ct 
552 -197 572 -206 596 -206 ct 621 -206 641 -195 657 -173 ct 657 -201 l  707 -201 l 
707 -20 l  707 3 705 21 701 33 ct 697 45 692 54 685 61 ct 678 67 668 73 657 76 ct 
645 80 630 82 612 82 ct 578 82 553 76 539 64 ct 525 53 518 38 518 20 ct 518 18 518 16 518 13 ct 
p
565 -105 m  565 -83 570 -68 578 -58 ct 586 -48 596 -43 608 -43 ct 622 -43 632 -48 641 -58 ct 
650 -68 655 -83 655 -103 ct 655 -124 651 -140 642 -150 ct 633 -160 623 -165 609 -165 ct 
597 -165 586 -160 578 -150 ct 570 -140 565 -125 565 -105 ct p ef
760 -229 m  760 -278 l  813 -278 l  813 -229 l  760 -229 l  p
760 0 m  760 -201 l  813 -201 l  813 0 l  760 0 l  p ef
851 -57 m  905 -65 l  907 -55 911 -47 918 -42 ct 925 -36 935 -34 948 -34 ct 
961 -34 972 -36 979 -41 ct 983 -45 986 -49 986 -55 ct 986 -59 984 -63 982 -65 ct 
979 -68 973 -70 964 -72 ct 921 -82 894 -90 882 -98 ct 866 -109 858 -124 858 -144 ct 
858 -161 865 -176 879 -188 ct 893 -199 914 -205 943 -205 ct 971 -205 991 -201 1005 -192 ct 
1018 -183 1027 -170 1032 -152 ct 982 -143 l  980 -151 976 -157 970 -161 ct 964 -165 955 -167 944 -167 ct 
930 -167 920 -165 914 -161 ct 910 -158 908 -155 908 -150 ct 908 -147 910 -143 913 -141 ct 
918 -137 935 -132 963 -126 ct 991 -119 1011 -111 1022 -102 ct 1033 -93 1039 -79 1039 -62 ct 
1039 -44 1031 -28 1016 -15 ct 1001 -2 978 5 948 5 ct 920 5 898 -1 882 -12 ct 866 -23 856 -38 851 -57 ct 
p ef
1178 -201 m  1178 -159 l  1142 -159 l  1142 -77 l  1142 -61 1142 -51 1143 -49 ct 
1143 -46 1145 -44 1148 -42 ct 1150 -40 1153 -39 1157 -39 ct 1161 -39 1169 -41 1178 -44 ct 
1182 -3 l  1170 2 1156 5 1140 5 ct 1131 5 1122 3 1114 0 ct 1107 -3 1101 -7 1098 -12 ct 
1094 -17 1091 -24 1090 -33 ct 1089 -39 1088 -52 1088 -71 ct 1088 -159 l  1064 -159 l 
1064 -201 l  1088 -201 l  1088 -241 l  1142 -272 l  1142 -201 l  1178 -201 l 
p ef
1334 -64 m  1387 -55 l  1381 -35 1370 -20 1355 -10 ct 1340 0 1322 5 1300 5 ct 
1265 5 1239 -6 1222 -29 ct 1209 -48 1202 -71 1202 -99 ct 1202 -132 1211 -158 1228 -177 ct 
1246 -196 1268 -206 1295 -206 ct 1325 -206 1348 -196 1365 -176 ct 1383 -156 1391 -126 1390 -85 ct 
1257 -85 l  1257 -69 1262 -57 1270 -48 ct 1278 -39 1288 -35 1300 -35 ct 1309 -35 1316 -37 1321 -42 ct 
1327 -46 1331 -54 1334 -64 ct p
1337 -118 m  1337 -133 1333 -145 1325 -153 ct 1318 -161 1309 -165 1298 -165 ct 
1286 -165 1277 -161 1269 -152 ct 1261 -144 1258 -132 1258 -118 ct 1337 -118 l 
p ef
1484 0 m  1431 0 l  1431 -201 l  1480 -201 l  1480 -173 l  1488 -186 1496 -195 1503 -200 ct 
1510 -204 1517 -206 1526 -206 ct 1538 -206 1550 -203 1561 -196 ct 1544 -149 l 
1535 -155 1527 -158 1519 -158 ct 1512 -158 1506 -156 1500 -152 ct 1495 -148 1491 -140 1488 -130 ct 
1485 -119 1484 -96 1484 -62 ct 1484 0 l  p ef
1567 -57 m  1621 -65 l  1623 -55 1627 -47 1634 -42 ct 1641 -36 1651 -34 1664 -34 ct 
1677 -34 1688 -36 1695 -41 ct 1699 -45 1702 -49 1702 -55 ct 1702 -59 1700 -63 1698 -65 ct 
1695 -68 1689 -70 1680 -72 ct 1637 -82 1610 -90 1598 -98 ct 1582 -109 1574 -124 1574 -144 ct 
1574 -161 1581 -176 1595 -188 ct 1609 -199 1630 -205 1659 -205 ct 1687 -205 1707 -201 1721 -192 ct 
1734 -183 1743 -170 1748 -152 ct 1698 -143 l  1696 -151 1692 -157 1686 -161 ct 
1680 -165 1671 -167 1660 -167 ct 1646 -167 1636 -165 1630 -161 ct 1626 -158 1624 -155 1624 -150 ct 
1624 -147 1626 -143 1629 -141 ct 1634 -137 1651 -132 1679 -126 ct 1707 -119 1727 -111 1738 -102 ct 
1749 -93 1755 -79 1755 -62 ct 1755 -44 1747 -28 1732 -15 ct 1717 -2 1694 5 1664 5 ct 
1636 5 1614 -1 1598 -12 ct 1582 -23 1572 -38 1567 -57 ct p ef
pom
pum
7270 5301 t
24 -201 m  73 -201 l  73 -174 l  91 -195 111 -206 136 -206 ct 149 -206 160 -203 169 -198 ct 
179 -193 186 -185 192 -174 ct 201 -185 211 -193 221 -198 ct 231 -203 242 -206 254 -206 ct 
269 -206 281 -203 291 -197 ct 302 -191 309 -182 314 -171 ct 318 -162 320 -148 320 -129 ct 
320 0 l  267 0 l  267 -115 l  267 -135 265 -148 261 -154 ct 256 -161 249 -165 238 -165 ct 
231 -165 224 -163 217 -158 ct 211 -154 206 -147 203 -138 ct 200 -130 199 -116 199 -97 ct 
199 0 l  146 0 l  146 -110 l  146 -130 145 -143 143 -148 ct 141 -154 138 -158 134 -161 ct 
130 -164 124 -165 118 -165 ct 109 -165 102 -163 95 -159 ct 89 -154 84 -148 81 -139 ct 
79 -131 77 -117 77 -98 ct 77 0 l  24 0 l  24 -201 l  p ef
491 -64 m  544 -55 l  538 -35 527 -20 512 -10 ct 497 0 479 5 457 5 ct 422 5 396 -6 379 -29 ct 
366 -48 359 -71 359 -99 ct 359 -132 368 -158 385 -177 ct 403 -196 425 -206 452 -206 ct 
482 -206 505 -196 522 -176 ct 540 -156 548 -126 547 -85 ct 414 -85 l  414 -69 419 -57 427 -48 ct 
435 -39 445 -35 457 -35 ct 466 -35 473 -37 478 -42 ct 484 -46 488 -54 491 -64 ct 
p
494 -118 m  494 -133 490 -145 482 -153 ct 475 -161 466 -165 455 -165 ct 443 -165 434 -161 426 -152 ct 
418 -144 415 -132 415 -118 ct 494 -118 l  p ef
587 -201 m  636 -201 l  636 -174 l  654 -195 674 -206 699 -206 ct 712 -206 723 -203 732 -198 ct 
742 -193 749 -185 755 -174 ct 764 -185 774 -193 784 -198 ct 794 -203 805 -206 817 -206 ct 
832 -206 844 -203 854 -197 ct 865 -191 872 -182 877 -171 ct 881 -162 883 -148 883 -129 ct 
883 0 l  830 0 l  830 -115 l  830 -135 828 -148 824 -154 ct 819 -161 812 -165 801 -165 ct 
794 -165 787 -163 780 -158 ct 774 -154 769 -147 766 -138 ct 763 -130 762 -116 762 -97 ct 
762 0 l  709 0 l  709 -110 l  709 -130 708 -143 706 -148 ct 704 -154 701 -158 697 -161 ct 
693 -164 687 -165 681 -165 ct 672 -165 665 -163 658 -159 ct 652 -154 647 -148 644 -139 ct 
642 -131 640 -117 640 -98 ct 640 0 l  587 0 l  587 -201 l  p ef
926 -103 m  926 -121 930 -138 939 -154 ct 947 -171 960 -184 976 -192 ct 992 -201 1009 -205 1029 -205 ct 
1060 -205 1085 -196 1104 -176 ct 1123 -156 1133 -131 1133 -101 ct 1133 -70 1123 -45 1104 -25 ct 
1084 -5 1059 5 1030 5 ct 1011 5 994 1 977 -8 ct 960 -16 947 -28 939 -44 ct 930 -60 926 -80 926 -103 ct 
p
980 -100 m  980 -80 985 -65 994 -54 ct 1004 -44 1015 -38 1029 -38 ct 1043 -38 1055 -44 1064 -54 ct 
1074 -65 1078 -80 1078 -101 ct 1078 -120 1074 -135 1064 -146 ct 1055 -157 1043 -162 1029 -162 ct 
1015 -162 1004 -157 994 -146 ct 985 -135 980 -120 980 -100 ct p ef
1226 0 m  1173 0 l  1173 -201 l  1222 -201 l  1222 -173 l  1230 -186 1238 -195 1245 -200 ct 
1252 -204 1259 -206 1268 -206 ct 1280 -206 1292 -203 1303 -196 ct 1286 -149 l 
1277 -155 1269 -158 1261 -158 ct 1254 -158 1248 -156 1242 -152 ct 1237 -148 1233 -140 1230 -130 ct 
1227 -119 1226 -96 1226 -62 ct 1226 0 l  p ef
1303 -201 m  1359 -201 l  1407 -58 l  1454 -201 l  1510 -201 l  1438 -7 l 
1426 28 l  1421 40 1417 49 1412 55 ct 1408 61 1403 66 1398 70 ct 1392 74 1386 77 1378 79 ct 
1370 81 1361 82 1350 82 ct 1340 82 1330 81 1320 79 ct 1316 37 l  1324 39 1331 40 1338 40 ct 
1350 40 1360 36 1366 29 ct 1371 21 1376 12 1379 1 ct 1303 -201 l  p ef
pom
52 lw 0.003 0.003 0.003 c 8029 6015 m  8029 5763 l  ps
8028 6269 m  8117 6002 l  7939 6002 l  8028 6269 l  p ef
8028 5507 m  7939 5774 l  8117 5774 l  8028 5507 l  p ef
9616 6015 m  9616 4529 l  ps
9615 6269 m  9704 6002 l  9526 6002 l  9615 6269 l  p ef
9615 4274 m  9526 4540 l  9704 4540 l  9615 4274 l  p ef

pum
3409 3170 t
0.316 0.316 0.316 c 36 -354 m  178 -354 l  206 -354 226 -353 240 -350 ct 254 -348 266 -343 277 -336 ct 
288 -328 297 -318 304 -306 ct 311 -294 315 -280 315 -265 ct 315 -248 311 -233 302 -219 ct 
293 -205 281 -195 265 -188 ct 287 -182 303 -171 315 -156 ct 327 -141 332 -123 332 -102 ct 
332 -86 329 -70 321 -55 ct 314 -40 303 -28 291 -19 ct 278 -10 262 -4 243 -2 ct 
231 -1 202 0 157 0 ct 36 0 l  36 -354 l  p
108 -295 m  108 -213 l  154 -213 l  182 -213 199 -213 206 -214 ct 218 -216 228 -220 235 -227 ct 
242 -234 246 -243 246 -255 ct 246 -266 243 -274 237 -281 ct 230 -288 222 -292 210 -294 ct 
203 -295 182 -295 149 -295 ct 108 -295 l  p
108 -154 m  108 -59 l  174 -59 l  199 -59 216 -60 223 -62 ct 233 -63 242 -68 249 -76 ct 
255 -83 259 -93 259 -106 ct 259 -116 256 -125 251 -133 ct 246 -140 238 -146 229 -149 ct 
219 -152 198 -154 165 -154 ct 108 -154 l  p ef
395 0 m  395 -354 l  463 -354 l  463 0 l  395 0 l  p ef
520 -132 m  520 -154 525 -176 536 -197 ct 548 -218 563 -234 584 -245 ct 604 -256 627 -262 652 -262 ct 
690 -262 722 -249 747 -224 ct 772 -199 784 -167 784 -129 ct 784 -90 772 -58 747 -32 ct 
722 -7 690 6 652 6 ct 629 6 606 1 585 -10 ct 564 -21 548 -36 536 -57 ct 525 -77 520 -102 520 -132 ct 
p
589 -128 m  589 -103 595 -83 607 -70 ct 619 -56 634 -49 652 -49 ct 670 -49 684 -56 696 -70 ct 
708 -83 714 -103 714 -129 ct 714 -154 708 -173 696 -186 ct 684 -200 670 -207 652 -207 ct 
634 -207 619 -200 607 -186 ct 595 -173 589 -153 589 -128 ct p ef
1059 -180 m  992 -168 l  990 -182 985 -192 977 -199 ct 969 -205 958 -209 946 -209 ct 
929 -209 915 -203 905 -191 ct 895 -180 890 -160 890 -133 ct 890 -102 895 -81 906 -68 ct 
916 -56 929 -49 947 -49 ct 960 -49 970 -53 978 -60 ct 986 -68 992 -80 996 -98 ct 
1062 -87 l  1055 -56 1042 -33 1022 -17 ct 1003 -2 976 6 944 6 ct 906 6 876 -6 854 -29 ct 
832 -53 821 -86 821 -128 ct 821 -170 832 -203 854 -227 ct 876 -250 907 -262 945 -262 ct 
976 -262 1001 -255 1019 -242 ct 1038 -228 1051 -208 1059 -180 ct p ef
1108 0 m  1108 -354 l  1176 -354 l  1176 -166 l  1255 -256 l  1339 -256 l 
1251 -163 l  1345 0 l  1272 0 l  1207 -115 l  1176 -82 l  1176 0 l  1108 0 l 
p ef
pom
0.812 0.906 0.960 c 13778 7919 m  10313 7919 l  10313 2523 l  17242 2523 l 
17242 7919 l  13778 7919 l  p ef
0 lw 0.503 0.503 0.503 c 13778 7919 m  10313 7919 l  10313 2523 l  17242 2523 l 
17242 7919 l  13778 7919 l  pc

0.003 0.281 1.000 c 13755 4175 m  10458 4175 l  10458 3477 l  17051 3477 l 
17051 4175 l  13755 4175 l  p ef
0.503 0.503 0.503 c 13755 4175 m  10458 4175 l  10458 3477 l  17051 3477 l 
17051 4175 l  13755 4175 l  pc

0.003 0.281 1.000 c 11728 5444 m  10458 5444 l  10458 4428 l  12998 4428 l 
12998 5444 l  11728 5444 l  p ef
0.503 0.503 0.503 c 11728 5444 m  10458 5444 l  10458 4428 l  12998 4428 l 
12998 5444 l  11728 5444 l  pc

0.601 0.800 1.000 c 12045 7602 m  10457 7602 l  10457 6315 l  13632 6315 l 
13632 7602 l  12045 7602 l  p ef
0.503 0.503 0.503 c 12045 7602 m  10457 7602 l  10457 6315 l  13632 6315 l 
13632 7602 l  12045 7602 l  pc


pum
10841 4870 t
1.000 1.000 1.000 c 28 0 m  28 -278 l  146 -278 l  176 -278 198 -276 211 -271 ct 
225 -266 235 -257 243 -244 ct 252 -231 256 -216 256 -200 ct 256 -179 249 -162 237 -148 ct 
225 -135 207 -126 182 -123 ct 194 -116 204 -108 212 -99 ct 220 -91 231 -76 244 -54 ct 
278 0 l  211 0 l  171 -60 l  156 -82 146 -96 141 -101 ct 136 -107 130 -111 124 -113 ct 
118 -115 109 -116 96 -116 ct 85 -116 l  85 0 l  28 0 l  p
85 -160 m  126 -160 l  153 -160 170 -162 176 -164 ct 183 -166 188 -170 192 -176 ct 
196 -181 198 -188 198 -196 ct 198 -206 195 -213 190 -219 ct 185 -225 178 -229 169 -230 ct 
165 -231 151 -231 128 -231 ct 85 -231 l  85 -160 l  p ef
423 -64 m  476 -55 l  470 -35 459 -20 444 -10 ct 429 0 411 5 389 5 ct 354 5 328 -6 311 -29 ct 
298 -48 291 -71 291 -99 ct 291 -132 300 -158 317 -177 ct 335 -196 357 -206 384 -206 ct 
414 -206 437 -196 454 -176 ct 472 -156 480 -126 479 -85 ct 346 -85 l  346 -69 351 -57 359 -48 ct 
367 -39 377 -35 389 -35 ct 398 -35 405 -37 410 -42 ct 416 -46 420 -54 423 -64 ct 
p
426 -118 m  426 -133 422 -145 414 -153 ct 407 -161 398 -165 387 -165 ct 375 -165 366 -161 358 -152 ct 
350 -144 347 -132 347 -118 ct 426 -118 l  p ef
518 13 m  579 21 l  580 28 582 33 586 36 ct 591 39 599 41 610 41 ct 624 41 634 39 641 35 ct 
646 32 649 28 651 21 ct 653 17 654 9 654 -3 ct 654 -33 l  638 -11 618 0 594 0 ct 
567 0 545 -11 529 -34 ct 517 -52 511 -75 511 -102 ct 511 -135 519 -161 535 -179 ct 
552 -197 572 -206 596 -206 ct 621 -206 641 -195 657 -173 ct 657 -201 l  707 -201 l 
707 -20 l  707 3 705 21 701 33 ct 697 45 692 54 685 61 ct 678 67 668 73 657 76 ct 
645 80 630 82 612 82 ct 578 82 553 76 539 64 ct 525 53 518 38 518 20 ct 518 18 518 16 518 13 ct 
p
565 -105 m  565 -83 570 -68 578 -58 ct 586 -48 596 -43 608 -43 ct 622 -43 632 -48 641 -58 ct 
650 -68 655 -83 655 -103 ct 655 -124 651 -140 642 -150 ct 633 -160 623 -165 609 -165 ct 
597 -165 586 -160 578 -150 ct 570 -140 565 -125 565 -105 ct p ef
760 -229 m  760 -278 l  813 -278 l  813 -229 l  760 -229 l  p
760 0 m  760 -201 l  813 -201 l  813 0 l  760 0 l  p ef
851 -57 m  905 -65 l  907 -55 911 -47 918 -42 ct 925 -36 935 -34 948 -34 ct 
961 -34 972 -36 979 -41 ct 983 -45 986 -49 986 -55 ct 986 -59 984 -63 982 -65 ct 
979 -68 973 -70 964 -72 ct 921 -82 894 -90 882 -98 ct 866 -109 858 -124 858 -144 ct 
858 -161 865 -176 879 -188 ct 893 -199 914 -205 943 -205 ct 971 -205 991 -201 1005 -192 ct 
1018 -183 1027 -170 1032 -152 ct 982 -143 l  980 -151 976 -157 970 -161 ct 964 -165 955 -167 944 -167 ct 
930 -167 920 -165 914 -161 ct 910 -158 908 -155 908 -150 ct 908 -147 910 -143 913 -141 ct 
918 -137 935 -132 963 -126 ct 991 -119 1011 -111 1022 -102 ct 1033 -93 1039 -79 1039 -62 ct 
1039 -44 1031 -28 1016 -15 ct 1001 -2 978 5 948 5 ct 920 5 898 -1 882 -12 ct 866 -23 856 -38 851 -57 ct 
p ef
1178 -201 m  1178 -159 l  1142 -159 l  1142 -77 l  1142 -61 1142 -51 1143 -49 ct 
1143 -46 1145 -44 1148 -42 ct 1150 -40 1153 -39 1157 -39 ct 1161 -39 1169 -41 1178 -44 ct 
1182 -3 l  1170 2 1156 5 1140 5 ct 1131 5 1122 3 1114 0 ct 1107 -3 1101 -7 1098 -12 ct 
1094 -17 1091 -24 1090 -33 ct 1089 -39 1088 -52 1088 -71 ct 1088 -159 l  1064 -159 l 
1064 -201 l  1088 -201 l  1088 -241 l  1142 -272 l  1142 -201 l  1178 -201 l 
p ef
1334 -64 m  1387 -55 l  1381 -35 1370 -20 1355 -10 ct 1340 0 1322 5 1300 5 ct 
1265 5 1239 -6 1222 -29 ct 1209 -48 1202 -71 1202 -99 ct 1202 -132 1211 -158 1228 -177 ct 
1246 -196 1268 -206 1295 -206 ct 1325 -206 1348 -196 1365 -176 ct 1383 -156 1391 -126 1390 -85 ct 
1257 -85 l  1257 -69 1262 -57 1270 -48 ct 1278 -39 1288 -35 1300 -35 ct 1309 -35 1316 -37 1321 -42 ct 
1327 -46 1331 -54 1334 -64 ct p
1337 -118 m  1337 -133 1333 -145 1325 -153 ct 1318 -161 1309 -165 1298 -165 ct 
1286 -165 1277 -161 1269 -152 ct 1261 -144 1258 -132 1258 -118 ct 1337 -118 l 
p ef
1484 0 m  1431 0 l  1431 -201 l  1480 -201 l  1480 -173 l  1488 -186 1496 -195 1503 -200 ct 
1510 -204 1517 -206 1526 -206 ct 1538 -206 1550 -203 1561 -196 ct 1544 -149 l 
1535 -155 1527 -158 1519 -158 ct 1512 -158 1506 -156 1500 -152 ct 1495 -148 1491 -140 1488 -130 ct 
1485 -119 1484 -96 1484 -62 ct 1484 0 l  p ef
1567 -57 m  1621 -65 l  1623 -55 1627 -47 1634 -42 ct 1641 -36 1651 -34 1664 -34 ct 
1677 -34 1688 -36 1695 -41 ct 1699 -45 1702 -49 1702 -55 ct 1702 -59 1700 -63 1698 -65 ct 
1695 -68 1689 -70 1680 -72 ct 1637 -82 1610 -90 1598 -98 ct 1582 -109 1574 -124 1574 -144 ct 
1574 -161 1581 -176 1595 -188 ct 1609 -199 1630 -205 1659 -205 ct 1687 -205 1707 -201 1721 -192 ct 
1734 -183 1743 -170 1748 -152 ct 1698 -143 l  1696 -151 1692 -157 1686 -161 ct 
1680 -165 1671 -167 1660 -167 ct 1646 -167 1636 -165 1630 -161 ct 1626 -158 1624 -155 1624 -150 ct 
1624 -147 1626 -143 1629 -141 ct 1634 -137 1651 -132 1679 -126 ct 1707 -119 1727 -111 1738 -102 ct 
1749 -93 1755 -79 1755 -62 ct 1755 -44 1747 -28 1732 -15 ct 1717 -2 1694 5 1664 5 ct 
1636 5 1614 -1 1598 -12 ct 1582 -23 1572 -38 1567 -57 ct p ef
pom
pum
10970 5302 t
24 -201 m  73 -201 l  73 -174 l  91 -195 111 -206 136 -206 ct 149 -206 160 -203 169 -198 ct 
179 -193 186 -185 192 -174 ct 201 -185 211 -193 221 -198 ct 231 -203 242 -206 254 -206 ct 
269 -206 281 -203 291 -197 ct 302 -191 309 -182 314 -171 ct 318 -162 320 -148 320 -129 ct 
320 0 l  267 0 l  267 -115 l  267 -135 265 -148 261 -154 ct 256 -161 249 -165 238 -165 ct 
231 -165 224 -163 217 -158 ct 211 -154 206 -147 203 -138 ct 200 -130 199 -116 199 -97 ct 
199 0 l  146 0 l  146 -110 l  146 -130 145 -143 143 -148 ct 141 -154 138 -158 134 -161 ct 
130 -164 124 -165 118 -165 ct 109 -165 102 -163 95 -159 ct 89 -154 84 -148 81 -139 ct 
79 -131 77 -117 77 -98 ct 77 0 l  24 0 l  24 -201 l  p ef
491 -64 m  544 -55 l  538 -35 527 -20 512 -10 ct 497 0 479 5 457 5 ct 422 5 396 -6 379 -29 ct 
366 -48 359 -71 359 -99 ct 359 -132 368 -158 385 -177 ct 403 -196 425 -206 452 -206 ct 
482 -206 505 -196 522 -176 ct 540 -156 548 -126 547 -85 ct 414 -85 l  414 -69 419 -57 427 -48 ct 
435 -39 445 -35 457 -35 ct 466 -35 473 -37 478 -42 ct 484 -46 488 -54 491 -64 ct 
p
494 -118 m  494 -133 490 -145 482 -153 ct 475 -161 466 -165 455 -165 ct 443 -165 434 -161 426 -152 ct 
418 -144 415 -132 415 -118 ct 494 -118 l  p ef
587 -201 m  636 -201 l  636 -174 l  654 -195 674 -206 699 -206 ct 712 -206 723 -203 732 -198 ct 
742 -193 749 -185 755 -174 ct 764 -185 774 -193 784 -198 ct 794 -203 805 -206 817 -206 ct 
832 -206 844 -203 854 -197 ct 865 -191 872 -182 877 -171 ct 881 -162 883 -148 883 -129 ct 
883 0 l  830 0 l  830 -115 l  830 -135 828 -148 824 -154 ct 819 -161 812 -165 801 -165 ct 
794 -165 787 -163 780 -158 ct 774 -154 769 -147 766 -138 ct 763 -130 762 -116 762 -97 ct 
762 0 l  709 0 l  709 -110 l  709 -130 708 -143 706 -148 ct 704 -154 701 -158 697 -161 ct 
693 -164 687 -165 681 -165 ct 672 -165 665 -163 658 -159 ct 652 -154 647 -148 644 -139 ct 
642 -131 640 -117 640 -98 ct 640 0 l  587 0 l  587 -201 l  p ef
926 -103 m  926 -121 930 -138 939 -154 ct 947 -171 960 -184 976 -192 ct 992 -201 1009 -205 1029 -205 ct 
1060 -205 1085 -196 1104 -176 ct 1123 -156 1133 -131 1133 -101 ct 1133 -70 1123 -45 1104 -25 ct 
1084 -5 1059 5 1030 5 ct 1011 5 994 1 977 -8 ct 960 -16 947 -28 939 -44 ct 930 -60 926 -80 926 -103 ct 
p
980 -100 m  980 -80 985 -65 994 -54 ct 1004 -44 1015 -38 1029 -38 ct 1043 -38 1055 -44 1064 -54 ct 
1074 -65 1078 -80 1078 -101 ct 1078 -120 1074 -135 1064 -146 ct 1055 -157 1043 -162 1029 -162 ct 
1015 -162 1004 -157 994 -146 ct 985 -135 980 -120 980 -100 ct p ef
1226 0 m  1173 0 l  1173 -201 l  1222 -201 l  1222 -173 l  1230 -186 1238 -195 1245 -200 ct 
1252 -204 1259 -206 1268 -206 ct 1280 -206 1292 -203 1303 -196 ct 1286 -149 l 
1277 -155 1269 -158 1261 -158 ct 1254 -158 1248 -156 1242 -152 ct 1237 -148 1233 -140 1230 -130 ct 
1227 -119 1226 -96 1226 -62 ct 1226 0 l  p ef
1303 -201 m  1359 -201 l  1407 -58 l  1454 -201 l  1510 -201 l  1438 -7 l 
1426 28 l  1421 40 1417 49 1412 55 ct 1408 61 1403 66 1398 70 ct 1392 74 1386 77 1378 79 ct 
1370 81 1361 82 1350 82 ct 1340 82 1330 81 1320 79 ct 1316 37 l  1324 39 1331 40 1338 40 ct 
1350 40 1360 36 1366 29 ct 1371 21 1376 12 1379 1 ct 1303 -201 l  p ef
pom

pum
12150 3987 t
15 -99 m  75 -105 l  78 -85 86 -70 97 -61 ct 108 -51 122 -47 141 -47 ct 161 -47 175 -51 185 -59 ct 
195 -67 200 -77 200 -88 ct 200 -95 198 -101 194 -107 ct 190 -112 183 -116 172 -120 ct 
165 -122 149 -126 123 -133 ct 90 -141 67 -151 54 -163 ct 36 -179 26 -200 26 -224 ct 
26 -239 31 -253 39 -267 ct 48 -280 61 -290 77 -297 ct 94 -304 113 -308 137 -308 ct 
175 -308 203 -300 223 -283 ct 242 -266 252 -243 253 -215 ct 192 -215 l  189 -230 183 -241 175 -248 ct 
166 -254 153 -257 136 -257 ct 118 -257 104 -254 94 -247 ct 88 -242 85 -236 85 -228 ct 
85 -221 88 -214 94 -209 ct 101 -203 120 -196 150 -189 ct 180 -182 202 -175 216 -167 ct 
230 -160 241 -150 249 -137 ct 257 -124 261 -108 261 -88 ct 261 -71 257 -55 247 -40 ct 
237 -25 224 -13 206 -6 ct 189 1 167 5 140 5 ct 102 5 73 -4 52 -22 ct 32 -39 19 -65 15 -99 ct 
p ef
372 -302 m  372 -191 l  391 -213 413 -224 439 -224 ct 453 -224 465 -222 475 -217 ct 
486 -212 494 -205 500 -198 ct 505 -190 509 -181 511 -172 ct 513 -163 514 -148 514 -129 ct 
514 0 l  456 0 l  456 -116 l  456 -139 455 -153 453 -159 ct 450 -166 446 -171 441 -174 ct 
435 -178 428 -180 420 -180 ct 410 -180 402 -177 394 -173 ct 387 -168 381 -161 377 -151 ct 
374 -142 372 -128 372 -110 ct 372 0 l  314 0 l  314 -302 l  372 -302 l  p ef
616 -152 m  563 -162 l  569 -183 579 -199 594 -209 ct 608 -219 630 -224 658 -224 ct 
684 -224 703 -221 716 -215 ct 729 -209 737 -201 743 -192 ct 748 -182 750 -165 750 -140 ct 
750 -72 l  750 -53 751 -39 753 -29 ct 754 -20 758 -10 763 0 ct 706 0 l  704 -4 702 -10 700 -17 ct 
699 -21 698 -23 698 -24 ct 688 -14 677 -7 666 -2 ct 655 3 643 5 630 5 ct 607 5 590 -1 577 -13 ct 
564 -26 557 -41 557 -60 ct 557 -72 560 -83 566 -93 ct 572 -103 580 -110 591 -115 ct 
602 -120 617 -125 637 -129 ct 664 -134 683 -139 693 -143 ct 693 -149 l  693 -160 691 -168 685 -173 ct 
680 -177 669 -180 654 -180 ct 644 -180 636 -178 630 -174 ct 624 -170 619 -162 616 -152 ct 
p
693 -105 m  686 -103 674 -100 658 -96 ct 642 -93 631 -89 626 -86 ct 619 -81 615 -74 615 -66 ct 
615 -58 618 -51 624 -45 ct 630 -39 638 -36 647 -36 ct 658 -36 668 -39 677 -46 ct 
684 -51 689 -58 691 -65 ct 693 -70 693 -80 693 -94 ct 693 -105 l  p ef
865 0 m  807 0 l  807 -219 l  861 -219 l  861 -188 l  870 -203 878 -212 886 -217 ct 
893 -222 901 -224 911 -224 ct 924 -224 937 -220 949 -213 ct 931 -163 l  921 -169 912 -172 904 -172 ct 
896 -172 889 -170 883 -165 ct 877 -161 873 -153 870 -141 ct 867 -129 865 -105 865 -68 ct 
865 0 l  p ef
1101 -70 m  1159 -60 l  1152 -39 1140 -23 1124 -12 ct 1108 -1 1088 5 1064 5 ct 
1026 5 997 -7 979 -32 ct 965 -52 957 -77 957 -108 ct 957 -144 967 -173 986 -193 ct 
1005 -214 1029 -224 1058 -224 ct 1091 -224 1116 -213 1135 -192 ct 1154 -170 1163 -137 1162 -93 ct 
1017 -93 l  1017 -76 1022 -62 1031 -53 ct 1040 -43 1051 -38 1064 -38 ct 1074 -38 1081 -41 1087 -46 ct 
1094 -51 1098 -59 1101 -70 ct p
1105 -128 m  1104 -145 1100 -158 1092 -167 ct 1083 -175 1073 -180 1062 -180 ct 
1049 -180 1038 -175 1030 -166 ct 1022 -157 1018 -144 1018 -128 ct 1105 -128 l 
p ef
1413 0 m  1359 0 l  1359 -32 l  1350 -20 1339 -10 1327 -4 ct 1315 2 1302 5 1290 5 ct 
1265 5 1243 -5 1225 -25 ct 1207 -46 1198 -74 1198 -110 ct 1198 -147 1207 -176 1225 -195 ct 
1242 -214 1264 -224 1291 -224 ct 1315 -224 1337 -214 1355 -193 ct 1355 -302 l 
1413 -302 l  1413 0 l  p
1258 -114 m  1258 -91 1261 -74 1267 -63 ct 1277 -48 1290 -41 1307 -41 ct 1320 -41 1331 -46 1341 -58 ct 
1350 -69 1355 -86 1355 -109 ct 1355 -134 1350 -152 1341 -163 ct 1332 -174 1320 -180 1306 -180 ct 
1292 -180 1281 -174 1272 -163 ct 1262 -152 1258 -136 1258 -114 ct p ef
1584 -219 m  1638 -219 l  1638 -189 l  1657 -212 1679 -224 1706 -224 ct 1720 -224 1732 -221 1742 -215 ct 
1753 -210 1761 -201 1768 -189 ct 1777 -201 1788 -210 1799 -215 ct 1810 -221 1822 -224 1835 -224 ct 
1851 -224 1865 -221 1876 -214 ct 1887 -208 1895 -198 1901 -185 ct 1905 -176 1907 -161 1907 -140 ct 
1907 0 l  1849 0 l  1849 -125 l  1849 -147 1847 -161 1843 -167 ct 1837 -176 1829 -180 1818 -180 ct 
1810 -180 1802 -177 1795 -172 ct 1788 -167 1783 -160 1779 -150 ct 1776 -141 1775 -126 1775 -105 ct 
1775 0 l  1717 0 l  1717 -120 l  1717 -141 1716 -155 1714 -161 ct 1711 -167 1708 -172 1704 -175 ct 
1700 -178 1694 -180 1686 -180 ct 1677 -180 1669 -177 1662 -172 ct 1655 -168 1650 -161 1647 -152 ct 
1644 -143 1642 -127 1642 -106 ct 1642 0 l  1584 0 l  1584 -219 l  p ef
2092 -70 m  2150 -60 l  2143 -39 2131 -23 2115 -12 ct 2099 -1 2079 5 2055 5 ct 
2017 5 1988 -7 1970 -32 ct 1956 -52 1948 -77 1948 -108 ct 1948 -144 1958 -173 1977 -193 ct 
1996 -214 2020 -224 2049 -224 ct 2082 -224 2107 -213 2126 -192 ct 2145 -170 2154 -137 2153 -93 ct 
2008 -93 l  2008 -76 2013 -62 2022 -53 ct 2031 -43 2042 -38 2055 -38 ct 2065 -38 2072 -41 2078 -46 ct 
2085 -51 2089 -59 2092 -70 ct p
2096 -128 m  2095 -145 2091 -158 2083 -167 ct 2074 -175 2064 -180 2053 -180 ct 
2040 -180 2029 -175 2021 -166 ct 2013 -157 2009 -144 2009 -128 ct 2096 -128 l 
p ef
2198 -219 m  2252 -219 l  2252 -189 l  2271 -212 2293 -224 2320 -224 ct 2334 -224 2346 -221 2356 -215 ct 
2367 -210 2375 -201 2382 -189 ct 2391 -201 2402 -210 2413 -215 ct 2424 -221 2436 -224 2449 -224 ct 
2465 -224 2479 -221 2490 -214 ct 2501 -208 2509 -198 2515 -185 ct 2519 -176 2521 -161 2521 -140 ct 
2521 0 l  2463 0 l  2463 -125 l  2463 -147 2461 -161 2457 -167 ct 2451 -176 2443 -180 2432 -180 ct 
2424 -180 2416 -177 2409 -172 ct 2402 -167 2397 -160 2393 -150 ct 2390 -141 2389 -126 2389 -105 ct 
2389 0 l  2331 0 l  2331 -120 l  2331 -141 2330 -155 2328 -161 ct 2325 -167 2322 -172 2318 -175 ct 
2314 -178 2308 -180 2300 -180 ct 2291 -180 2283 -177 2276 -172 ct 2269 -168 2264 -161 2261 -152 ct 
2258 -143 2256 -127 2256 -106 ct 2256 0 l  2198 0 l  2198 -219 l  p ef
2565 -113 m  2565 -132 2570 -150 2579 -169 ct 2589 -187 2602 -200 2620 -210 ct 
2637 -219 2656 -224 2678 -224 ct 2711 -224 2738 -213 2760 -192 ct 2781 -170 2791 -143 2791 -110 ct 
2791 -77 2781 -50 2759 -28 ct 2738 -6 2711 5 2678 5 ct 2658 5 2639 0 2621 -9 ct 
2603 -18 2589 -31 2579 -49 ct 2570 -66 2565 -87 2565 -113 ct p
2624 -109 m  2624 -88 2630 -71 2640 -60 ct 2650 -48 2663 -42 2678 -42 ct 2693 -42 2706 -48 2716 -60 ct 
2726 -71 2732 -88 2732 -110 ct 2732 -131 2726 -148 2716 -159 ct 2706 -171 2693 -177 2678 -177 ct 
2663 -177 2650 -171 2640 -159 ct 2630 -148 2624 -131 2624 -109 ct p ef
2893 0 m  2835 0 l  2835 -219 l  2889 -219 l  2889 -188 l  2898 -203 2906 -212 2914 -217 ct 
2921 -222 2929 -224 2939 -224 ct 2952 -224 2965 -220 2977 -213 ct 2959 -163 l 
2949 -169 2940 -172 2932 -172 ct 2924 -172 2917 -170 2911 -165 ct 2905 -161 2901 -153 2898 -141 ct 
2895 -129 2893 -105 2893 -68 ct 2893 0 l  p ef
2975 -219 m  3037 -219 l  3089 -63 l  3140 -219 l  3200 -219 l  3123 -8 l 
3109 30 l  3104 43 3099 53 3095 59 ct 3090 66 3085 71 3079 76 ct 3073 80 3065 83 3057 86 ct 
3048 88 3038 89 3027 89 ct 3016 89 3005 88 2994 86 ct 2989 40 l  2998 42 3006 43 3014 43 ct 
3027 43 3037 39 3043 31 ct 3050 23 3055 13 3058 1 ct 2975 -219 l  p ef
pom
52 lw 0.003 0.003 0.003 c 11728 6016 m  11728 5764 l  ps
11728 6270 m  11817 6003 l  11639 6003 l  11728 6270 l  p ef
11728 5508 m  11639 5775 l  11817 5775 l  11728 5508 l  p ef
13315 6016 m  13315 4530 l  ps
13315 6270 m  13404 6003 l  13226 6003 l  13315 6270 l  p ef
13315 4275 m  13226 4541 l  13404 4541 l  13315 4275 l  p ef

pum
11337 7098 t
0.316 0.316 0.316 c 99 0 m  99 -251 l  9 -251 l  9 -302 l  250 -302 l  250 -251 l 
160 -251 l  160 0 l  99 0 l  p ef
346 -302 m  346 -191 l  365 -213 387 -224 413 -224 ct 427 -224 439 -222 449 -217 ct 
460 -212 468 -205 474 -198 ct 479 -190 483 -181 485 -172 ct 487 -163 488 -148 488 -129 ct 
488 0 l  430 0 l  430 -116 l  430 -139 429 -153 427 -159 ct 424 -166 420 -171 415 -174 ct 
409 -178 402 -180 394 -180 ct 384 -180 376 -177 368 -173 ct 361 -168 355 -161 351 -151 ct 
348 -142 346 -128 346 -110 ct 346 0 l  288 0 l  288 -302 l  346 -302 l  p ef
602 0 m  544 0 l  544 -219 l  598 -219 l  598 -188 l  607 -203 615 -212 623 -217 ct 
630 -222 638 -224 648 -224 ct 661 -224 674 -220 686 -213 ct 668 -163 l  658 -169 649 -172 641 -172 ct 
633 -172 626 -170 620 -165 ct 614 -161 610 -153 607 -141 ct 604 -129 602 -105 602 -68 ct 
602 0 l  p ef
839 -70 m  897 -60 l  890 -39 878 -23 862 -12 ct 846 -1 826 5 802 5 ct 764 5 735 -7 717 -32 ct 
703 -52 695 -77 695 -108 ct 695 -144 705 -173 724 -193 ct 743 -214 767 -224 796 -224 ct 
829 -224 854 -213 873 -192 ct 892 -170 901 -137 900 -93 ct 755 -93 l  755 -76 760 -62 769 -53 ct 
778 -43 789 -38 802 -38 ct 812 -38 819 -41 825 -46 ct 832 -51 836 -59 839 -70 ct 
p
843 -128 m  842 -145 838 -158 830 -167 ct 821 -175 811 -180 800 -180 ct 787 -180 776 -175 768 -166 ct 
760 -157 756 -144 756 -128 ct 843 -128 l  p ef
993 -152 m  940 -162 l  946 -183 956 -199 971 -209 ct 985 -219 1007 -224 1035 -224 ct 
1061 -224 1080 -221 1093 -215 ct 1106 -209 1114 -201 1120 -192 ct 1125 -182 1127 -165 1127 -140 ct 
1127 -72 l  1127 -53 1128 -39 1130 -29 ct 1131 -20 1135 -10 1140 0 ct 1083 0 l 
1081 -4 1079 -10 1077 -17 ct 1076 -21 1075 -23 1075 -24 ct 1065 -14 1054 -7 1043 -2 ct 
1032 3 1020 5 1007 5 ct 984 5 967 -1 954 -13 ct 941 -26 934 -41 934 -60 ct 934 -72 937 -83 943 -93 ct 
949 -103 957 -110 968 -115 ct 979 -120 994 -125 1014 -129 ct 1041 -134 1060 -139 1070 -143 ct 
1070 -149 l  1070 -160 1068 -168 1062 -173 ct 1057 -177 1046 -180 1031 -180 ct 
1021 -180 1013 -178 1007 -174 ct 1001 -170 996 -162 993 -152 ct p
1070 -105 m  1063 -103 1051 -100 1035 -96 ct 1019 -93 1008 -89 1003 -86 ct 996 -81 992 -74 992 -66 ct 
992 -58 995 -51 1001 -45 ct 1007 -39 1015 -36 1024 -36 ct 1035 -36 1045 -39 1054 -46 ct 
1061 -51 1066 -58 1068 -65 ct 1070 -70 1070 -80 1070 -94 ct 1070 -105 l  p ef
1388 0 m  1334 0 l  1334 -32 l  1325 -20 1314 -10 1302 -4 ct 1290 2 1277 5 1265 5 ct 
1240 5 1218 -5 1200 -25 ct 1182 -46 1173 -74 1173 -110 ct 1173 -147 1182 -176 1200 -195 ct 
1217 -214 1239 -224 1266 -224 ct 1290 -224 1312 -214 1330 -193 ct 1330 -302 l 
1388 -302 l  1388 0 l  p
1233 -114 m  1233 -91 1236 -74 1242 -63 ct 1252 -48 1265 -41 1282 -41 ct 1295 -41 1306 -46 1316 -58 ct 
1325 -69 1330 -86 1330 -109 ct 1330 -134 1325 -152 1316 -163 ct 1307 -174 1295 -180 1281 -180 ct 
1267 -180 1256 -174 1247 -163 ct 1237 -152 1233 -136 1233 -114 ct p ef
pom
0.003 0.281 1.000 c 15128 5444 m  13859 5444 l  13859 4428 l  16398 4428 l 
16398 5444 l  15128 5444 l  p ef
0 lw 0.503 0.503 0.503 c 15128 5444 m  13859 5444 l  13859 4428 l  16398 4428 l 
16398 5444 l  15128 5444 l  pc

0.601 0.800 1.000 c 15445 7602 m  13858 7602 l  13858 6315 l  17032 6315 l 
17032 7602 l  15445 7602 l  p ef
0.503 0.503 0.503 c 15445 7602 m  13858 7602 l  13858 6315 l  17032 6315 l 
17032 7602 l  15445 7602 l  pc


pum
14241 4870 t
1.000 1.000 1.000 c 28 0 m  28 -278 l  146 -278 l  176 -278 198 -276 211 -271 ct 
225 -266 235 -257 243 -244 ct 252 -231 256 -216 256 -200 ct 256 -179 249 -162 237 -148 ct 
225 -135 207 -126 182 -123 ct 194 -116 204 -108 212 -99 ct 220 -91 231 -76 244 -54 ct 
278 0 l  211 0 l  171 -60 l  156 -82 146 -96 141 -101 ct 136 -107 130 -111 124 -113 ct 
118 -115 109 -116 96 -116 ct 85 -116 l  85 0 l  28 0 l  p
85 -160 m  126 -160 l  153 -160 170 -162 176 -164 ct 183 -166 188 -170 192 -176 ct 
196 -181 198 -188 198 -196 ct 198 -206 195 -213 190 -219 ct 185 -225 178 -229 169 -230 ct 
165 -231 151 -231 128 -231 ct 85 -231 l  85 -160 l  p ef
423 -64 m  476 -55 l  470 -35 459 -20 444 -10 ct 429 0 411 5 389 5 ct 354 5 328 -6 311 -29 ct 
298 -48 291 -71 291 -99 ct 291 -132 300 -158 317 -177 ct 335 -196 357 -206 384 -206 ct 
414 -206 437 -196 454 -176 ct 472 -156 480 -126 479 -85 ct 346 -85 l  346 -69 351 -57 359 -48 ct 
367 -39 377 -35 389 -35 ct 398 -35 405 -37 410 -42 ct 416 -46 420 -54 423 -64 ct 
p
426 -118 m  426 -133 422 -145 414 -153 ct 407 -161 398 -165 387 -165 ct 375 -165 366 -161 358 -152 ct 
350 -144 347 -132 347 -118 ct 426 -118 l  p ef
518 13 m  579 21 l  580 28 582 33 586 36 ct 591 39 599 41 610 41 ct 624 41 634 39 641 35 ct 
646 32 649 28 651 21 ct 653 17 654 9 654 -3 ct 654 -33 l  638 -11 618 0 594 0 ct 
567 0 545 -11 529 -34 ct 517 -52 511 -75 511 -102 ct 511 -135 519 -161 535 -179 ct 
552 -197 572 -206 596 -206 ct 621 -206 641 -195 657 -173 ct 657 -201 l  707 -201 l 
707 -20 l  707 3 705 21 701 33 ct 697 45 692 54 685 61 ct 678 67 668 73 657 76 ct 
645 80 630 82 612 82 ct 578 82 553 76 539 64 ct 525 53 518 38 518 20 ct 518 18 518 16 518 13 ct 
p
565 -105 m  565 -83 570 -68 578 -58 ct 586 -48 596 -43 608 -43 ct 622 -43 632 -48 641 -58 ct 
650 -68 655 -83 655 -103 ct 655 -124 651 -140 642 -150 ct 633 -160 623 -165 609 -165 ct 
597 -165 586 -160 578 -150 ct 570 -140 565 -125 565 -105 ct p ef
760 -229 m  760 -278 l  813 -278 l  813 -229 l  760 -229 l  p
760 0 m  760 -201 l  813 -201 l  813 0 l  760 0 l  p ef
851 -57 m  905 -65 l  907 -55 911 -47 918 -42 ct 925 -36 935 -34 948 -34 ct 
961 -34 972 -36 979 -41 ct 983 -45 986 -49 986 -55 ct 986 -59 984 -63 982 -65 ct 
979 -68 973 -70 964 -72 ct 921 -82 894 -90 882 -98 ct 866 -109 858 -124 858 -144 ct 
858 -161 865 -176 879 -188 ct 893 -199 914 -205 943 -205 ct 971 -205 991 -201 1005 -192 ct 
1018 -183 1027 -170 1032 -152 ct 982 -143 l  980 -151 976 -157 970 -161 ct 964 -165 955 -167 944 -167 ct 
930 -167 920 -165 914 -161 ct 910 -158 908 -155 908 -150 ct 908 -147 910 -143 913 -141 ct 
918 -137 935 -132 963 -126 ct 991 -119 1011 -111 1022 -102 ct 1033 -93 1039 -79 1039 -62 ct 
1039 -44 1031 -28 1016 -15 ct 1001 -2 978 5 948 5 ct 920 5 898 -1 882 -12 ct 866 -23 856 -38 851 -57 ct 
p ef
1178 -201 m  1178 -159 l  1142 -159 l  1142 -77 l  1142 -61 1142 -51 1143 -49 ct 
1143 -46 1145 -44 1148 -42 ct 1150 -40 1153 -39 1157 -39 ct 1161 -39 1169 -41 1178 -44 ct 
1182 -3 l  1170 2 1156 5 1140 5 ct 1131 5 1122 3 1114 0 ct 1107 -3 1101 -7 1098 -12 ct 
1094 -17 1091 -24 1090 -33 ct 1089 -39 1088 -52 1088 -71 ct 1088 -159 l  1064 -159 l 
1064 -201 l  1088 -201 l  1088 -241 l  1142 -272 l  1142 -201 l  1178 -201 l 
p ef
1334 -64 m  1387 -55 l  1381 -35 1370 -20 1355 -10 ct 1340 0 1322 5 1300 5 ct 
1265 5 1239 -6 1222 -29 ct 1209 -48 1202 -71 1202 -99 ct 1202 -132 1211 -158 1228 -177 ct 
1246 -196 1268 -206 1295 -206 ct 1325 -206 1348 -196 1365 -176 ct 1383 -156 1391 -126 1390 -85 ct 
1257 -85 l  1257 -69 1262 -57 1270 -48 ct 1278 -39 1288 -35 1300 -35 ct 1309 -35 1316 -37 1321 -42 ct 
1327 -46 1331 -54 1334 -64 ct p
1337 -118 m  1337 -133 1333 -145 1325 -153 ct 1318 -161 1309 -165 1298 -165 ct 
1286 -165 1277 -161 1269 -152 ct 1261 -144 1258 -132 1258 -118 ct 1337 -118 l 
p ef
1484 0 m  1431 0 l  1431 -201 l  1480 -201 l  1480 -173 l  1488 -186 1496 -195 1503 -200 ct 
1510 -204 1517 -206 1526 -206 ct 1538 -206 1550 -203 1561 -196 ct 1544 -149 l 
1535 -155 1527 -158 1519 -158 ct 1512 -158 1506 -156 1500 -152 ct 1495 -148 1491 -140 1488 -130 ct 
1485 -119 1484 -96 1484 -62 ct 1484 0 l  p ef
1567 -57 m  1621 -65 l  1623 -55 1627 -47 1634 -42 ct 1641 -36 1651 -34 1664 -34 ct 
1677 -34 1688 -36 1695 -41 ct 1699 -45 1702 -49 1702 -55 ct 1702 -59 1700 -63 1698 -65 ct 
1695 -68 1689 -70 1680 -72 ct 1637 -82 1610 -90 1598 -98 ct 1582 -109 1574 -124 1574 -144 ct 
1574 -161 1581 -176 1595 -188 ct 1609 -199 1630 -205 1659 -205 ct 1687 -205 1707 -201 1721 -192 ct 
1734 -183 1743 -170 1748 -152 ct 1698 -143 l  1696 -151 1692 -157 1686 -161 ct 
1680 -165 1671 -167 1660 -167 ct 1646 -167 1636 -165 1630 -161 ct 1626 -158 1624 -155 1624 -150 ct 
1624 -147 1626 -143 1629 -141 ct 1634 -137 1651 -132 1679 -126 ct 1707 -119 1727 -111 1738 -102 ct 
1749 -93 1755 -79 1755 -62 ct 1755 -44 1747 -28 1732 -15 ct 1717 -2 1694 5 1664 5 ct 
1636 5 1614 -1 1598 -12 ct 1582 -23 1572 -38 1567 -57 ct p ef
pom
pum
14370 5302 t
24 -201 m  73 -201 l  73 -174 l  91 -195 111 -206 136 -206 ct 149 -206 160 -203 169 -198 ct 
179 -193 186 -185 192 -174 ct 201 -185 211 -193 221 -198 ct 231 -203 242 -206 254 -206 ct 
269 -206 281 -203 291 -197 ct 302 -191 309 -182 314 -171 ct 318 -162 320 -148 320 -129 ct 
320 0 l  267 0 l  267 -115 l  267 -135 265 -148 261 -154 ct 256 -161 249 -165 238 -165 ct 
231 -165 224 -163 217 -158 ct 211 -154 206 -147 203 -138 ct 200 -130 199 -116 199 -97 ct 
199 0 l  146 0 l  146 -110 l  146 -130 145 -143 143 -148 ct 141 -154 138 -158 134 -161 ct 
130 -164 124 -165 118 -165 ct 109 -165 102 -163 95 -159 ct 89 -154 84 -148 81 -139 ct 
79 -131 77 -117 77 -98 ct 77 0 l  24 0 l  24 -201 l  p ef
491 -64 m  544 -55 l  538 -35 527 -20 512 -10 ct 497 0 479 5 457 5 ct 422 5 396 -6 379 -29 ct 
366 -48 359 -71 359 -99 ct 359 -132 368 -158 385 -177 ct 403 -196 425 -206 452 -206 ct 
482 -206 505 -196 522 -176 ct 540 -156 548 -126 547 -85 ct 414 -85 l  414 -69 419 -57 427 -48 ct 
435 -39 445 -35 457 -35 ct 466 -35 473 -37 478 -42 ct 484 -46 488 -54 491 -64 ct 
p
494 -118 m  494 -133 490 -145 482 -153 ct 475 -161 466 -165 455 -165 ct 443 -165 434 -161 426 -152 ct 
418 -144 415 -132 415 -118 ct 494 -118 l  p ef
587 -201 m  636 -201 l  636 -174 l  654 -195 674 -206 699 -206 ct 712 -206 723 -203 732 -198 ct 
742 -193 749 -185 755 -174 ct 764 -185 774 -193 784 -198 ct 794 -203 805 -206 817 -206 ct 
832 -206 844 -203 854 -197 ct 865 -191 872 -182 877 -171 ct 881 -162 883 -148 883 -129 ct 
883 0 l  830 0 l  830 -115 l  830 -135 828 -148 824 -154 ct 819 -161 812 -165 801 -165 ct 
794 -165 787 -163 780 -158 ct 774 -154 769 -147 766 -138 ct 763 -130 762 -116 762 -97 ct 
762 0 l  709 0 l  709 -110 l  709 -130 708 -143 706 -148 ct 704 -154 701 -158 697 -161 ct 
693 -164 687 -165 681 -165 ct 672 -165 665 -163 658 -159 ct 652 -154 647 -148 644 -139 ct 
642 -131 640 -117 640 -98 ct 640 0 l  587 0 l  587 -201 l  p ef
926 -103 m  926 -121 930 -138 939 -154 ct 947 -171 960 -184 976 -192 ct 992 -201 1009 -205 1029 -205 ct 
1060 -205 1085 -196 1104 -176 ct 1123 -156 1133 -131 1133 -101 ct 1133 -70 1123 -45 1104 -25 ct 
1084 -5 1059 5 1030 5 ct 1011 5 994 1 977 -8 ct 960 -16 947 -28 939 -44 ct 930 -60 926 -80 926 -103 ct 
p
980 -100 m  980 -80 985 -65 994 -54 ct 1004 -44 1015 -38 1029 -38 ct 1043 -38 1055 -44 1064 -54 ct 
1074 -65 1078 -80 1078 -101 ct 1078 -120 1074 -135 1064 -146 ct 1055 -157 1043 -162 1029 -162 ct 
1015 -162 1004 -157 994 -146 ct 985 -135 980 -120 980 -100 ct p ef
1226 0 m  1173 0 l  1173 -201 l  1222 -201 l  1222 -173 l  1230 -186 1238 -195 1245 -200 ct 
1252 -204 1259 -206 1268 -206 ct 1280 -206 1292 -203 1303 -196 ct 1286 -149 l 
1277 -155 1269 -158 1261 -158 ct 1254 -158 1248 -156 1242 -152 ct 1237 -148 1233 -140 1230 -130 ct 
1227 -119 1226 -96 1226 -62 ct 1226 0 l  p ef
1303 -201 m  1359 -201 l  1407 -58 l  1454 -201 l  1510 -201 l  1438 -7 l 
1426 28 l  1421 40 1417 49 1412 55 ct 1408 61 1403 66 1398 70 ct 1392 74 1386 77 1378 79 ct 
1370 81 1361 82 1350 82 ct 1340 82 1330 81 1320 79 ct 1316 37 l  1324 39 1331 40 1338 40 ct 
1350 40 1360 36 1366 29 ct 1371 21 1376 12 1379 1 ct 1303 -201 l  p ef
pom
52 lw 0.003 0.003 0.003 c 15129 6016 m  15129 5764 l  ps
15128 6270 m  15217 6003 l  15039 6003 l  15128 6270 l  p ef
15128 5508 m  15039 5775 l  15217 5775 l  15128 5508 l  p ef
16716 6016 m  16716 4530 l  ps
16715 6270 m  16804 6003 l  16626 6003 l  16715 6270 l  p ef
16715 4275 m  16626 4541 l  16804 4541 l  16715 4275 l  p ef

pum
10509 3171 t
0.316 0.316 0.316 c 36 -354 m  178 -354 l  206 -354 226 -353 240 -350 ct 254 -348 266 -343 277 -336 ct 
288 -328 297 -318 304 -306 ct 311 -294 315 -280 315 -265 ct 315 -248 311 -233 302 -219 ct 
293 -205 281 -195 265 -188 ct 287 -182 303 -171 315 -156 ct 327 -141 332 -123 332 -102 ct 
332 -86 329 -70 321 -55 ct 314 -40 303 -28 291 -19 ct 278 -10 262 -4 243 -2 ct 
231 -1 202 0 157 0 ct 36 0 l  36 -354 l  p
108 -295 m  108 -213 l  154 -213 l  182 -213 199 -213 206 -214 ct 218 -216 228 -220 235 -227 ct 
242 -234 246 -243 246 -255 ct 246 -266 243 -274 237 -281 ct 230 -288 222 -292 210 -294 ct 
203 -295 182 -295 149 -295 ct 108 -295 l  p
108 -154 m  108 -59 l  174 -59 l  199 -59 216 -60 223 -62 ct 233 -63 242 -68 249 -76 ct 
255 -83 259 -93 259 -106 ct 259 -116 256 -125 251 -133 ct 246 -140 238 -146 229 -149 ct 
219 -152 198 -154 165 -154 ct 108 -154 l  p ef
395 0 m  395 -354 l  463 -354 l  463 0 l  395 0 l  p ef
520 -132 m  520 -154 525 -176 536 -197 ct 548 -218 563 -234 584 -245 ct 604 -256 627 -262 652 -262 ct 
690 -262 722 -249 747 -224 ct 772 -199 784 -167 784 -129 ct 784 -90 772 -58 747 -32 ct 
722 -7 690 6 652 6 ct 629 6 606 1 585 -10 ct 564 -21 548 -36 536 -57 ct 525 -77 520 -102 520 -132 ct 
p
589 -128 m  589 -103 595 -83 607 -70 ct 619 -56 634 -49 652 -49 ct 670 -49 684 -56 696 -70 ct 
708 -83 714 -103 714 -129 ct 714 -154 708 -173 696 -186 ct 684 -200 670 -207 652 -207 ct 
634 -207 619 -200 607 -186 ct 595 -173 589 -153 589 -128 ct p ef
1059 -180 m  992 -168 l  990 -182 985 -192 977 -199 ct 969 -205 958 -209 946 -209 ct 
929 -209 915 -203 905 -191 ct 895 -180 890 -160 890 -133 ct 890 -102 895 -81 906 -68 ct 
916 -56 929 -49 947 -49 ct 960 -49 970 -53 978 -60 ct 986 -68 992 -80 996 -98 ct 
1062 -87 l  1055 -56 1042 -33 1022 -17 ct 1003 -2 976 6 944 6 ct 906 6 876 -6 854 -29 ct 
832 -53 821 -86 821 -128 ct 821 -170 832 -203 854 -227 ct 876 -250 907 -262 945 -262 ct 
976 -262 1001 -255 1019 -242 ct 1038 -228 1051 -208 1059 -180 ct p ef
1108 0 m  1108 -354 l  1176 -354 l  1176 -166 l  1255 -256 l  1339 -256 l 
1251 -163 l  1345 0 l  1272 0 l  1207 -115 l  1176 -82 l  1176 0 l  1108 0 l 
p ef
pom
0.003 0.281 1.000 c 10205 9876 m  3221 9876 l  3221 8544 l  17189 8544 l 
17189 9876 l  10205 9876 l  p ef
0 lw 0.503 0.503 0.503 c 10205 9876 m  3221 9876 l  3221 8544 l  17189 8544 l 
17189 9876 l  10205 9876 l  pc


pum
8660 9319 t
1.000 1.000 1.000 c 172 -111 m  172 -162 l  303 -162 l  303 -42 l  291 -29 272 -19 248 -9 ct 
223 0 199 5 174 5 ct 142 5 115 -2 91 -15 ct 68 -28 50 -47 38 -72 ct 26 -97 20 -123 20 -153 ct 
20 -184 27 -212 40 -237 ct 53 -261 73 -280 98 -293 ct 118 -303 142 -308 171 -308 ct 
208 -308 238 -300 259 -284 ct 280 -269 293 -247 299 -219 ct 239 -207 l  235 -222 226 -234 215 -243 ct 
203 -251 188 -256 171 -256 ct 144 -256 123 -247 107 -230 ct 91 -213 83 -188 83 -155 ct 
83 -119 91 -92 107 -74 ct 123 -56 144 -47 170 -47 ct 183 -47 196 -50 209 -55 ct 
221 -60 232 -66 242 -73 ct 242 -111 l  172 -111 l  p ef
360 0 m  360 -302 l  418 -302 l  418 0 l  360 0 l  p ef
466 -113 m  466 -132 471 -150 480 -169 ct 490 -187 503 -200 521 -210 ct 538 -219 557 -224 579 -224 ct 
612 -224 639 -213 661 -192 ct 682 -170 692 -143 692 -110 ct 692 -77 682 -50 660 -28 ct 
639 -6 612 5 579 5 ct 559 5 540 0 522 -9 ct 504 -18 490 -31 480 -49 ct 471 -66 466 -87 466 -113 ct 
p
525 -109 m  525 -88 531 -71 541 -60 ct 551 -48 564 -42 579 -42 ct 594 -42 607 -48 617 -60 ct 
627 -71 633 -88 633 -110 ct 633 -131 627 -148 617 -159 ct 607 -171 594 -177 579 -177 ct 
564 -177 551 -171 541 -159 ct 531 -148 525 -131 525 -109 ct p ef
735 0 m  735 -302 l  793 -302 l  793 -193 l  811 -214 832 -224 857 -224 ct 
883 -224 905 -214 923 -195 ct 940 -176 949 -148 949 -112 ct 949 -74 940 -46 922 -25 ct 
904 -5 883 5 857 5 ct 845 5 832 2 820 -4 ct 808 -11 798 -20 789 -32 ct 789 0 l 
735 0 l  p
793 -114 m  793 -92 796 -75 803 -64 ct 813 -49 827 -41 843 -41 ct 856 -41 867 -46 876 -57 ct 
885 -68 890 -85 890 -109 ct 890 -134 885 -152 876 -163 ct 867 -174 855 -180 841 -180 ct 
827 -180 816 -174 806 -163 ct 797 -153 793 -136 793 -114 ct p ef
1039 -152 m  986 -162 l  992 -183 1002 -199 1017 -209 ct 1031 -219 1053 -224 1081 -224 ct 
1107 -224 1126 -221 1139 -215 ct 1152 -209 1160 -201 1166 -192 ct 1171 -182 1173 -165 1173 -140 ct 
1173 -72 l  1173 -53 1174 -39 1176 -29 ct 1177 -20 1181 -10 1186 0 ct 1129 0 l 
1127 -4 1125 -10 1123 -17 ct 1122 -21 1121 -23 1121 -24 ct 1111 -14 1100 -7 1089 -2 ct 
1078 3 1066 5 1053 5 ct 1030 5 1013 -1 1000 -13 ct 987 -26 980 -41 980 -60 ct 980 -72 983 -83 989 -93 ct 
995 -103 1003 -110 1014 -115 ct 1025 -120 1040 -125 1060 -129 ct 1087 -134 1106 -139 1116 -143 ct 
1116 -149 l  1116 -160 1114 -168 1108 -173 ct 1103 -177 1092 -180 1077 -180 ct 
1067 -180 1059 -178 1053 -174 ct 1047 -170 1042 -162 1039 -152 ct p
1116 -105 m  1109 -103 1097 -100 1081 -96 ct 1065 -93 1054 -89 1049 -86 ct 1042 -81 1038 -74 1038 -66 ct 
1038 -58 1041 -51 1047 -45 ct 1053 -39 1061 -36 1070 -36 ct 1081 -36 1091 -39 1100 -46 ct 
1107 -51 1112 -58 1114 -65 ct 1116 -70 1116 -80 1116 -94 ct 1116 -105 l  p ef
1232 0 m  1232 -302 l  1290 -302 l  1290 0 l  1232 0 l  p ef
1465 -219 m  1519 -219 l  1519 -189 l  1538 -212 1560 -224 1587 -224 ct 1601 -224 1613 -221 1623 -215 ct 
1634 -210 1642 -201 1649 -189 ct 1658 -201 1669 -210 1680 -215 ct 1691 -221 1703 -224 1716 -224 ct 
1732 -224 1746 -221 1757 -214 ct 1768 -208 1776 -198 1782 -185 ct 1786 -176 1788 -161 1788 -140 ct 
1788 0 l  1730 0 l  1730 -125 l  1730 -147 1728 -161 1724 -167 ct 1718 -176 1710 -180 1699 -180 ct 
1691 -180 1683 -177 1676 -172 ct 1669 -167 1664 -160 1660 -150 ct 1657 -141 1656 -126 1656 -105 ct 
1656 0 l  1598 0 l  1598 -120 l  1598 -141 1597 -155 1595 -161 ct 1592 -167 1589 -172 1585 -175 ct 
1581 -178 1575 -180 1567 -180 ct 1558 -180 1550 -177 1543 -172 ct 1536 -168 1531 -161 1528 -152 ct 
1525 -143 1523 -127 1523 -106 ct 1523 0 l  1465 0 l  1465 -219 l  p ef
1973 -70 m  2031 -60 l  2024 -39 2012 -23 1996 -12 ct 1980 -1 1960 5 1936 5 ct 
1898 5 1869 -7 1851 -32 ct 1837 -52 1829 -77 1829 -108 ct 1829 -144 1839 -173 1858 -193 ct 
1877 -214 1901 -224 1930 -224 ct 1963 -224 1988 -213 2007 -192 ct 2026 -170 2035 -137 2034 -93 ct 
1889 -93 l  1889 -76 1894 -62 1903 -53 ct 1912 -43 1923 -38 1936 -38 ct 1946 -38 1953 -41 1959 -46 ct 
1966 -51 1970 -59 1973 -70 ct p
1977 -128 m  1976 -145 1972 -158 1964 -167 ct 1955 -175 1945 -180 1934 -180 ct 
1921 -180 1910 -175 1902 -166 ct 1894 -157 1890 -144 1890 -128 ct 1977 -128 l 
p ef
2079 -219 m  2133 -219 l  2133 -189 l  2152 -212 2174 -224 2201 -224 ct 2215 -224 2227 -221 2237 -215 ct 
2248 -210 2256 -201 2263 -189 ct 2272 -201 2283 -210 2294 -215 ct 2305 -221 2317 -224 2330 -224 ct 
2346 -224 2360 -221 2371 -214 ct 2382 -208 2390 -198 2396 -185 ct 2400 -176 2402 -161 2402 -140 ct 
2402 0 l  2344 0 l  2344 -125 l  2344 -147 2342 -161 2338 -167 ct 2332 -176 2324 -180 2313 -180 ct 
2305 -180 2297 -177 2290 -172 ct 2283 -167 2278 -160 2274 -150 ct 2271 -141 2270 -126 2270 -105 ct 
2270 0 l  2212 0 l  2212 -120 l  2212 -141 2211 -155 2209 -161 ct 2206 -167 2203 -172 2199 -175 ct 
2195 -178 2189 -180 2181 -180 ct 2172 -180 2164 -177 2157 -172 ct 2150 -168 2145 -161 2142 -152 ct 
2139 -143 2137 -127 2137 -106 ct 2137 0 l  2079 0 l  2079 -219 l  p ef
2447 -113 m  2447 -132 2452 -150 2461 -169 ct 2471 -187 2484 -200 2502 -210 ct 
2519 -219 2538 -224 2560 -224 ct 2593 -224 2620 -213 2642 -192 ct 2663 -170 2673 -143 2673 -110 ct 
2673 -77 2663 -50 2641 -28 ct 2620 -6 2593 5 2560 5 ct 2540 5 2521 0 2503 -9 ct 
2485 -18 2471 -31 2461 -49 ct 2452 -66 2447 -87 2447 -113 ct p
2506 -109 m  2506 -88 2512 -71 2522 -60 ct 2532 -48 2545 -42 2560 -42 ct 2575 -42 2588 -48 2598 -60 ct 
2608 -71 2614 -88 2614 -110 ct 2614 -131 2608 -148 2598 -159 ct 2588 -171 2575 -177 2560 -177 ct 
2545 -177 2532 -171 2522 -159 ct 2512 -148 2506 -131 2506 -109 ct p ef
2774 0 m  2716 0 l  2716 -219 l  2770 -219 l  2770 -188 l  2779 -203 2787 -212 2795 -217 ct 
2802 -222 2810 -224 2820 -224 ct 2833 -224 2846 -220 2858 -213 ct 2840 -163 l 
2830 -169 2821 -172 2813 -172 ct 2805 -172 2798 -170 2792 -165 ct 2786 -161 2782 -153 2779 -141 ct 
2776 -129 2774 -105 2774 -68 ct 2774 0 l  p ef
2856 -219 m  2918 -219 l  2970 -63 l  3021 -219 l  3081 -219 l  3004 -8 l 
2990 30 l  2985 43 2980 53 2976 59 ct 2971 66 2966 71 2960 76 ct 2954 80 2946 83 2938 86 ct 
2929 88 2919 89 2908 89 ct 2897 89 2886 88 2875 86 ct 2870 40 l  2879 42 2887 43 2895 43 ct 
2908 43 2918 39 2924 31 ct 2931 23 2936 13 2939 1 ct 2856 -219 l  p ef
pom
52 lw 0.003 0.003 0.003 c 4928 8214 m  4928 7962 l  ps
4928 8469 m  5017 8202 l  4839 8202 l  4928 8469 l  p ef
4928 7707 m  4839 7974 l  5017 7974 l  4928 7707 l  p ef
8328 8214 m  8328 7962 l  ps
8327 8469 m  8416 8202 l  8238 8202 l  8327 8469 l  p ef
8327 7707 m  8238 7974 l  8416 7974 l  8327 7707 l  p ef
12027 8214 m  12027 7962 l  ps
12027 8469 m  12116 8202 l  11938 8202 l  12027 8469 l  p ef
12027 7707 m  11938 7974 l  12116 7974 l  12027 7707 l  p ef
15427 8214 m  15427 7962 l  ps
15426 8469 m  15515 8202 l  15337 8202 l  15426 8469 l  p ef
15426 7707 m  15337 7974 l  15515 7974 l  15426 7707 l  p ef

pum
7638 7098 t
0.316 0.316 0.316 c 99 0 m  99 -251 l  9 -251 l  9 -302 l  250 -302 l  250 -251 l 
160 -251 l  160 0 l  99 0 l  p ef
346 -302 m  346 -191 l  365 -213 387 -224 413 -224 ct 427 -224 439 -222 449 -217 ct 
460 -212 468 -205 474 -198 ct 479 -190 483 -181 485 -172 ct 487 -163 488 -148 488 -129 ct 
488 0 l  430 0 l  430 -116 l  430 -139 429 -153 427 -159 ct 424 -166 420 -171 415 -174 ct 
409 -178 402 -180 394 -180 ct 384 -180 376 -177 368 -173 ct 361 -168 355 -161 351 -151 ct 
348 -142 346 -128 346 -110 ct 346 0 l  288 0 l  288 -302 l  346 -302 l  p ef
602 0 m  544 0 l  544 -219 l  598 -219 l  598 -188 l  607 -203 615 -212 623 -217 ct 
630 -222 638 -224 648 -224 ct 661 -224 674 -220 686 -213 ct 668 -163 l  658 -169 649 -172 641 -172 ct 
633 -172 626 -170 620 -165 ct 614 -161 610 -153 607 -141 ct 604 -129 602 -105 602 -68 ct 
602 0 l  p ef
839 -70 m  897 -60 l  890 -39 878 -23 862 -12 ct 846 -1 826 5 802 5 ct 764 5 735 -7 717 -32 ct 
703 -52 695 -77 695 -108 ct 695 -144 705 -173 724 -193 ct 743 -214 767 -224 796 -224 ct 
829 -224 854 -213 873 -192 ct 892 -170 901 -137 900 -93 ct 755 -93 l  755 -76 760 -62 769 -53 ct 
778 -43 789 -38 802 -38 ct 812 -38 819 -41 825 -46 ct 832 -51 836 -59 839 -70 ct 
p
843 -128 m  842 -145 838 -158 830 -167 ct 821 -175 811 -180 800 -180 ct 787 -180 776 -175 768 -166 ct 
760 -157 756 -144 756 -128 ct 843 -128 l  p ef
993 -152 m  940 -162 l  946 -183 956 -199 971 -209 ct 985 -219 1007 -224 1035 -224 ct 
1061 -224 1080 -221 1093 -215 ct 1106 -209 1114 -201 1120 -192 ct 1125 -182 1127 -165 1127 -140 ct 
1127 -72 l  1127 -53 1128 -39 1130 -29 ct 1131 -20 1135 -10 1140 0 ct 1083 0 l 
1081 -4 1079 -10 1077 -17 ct 1076 -21 1075 -23 1075 -24 ct 1065 -14 1054 -7 1043 -2 ct 
1032 3 1020 5 1007 5 ct 984 5 967 -1 954 -13 ct 941 -26 934 -41 934 -60 ct 934 -72 937 -83 943 -93 ct 
949 -103 957 -110 968 -115 ct 979 -120 994 -125 1014 -129 ct 1041 -134 1060 -139 1070 -143 ct 
1070 -149 l  1070 -160 1068 -168 1062 -173 ct 1057 -177 1046 -180 1031 -180 ct 
1021 -180 1013 -178 1007 -174 ct 1001 -170 996 -162 993 -152 ct p
1070 -105 m  1063 -103 1051 -100 1035 -96 ct 1019 -93 1008 -89 1003 -86 ct 996 -81 992 -74 992 -66 ct 
992 -58 995 -51 1001 -45 ct 1007 -39 1015 -36 1024 -36 ct 1035 -36 1045 -39 1054 -46 ct 
1061 -51 1066 -58 1068 -65 ct 1070 -70 1070 -80 1070 -94 ct 1070 -105 l  p ef
1388 0 m  1334 0 l  1334 -32 l  1325 -20 1314 -10 1302 -4 ct 1290 2 1277 5 1265 5 ct 
1240 5 1218 -5 1200 -25 ct 1182 -46 1173 -74 1173 -110 ct 1173 -147 1182 -176 1200 -195 ct 
1217 -214 1239 -224 1266 -224 ct 1290 -224 1312 -214 1330 -193 ct 1330 -302 l 
1388 -302 l  1388 0 l  p
1233 -114 m  1233 -91 1236 -74 1242 -63 ct 1252 -48 1265 -41 1282 -41 ct 1295 -41 1306 -46 1316 -58 ct 
1325 -69 1330 -86 1330 -109 ct 1330 -134 1325 -152 1316 -163 ct 1307 -174 1295 -180 1281 -180 ct 
1267 -180 1256 -174 1247 -163 ct 1237 -152 1233 -136 1233 -114 ct p ef
pom

pum
14738 7098 t
99 0 m  99 -251 l  9 -251 l  9 -302 l  250 -302 l  250 -251 l  160 -251 l 
160 0 l  99 0 l  p ef
346 -302 m  346 -191 l  365 -213 387 -224 413 -224 ct 427 -224 439 -222 449 -217 ct 
460 -212 468 -205 474 -198 ct 479 -190 483 -181 485 -172 ct 487 -163 488 -148 488 -129 ct 
488 0 l  430 0 l  430 -116 l  430 -139 429 -153 427 -159 ct 424 -166 420 -171 415 -174 ct 
409 -178 402 -180 394 -180 ct 384 -180 376 -177 368 -173 ct 361 -168 355 -161 351 -151 ct 
348 -142 346 -128 346 -110 ct 346 0 l  288 0 l  288 -302 l  346 -302 l  p ef
602 0 m  544 0 l  544 -219 l  598 -219 l  598 -188 l  607 -203 615 -212 623 -217 ct 
630 -222 638 -224 648 -224 ct 661 -224 674 -220 686 -213 ct 668 -163 l  658 -169 649 -172 641 -172 ct 
633 -172 626 -170 620 -165 ct 614 -161 610 -153 607 -141 ct 604 -129 602 -105 602 -68 ct 
602 0 l  p ef
839 -70 m  897 -60 l  890 -39 878 -23 862 -12 ct 846 -1 826 5 802 5 ct 764 5 735 -7 717 -32 ct 
703 -52 695 -77 695 -108 ct 695 -144 705 -173 724 -193 ct 743 -214 767 -224 796 -224 ct 
829 -224 854 -213 873 -192 ct 892 -170 901 -137 900 -93 ct 755 -93 l  755 -76 760 -62 769 -53 ct 
778 -43 789 -38 802 -38 ct 812 -38 819 -41 825 -46 ct 832 -51 836 -59 839 -70 ct 
p
843 -128 m  842 -145 838 -158 830 -167 ct 821 -175 811 -180 800 -180 ct 787 -180 776 -175 768 -166 ct 
760 -157 756 -144 756 -128 ct 843 -128 l  p ef
993 -152 m  940 -162 l  946 -183 956 -199 971 -209 ct 985 -219 1007 -224 1035 -224 ct 
1061 -224 1080 -221 1093 -215 ct 1106 -209 1114 -201 1120 -192 ct 1125 -182 1127 -165 1127 -140 ct 
1127 -72 l  1127 -53 1128 -39 1130 -29 ct 1131 -20 1135 -10 1140 0 ct 1083 0 l 
1081 -4 1079 -10 1077 -17 ct 1076 -21 1075 -23 1075 -24 ct 1065 -14 1054 -7 1043 -2 ct 
1032 3 1020 5 1007 5 ct 984 5 967 -1 954 -13 ct 941 -26 934 -41 934 -60 ct 934 -72 937 -83 943 -93 ct 
949 -103 957 -110 968 -115 ct 979 -120 994 -125 1014 -129 ct 1041 -134 1060 -139 1070 -143 ct 
1070 -149 l  1070 -160 1068 -168 1062 -173 ct 1057 -177 1046 -180 1031 -180 ct 
1021 -180 1013 -178 1007 -174 ct 1001 -170 996 -162 993 -152 ct p
1070 -105 m  1063 -103 1051 -100 1035 -96 ct 1019 -93 1008 -89 1003 -86 ct 996 -81 992 -74 992 -66 ct 
992 -58 995 -51 1001 -45 ct 1007 -39 1015 -36 1024 -36 ct 1035 -36 1045 -39 1054 -46 ct 
1061 -51 1066 -58 1068 -65 ct 1070 -70 1070 -80 1070 -94 ct 1070 -105 l  p ef
1388 0 m  1334 0 l  1334 -32 l  1325 -20 1314 -10 1302 -4 ct 1290 2 1277 5 1265 5 ct 
1240 5 1218 -5 1200 -25 ct 1182 -46 1173 -74 1173 -110 ct 1173 -147 1182 -176 1200 -195 ct 
1217 -214 1239 -224 1266 -224 ct 1290 -224 1312 -214 1330 -193 ct 1330 -302 l 
1388 -302 l  1388 0 l  p
1233 -114 m  1233 -91 1236 -74 1242 -63 ct 1252 -48 1265 -41 1282 -41 ct 1295 -41 1306 -46 1316 -58 ct 
1325 -69 1330 -86 1330 -109 ct 1330 -134 1325 -152 1316 -163 ct 1307 -174 1295 -180 1281 -180 ct 
1267 -180 1256 -174 1247 -163 ct 1237 -152 1233 -136 1233 -114 ct p ef
pom
0 8764 t 
pom
count op_count sub {pop} repeat countdictstack dict_count sub {end} repeat b4_inc_state restore
%%PageTrailer
%%Trailer
%%EOF
