%!PS-Adobe-3.0 EPSF-3.0 
%%BoundingBox: 0 0 118 156
%%Pages: 0
%%Creator: LibreOffice 3.6
%%Title: none
%%CreationDate: none
%%LanguageLevel: 2
%%EndComments
%%BeginProlog
%%BeginResource: procset SDRes-Prolog 1.0 0
/b4_inc_state save def
/dict_count countdictstack def
/op_count count 1 sub def
userdict begin
0 setgray 0 setlinecap 1 setlinewidth 0 setlinejoin 10 setmiterlimit[] 0 setdash newpath
/languagelevel where {pop languagelevel 1 ne {false setstrokeadjust false setoverprint} if} if
/bdef {bind def} bind def
/c {setrgbcolor} bdef
/l {neg lineto} bdef
/rl {neg rlineto} bdef
/lc {setlinecap} bdef
/lj {setlinejoin} bdef
/lw {setlinewidth} bdef
/ml {setmiterlimit} bdef
/ld {setdash} bdef
/m {neg moveto} bdef
/ct {6 2 roll neg 6 2 roll neg 6 2 roll neg curveto} bdef
/r {rotate} bdef
/t {neg translate} bdef
/s {scale} bdef
/sw {show} bdef
/gs {gsave} bdef
/gr {grestore} bdef
/f {findfont dup length dict begin
{1 index /FID ne {def} {pop pop} ifelse} forall /Encoding ISOLatin1Encoding def
currentdict end /NFont exch definefont pop /NFont findfont} bdef
/p {closepath} bdef
/sf {scalefont setfont} bdef
/ef {eofill}bdef
/pc {closepath stroke}bdef
/ps {stroke}bdef
/pum {matrix currentmatrix}bdef
/pom {setmatrix}bdef
/bs {/aString exch def /nXOfs exch def /nWidth exch def currentpoint nXOfs 0 rmoveto pum nWidth aString stringwidth pop div 1 scale aString show pom moveto} bdef
%%EndResource
%%EndProlog
%%BeginSetup
%%EndSetup
%%Page: 1 1
%%BeginPageSetup
%%EndPageSetup
pum
0.02828 0.02836 s 
0 -5499 t
/tm matrix currentmatrix def
tm setmatrix
-1325 -4437 t 
1 1 s 
1.000 1.000 1.000 c 1860 8987 m  1368 8987 l  1368 8003 l  2351 8003 l 
2351 8987 l  1860 8987 l  p ef
51 lw 1 lj 0.503 0.503 0.503 c 1860 8987 m  1368 8987 l  1368 8003 l  2351 8003 l 
2351 8987 l  1860 8987 l  pc
pum
1710 8586 t
0.105 0.105 0.105 c 127 -39 m  134 -1 l  121 2 110 3 101 3 ct 85 3 73 0 64 -4 ct 
55 -9 49 -16 46 -24 ct 42 -32 41 -49 41 -75 ct 41 -223 l  9 -223 l  9 -257 l 
41 -257 l  41 -320 l  84 -346 l  84 -257 l  127 -257 l  127 -223 l  84 -223 l 
84 -73 l  84 -61 84 -53 86 -49 ct 88 -46 90 -43 93 -41 ct 97 -39 102 -38 108 -38 ct 
113 -38 119 -38 127 -39 ct p ef
pom
pum
1850 8793 t
107 0 m  82 0 l  82 -161 l  76 -155 68 -149 58 -143 ct 48 -137 39 -133 31 -130 ct 
31 -155 l  45 -161 58 -169 68 -179 ct 79 -188 86 -197 91 -206 ct 107 -206 l 
107 0 l  p ef
pom

1.000 1.000 1.000 c 1860 8004 m  1368 8004 l  1368 7020 l  2351 7020 l 
2351 8004 l  1860 8004 l  p ef
0.503 0.503 0.503 c 1860 8004 m  1368 8004 l  1368 7020 l  2351 7020 l 
2351 8004 l  1860 8004 l  pc
pum
1710 7603 t
0.105 0.105 0.105 c 127 -39 m  134 -1 l  121 2 110 3 101 3 ct 85 3 73 0 64 -4 ct 
55 -9 49 -16 46 -24 ct 42 -32 41 -49 41 -75 ct 41 -223 l  9 -223 l  9 -257 l 
41 -257 l  41 -320 l  84 -346 l  84 -257 l  127 -257 l  127 -223 l  84 -223 l 
84 -73 l  84 -61 84 -53 86 -49 ct 88 -46 90 -43 93 -41 ct 97 -39 102 -38 108 -38 ct 
113 -38 119 -38 127 -39 ct p ef
pom
pum
1850 7810 t
12 -54 m  38 -56 l  40 -44 45 -34 52 -27 ct 59 -21 68 -18 78 -18 ct 90 -18 100 -22 109 -31 ct 
117 -41 121 -53 121 -68 ct 121 -82 117 -93 109 -102 ct 101 -110 91 -114 78 -114 ct 
69 -114 62 -112 55 -108 ct 49 -105 44 -100 40 -94 ct 16 -97 l  36 -203 l  138 -203 l 
138 -179 l  56 -179 l  45 -123 l  58 -132 71 -136 84 -136 ct 102 -136 117 -130 130 -118 ct 
142 -105 148 -89 148 -70 ct 148 -51 143 -35 132 -22 ct 119 -5 101 3 78 3 ct 59 3 44 -2 32 -13 ct 
20 -23 14 -37 12 -54 ct p ef
pom

1.000 1.000 1.000 c 1860 7019 m  1368 7019 l  1368 6034 l  2351 6034 l 
2351 7019 l  1860 7019 l  p ef
0.503 0.503 0.503 c 1860 7019 m  1368 7019 l  1368 6034 l  2351 6034 l 
2351 7019 l  1860 7019 l  pc
pum
1710 6618 t
0.105 0.105 0.105 c 127 -39 m  134 -1 l  121 2 110 3 101 3 ct 85 3 73 0 64 -4 ct 
55 -9 49 -16 46 -24 ct 42 -32 41 -49 41 -75 ct 41 -223 l  9 -223 l  9 -257 l 
41 -257 l  41 -320 l  84 -346 l  84 -257 l  127 -257 l  127 -223 l  84 -223 l 
84 -73 l  84 -61 84 -53 86 -49 ct 88 -46 90 -43 93 -41 ct 97 -39 102 -38 108 -38 ct 
113 -38 119 -38 127 -39 ct p ef
pom
pum
1850 6825 t
16 -48 m  40 -50 l  42 -39 46 -31 52 -25 ct 58 -20 65 -18 74 -18 ct 82 -18 89 -19 94 -23 ct 
100 -27 105 -31 109 -37 ct 112 -43 116 -51 118 -61 ct 121 -71 122 -82 122 -92 ct 
122 -93 122 -95 122 -97 ct 117 -89 110 -82 101 -77 ct 92 -73 83 -70 73 -70 ct 56 -70 41 -76 30 -89 ct 
18 -101 12 -117 12 -137 ct 12 -158 18 -175 30 -188 ct 43 -201 58 -207 77 -207 ct 
90 -207 102 -203 113 -196 ct 124 -189 133 -179 138 -165 ct 144 -152 147 -133 147 -107 ct 
147 -81 144 -60 138 -45 ct 133 -29 124 -17 113 -9 ct 102 -1 89 3 73 3 ct 57 3 44 -1 34 -10 ct 
24 -19 18 -32 16 -48 ct p
119 -139 m  119 -153 115 -165 107 -173 ct 100 -182 90 -186 80 -186 ct 68 -186 59 -181 50 -172 ct 
42 -163 38 -151 38 -137 ct 38 -123 42 -113 50 -105 ct 58 -96 67 -92 79 -92 ct 91 -92 100 -96 108 -105 ct 
115 -113 119 -124 119 -139 ct p ef
pom

1.000 1.000 1.000 c 2843 8987 m  2351 8987 l  2351 8003 l  3335 8003 l 
3335 8987 l  2843 8987 l  p ef
0.503 0.503 0.503 c 2843 8987 m  2351 8987 l  2351 8003 l  3335 8003 l 
3335 8987 l  2843 8987 l  pc
pum
2694 8586 t
0.105 0.105 0.105 c 127 -39 m  134 -1 l  121 2 110 3 101 3 ct 85 3 73 0 64 -4 ct 
55 -9 49 -16 46 -24 ct 42 -32 41 -49 41 -75 ct 41 -223 l  9 -223 l  9 -257 l 
41 -257 l  41 -320 l  84 -346 l  84 -257 l  127 -257 l  127 -223 l  84 -223 l 
84 -73 l  84 -61 84 -53 86 -49 ct 88 -46 90 -43 93 -41 ct 97 -39 102 -38 108 -38 ct 
113 -38 119 -38 127 -39 ct p ef
pom
pum
2834 8793 t
12 -54 m  37 -57 l  40 -43 45 -33 52 -26 ct 59 -20 68 -17 78 -17 ct 89 -17 99 -21 108 -29 ct 
116 -37 120 -48 120 -60 ct 120 -72 116 -81 108 -89 ct 101 -96 91 -100 80 -100 ct 
75 -100 69 -99 62 -97 ct 65 -119 l  66 -119 68 -119 69 -119 ct 79 -119 89 -122 98 -127 ct 
106 -133 111 -142 111 -153 ct 111 -162 107 -170 101 -176 ct 95 -182 87 -185 77 -185 ct 
67 -185 59 -182 52 -176 ct 46 -170 42 -161 40 -148 ct 15 -153 l  18 -170 25 -183 36 -192 ct 
47 -201 60 -206 76 -206 ct 88 -206 98 -203 107 -199 ct 117 -194 124 -187 129 -179 ct 
134 -171 137 -162 137 -153 ct 137 -144 134 -136 129 -128 ct 125 -121 118 -115 108 -111 ct 
120 -108 130 -103 136 -94 ct 143 -85 147 -74 147 -60 ct 147 -42 140 -27 127 -15 ct 
114 -2 97 4 77 4 ct 59 4 44 -1 32 -12 ct 21 -23 14 -37 12 -54 ct p ef
pom

1.000 1.000 1.000 c 2843 8004 m  2351 8004 l  2351 7020 l  3335 7020 l 
3335 8004 l  2843 8004 l  p ef
0.503 0.503 0.503 c 2843 8004 m  2351 8004 l  2351 7020 l  3335 7020 l 
3335 8004 l  2843 8004 l  pc
pum
2694 7603 t
0.105 0.105 0.105 c 127 -39 m  134 -1 l  121 2 110 3 101 3 ct 85 3 73 0 64 -4 ct 
55 -9 49 -16 46 -24 ct 42 -32 41 -49 41 -75 ct 41 -223 l  9 -223 l  9 -257 l 
41 -257 l  41 -320 l  84 -346 l  84 -257 l  127 -257 l  127 -223 l  84 -223 l 
84 -73 l  84 -61 84 -53 86 -49 ct 88 -46 90 -43 93 -41 ct 97 -39 102 -38 108 -38 ct 
113 -38 119 -38 127 -39 ct p ef
pom
pum
2834 7810 t
144 -24 m  144 0 l  9 0 l  9 -6 9 -12 12 -18 ct 15 -27 21 -36 28 -45 ct 36 -54 47 -64 61 -76 ct 
84 -94 99 -109 107 -119 ct 114 -130 118 -140 118 -150 ct 118 -160 115 -168 108 -175 ct 
100 -182 91 -185 80 -185 ct 67 -185 58 -182 50 -174 ct 43 -167 39 -157 39 -144 ct 
13 -147 l  15 -166 22 -181 33 -191 ct 45 -201 61 -206 80 -206 ct 100 -206 115 -201 127 -190 ct 
138 -179 144 -165 144 -149 ct 144 -141 143 -133 139 -125 ct 136 -117 130 -109 122 -100 ct 
115 -91 102 -79 84 -64 ct 68 -51 59 -42 54 -38 ct 50 -33 47 -29 44 -24 ct 144 -24 l 
p ef
pom

1.000 1.000 1.000 c 3827 8987 m  3334 8987 l  3334 8003 l  4318 8003 l 
4318 8987 l  3827 8987 l  p ef
0.503 0.503 0.503 c 3827 8987 m  3334 8987 l  3334 8003 l  4318 8003 l 
4318 8987 l  3827 8987 l  pc
pum
3676 8586 t
0.105 0.105 0.105 c 127 -39 m  134 -1 l  121 2 110 3 101 3 ct 85 3 73 0 64 -4 ct 
55 -9 49 -16 46 -24 ct 42 -32 41 -49 41 -75 ct 41 -223 l  9 -223 l  9 -257 l 
41 -257 l  41 -320 l  84 -346 l  84 -257 l  127 -257 l  127 -223 l  84 -223 l 
84 -73 l  84 -61 84 -53 86 -49 ct 88 -46 90 -43 93 -41 ct 97 -39 102 -38 108 -38 ct 
113 -38 119 -38 127 -39 ct p ef
pom
pum
3816 8793 t
143 -155 m  118 -153 l  115 -163 112 -171 108 -175 ct 101 -182 93 -186 83 -186 ct 
75 -186 68 -184 62 -179 ct 54 -173 48 -165 43 -154 ct 38 -143 36 -127 36 -106 ct 
42 -115 49 -122 58 -127 ct 67 -131 76 -133 86 -133 ct 103 -133 117 -127 129 -115 ct 
141 -102 146 -86 146 -67 ct 146 -54 144 -42 138 -31 ct 133 -20 125 -12 115 -6 ct 
105 0 94 3 82 3 ct 61 3 44 -5 31 -20 ct 17 -36 11 -61 11 -97 ct 11 -136 18 -165 33 -183 ct 
46 -199 63 -207 85 -207 ct 101 -207 114 -202 124 -193 ct 135 -184 141 -171 143 -155 ct 
p
40 -67 m  40 -58 42 -50 45 -42 ct 49 -34 54 -28 61 -24 ct 67 -20 74 -18 82 -18 ct 
92 -18 102 -22 109 -31 ct 117 -39 121 -51 121 -65 ct 121 -80 117 -91 109 -99 ct 
102 -107 92 -111 81 -111 ct 69 -111 60 -107 52 -99 ct 44 -91 40 -80 40 -67 ct p ef
pom

1.000 1.000 1.000 c 4810 8004 m  4318 8004 l  4318 7020 l  5301 7020 l 
5301 8004 l  4810 8004 l  p ef
0.503 0.503 0.503 c 4810 8004 m  4318 8004 l  4318 7020 l  5301 7020 l 
5301 8004 l  4810 8004 l  pc
pum
4660 7603 t
0.105 0.105 0.105 c 127 -39 m  134 -1 l  121 2 110 3 101 3 ct 85 3 73 0 64 -4 ct 
55 -9 49 -16 46 -24 ct 42 -32 41 -49 41 -75 ct 41 -223 l  9 -223 l  9 -257 l 
41 -257 l  41 -320 l  84 -346 l  84 -257 l  127 -257 l  127 -223 l  84 -223 l 
84 -73 l  84 -61 84 -53 86 -49 ct 88 -46 90 -43 93 -41 ct 97 -39 102 -38 108 -38 ct 
113 -38 119 -38 127 -39 ct p ef
pom
pum
4800 7810 t
93 0 m  93 -49 l  4 -49 l  4 -72 l  97 -205 l  118 -205 l  118 -72 l  146 -72 l 
146 -49 l  118 -49 l  118 0 l  93 0 l  p
93 -72 m  93 -165 l  28 -72 l  93 -72 l  p ef
pom

1.000 1.000 1.000 c 4810 8987 m  4318 8987 l  4318 8003 l  5301 8003 l 
5301 8987 l  4810 8987 l  p ef
0.503 0.503 0.503 c 4810 8987 m  4318 8987 l  4318 8003 l  5301 8003 l 
5301 8987 l  4810 8987 l  pc
pum
4660 8586 t
0.105 0.105 0.105 c 127 -39 m  134 -1 l  121 2 110 3 101 3 ct 85 3 73 0 64 -4 ct 
55 -9 49 -16 46 -24 ct 42 -32 41 -49 41 -75 ct 41 -223 l  9 -223 l  9 -257 l 
41 -257 l  41 -320 l  84 -346 l  84 -257 l  127 -257 l  127 -223 l  84 -223 l 
84 -73 l  84 -61 84 -53 86 -49 ct 88 -46 90 -43 93 -41 ct 97 -39 102 -38 108 -38 ct 
113 -38 119 -38 127 -39 ct p ef
pom
pum
4800 8793 t
51 -112 m  40 -116 33 -121 27 -128 ct 22 -135 20 -144 20 -154 ct 20 -169 25 -181 36 -191 ct 
47 -202 61 -207 79 -207 ct 97 -207 111 -202 122 -191 ct 133 -181 139 -168 139 -153 ct 
139 -144 136 -135 131 -128 ct 126 -121 119 -116 108 -112 ct 121 -108 131 -101 137 -92 ct 
144 -83 147 -72 147 -59 ct 147 -42 141 -27 128 -15 ct 116 -3 100 3 79 3 ct 59 3 43 -3 30 -15 ct 
18 -27 12 -42 12 -60 ct 12 -73 15 -84 22 -93 ct 29 -103 38 -109 51 -112 ct p
46 -155 m  46 -145 49 -137 55 -131 ct 61 -125 69 -122 79 -122 ct 89 -122 97 -125 103 -131 ct 
110 -137 113 -144 113 -153 ct 113 -162 109 -170 103 -177 ct 97 -183 89 -186 79 -186 ct 
70 -186 62 -183 55 -177 ct 49 -171 46 -163 46 -155 ct p
38 -60 m  38 -53 39 -46 43 -39 ct 46 -32 51 -27 58 -23 ct 65 -20 72 -18 80 -18 ct 
92 -18 102 -22 109 -29 ct 117 -37 121 -47 121 -59 ct 121 -71 117 -81 109 -89 ct 
101 -97 91 -101 79 -101 ct 67 -101 57 -97 49 -89 ct 41 -81 38 -72 38 -60 ct p ef
pom

1.000 1.000 1.000 c 4810 7019 m  4318 7019 l  4318 6034 l  5301 6034 l 
5301 7019 l  4810 7019 l  p ef
0.503 0.503 0.503 c 4810 7019 m  4318 7019 l  4318 6034 l  5301 6034 l 
5301 7019 l  4810 7019 l  pc
pum
4660 6618 t
0.105 0.105 0.105 c 127 -39 m  134 -1 l  121 2 110 3 101 3 ct 85 3 73 0 64 -4 ct 
55 -9 49 -16 46 -24 ct 42 -32 41 -49 41 -75 ct 41 -223 l  9 -223 l  9 -257 l 
41 -257 l  41 -320 l  84 -346 l  84 -257 l  127 -257 l  127 -223 l  84 -223 l 
84 -73 l  84 -61 84 -53 86 -49 ct 88 -46 90 -43 93 -41 ct 97 -39 102 -38 108 -38 ct 
113 -38 119 -38 127 -39 ct p ef
pom
pum
4800 6825 t
14 -178 m  14 -202 l  147 -202 l  147 -183 l  134 -169 121 -150 108 -127 ct 
95 -104 85 -80 78 -56 ct 73 -39 70 -20 68 1 ct 42 1 l  43 -16 46 -35 52 -58 ct 
58 -81 67 -103 78 -124 ct 89 -146 101 -163 114 -178 ct 14 -178 l  p ef
pom

0.902 0.902 1.000 c 1860 5447 m  1368 5447 l  1368 4463 l  2351 4463 l 
2351 5447 l  1860 5447 l  p ef
0.503 0.503 0.503 c 1860 5447 m  1368 5447 l  1368 4463 l  2351 4463 l 
2351 5447 l  1860 5447 l  pc

0.902 0.902 1.000 c 2843 5447 m  2351 5447 l  2351 4463 l  3335 4463 l 
3335 5447 l  2843 5447 l  p ef
0.503 0.503 0.503 c 2843 5447 m  2351 5447 l  2351 4463 l  3335 4463 l 
3335 5447 l  2843 5447 l  pc

0.902 0.902 1.000 c 3827 5447 m  3334 5447 l  3334 4463 l  4318 4463 l 
4318 5447 l  3827 5447 l  p ef
0.503 0.503 0.503 c 3827 5447 m  3334 5447 l  3334 4463 l  4318 4463 l 
4318 5447 l  3827 5447 l  pc

0.902 0.902 1.000 c 4810 5447 m  4318 5447 l  4318 4463 l  5301 4463 l 
5301 5447 l  4810 5447 l  p ef
0.503 0.503 0.503 c 4810 5447 m  4318 5447 l  4318 4463 l  5301 4463 l 
5301 5447 l  4810 5447 l  pc

0.902 0.902 1.000 c 2843 7019 m  2351 7019 l  2351 6034 l  3335 6034 l 
3335 7019 l  2843 7019 l  p ef
0.503 0.503 0.503 c 2843 7019 m  2351 7019 l  2351 6034 l  3335 6034 l 
3335 7019 l  2843 7019 l  pc

0.902 0.902 1.000 c 3827 8004 m  3334 8004 l  3334 7020 l  4318 7020 l 
4318 8004 l  3827 8004 l  p ef
0.503 0.503 0.503 c 3827 8004 m  3334 8004 l  3334 7020 l  4318 7020 l 
4318 8004 l  3827 8004 l  pc

0.902 0.902 1.000 c 3827 7019 m  3334 7019 l  3334 6034 l  4318 6034 l 
4318 7019 l  3827 7019 l  p ef
0.503 0.503 0.503 c 3827 7019 m  3334 7019 l  3334 6034 l  4318 6034 l 
4318 7019 l  3827 7019 l  pc


pum
1610 9542 t
0.105 0.105 0.105 c 33 0 m  33 -256 l  71 -256 l  71 -220 l  79 -233 90 -243 103 -251 ct 
117 -258 132 -262 149 -262 ct 168 -262 184 -258 196 -250 ct 208 -242 216 -231 221 -217 ct 
242 -247 268 -262 301 -262 ct 326 -262 345 -255 359 -241 ct 373 -227 380 -205 380 -176 ct 
380 0 l  336 0 l  336 -161 l  336 -179 335 -191 332 -199 ct 329 -207 324 -213 317 -217 ct 
310 -222 301 -224 291 -224 ct 273 -224 258 -218 246 -206 ct 234 -194 228 -175 228 -149 ct 
228 0 l  185 0 l  185 -166 l  185 -186 181 -200 174 -210 ct 167 -220 156 -224 139 -224 ct 
127 -224 116 -221 106 -215 ct 95 -208 88 -199 83 -186 ct 78 -174 76 -156 76 -133 ct 
76 0 l  33 0 l  p ef
pom
pum
2021 9748 t
107 0 m  82 0 l  82 -161 l  76 -155 68 -149 58 -143 ct 48 -137 39 -133 31 -130 ct 
31 -155 l  45 -161 58 -169 68 -179 ct 79 -188 86 -197 91 -206 ct 107 -206 l 
107 0 l  p ef
pom

pum
2593 9542 t
33 0 m  33 -256 l  71 -256 l  71 -220 l  79 -233 90 -243 103 -251 ct 117 -258 132 -262 149 -262 ct 
168 -262 184 -258 196 -250 ct 208 -242 216 -231 221 -217 ct 242 -247 268 -262 301 -262 ct 
326 -262 345 -255 359 -241 ct 373 -227 380 -205 380 -176 ct 380 0 l  336 0 l 
336 -161 l  336 -179 335 -191 332 -199 ct 329 -207 324 -213 317 -217 ct 310 -222 301 -224 291 -224 ct 
273 -224 258 -218 246 -206 ct 234 -194 228 -175 228 -149 ct 228 0 l  185 0 l 
185 -166 l  185 -186 181 -200 174 -210 ct 167 -220 156 -224 139 -224 ct 127 -224 116 -221 106 -215 ct 
95 -208 88 -199 83 -186 ct 78 -174 76 -156 76 -133 ct 76 0 l  33 0 l  p ef
pom
pum
3004 9748 t
144 -24 m  144 0 l  9 0 l  9 -6 9 -12 12 -18 ct 15 -27 21 -36 28 -45 ct 36 -54 47 -64 61 -76 ct 
84 -94 99 -109 107 -119 ct 114 -130 118 -140 118 -150 ct 118 -160 115 -168 108 -175 ct 
100 -182 91 -185 80 -185 ct 67 -185 58 -182 50 -174 ct 43 -167 39 -157 39 -144 ct 
13 -147 l  15 -166 22 -181 33 -191 ct 45 -201 61 -206 80 -206 ct 100 -206 115 -201 127 -190 ct 
138 -179 144 -165 144 -149 ct 144 -141 143 -133 139 -125 ct 136 -117 130 -109 122 -100 ct 
115 -91 102 -79 84 -64 ct 68 -51 59 -42 54 -38 ct 50 -33 47 -29 44 -24 ct 144 -24 l 
p ef
pom

pum
3586 9542 t
33 0 m  33 -256 l  71 -256 l  71 -220 l  79 -233 90 -243 103 -251 ct 117 -258 132 -262 149 -262 ct 
168 -262 184 -258 196 -250 ct 208 -242 216 -231 221 -217 ct 242 -247 268 -262 301 -262 ct 
326 -262 345 -255 359 -241 ct 373 -227 380 -205 380 -176 ct 380 0 l  336 0 l 
336 -161 l  336 -179 335 -191 332 -199 ct 329 -207 324 -213 317 -217 ct 310 -222 301 -224 291 -224 ct 
273 -224 258 -218 246 -206 ct 234 -194 228 -175 228 -149 ct 228 0 l  185 0 l 
185 -166 l  185 -186 181 -200 174 -210 ct 167 -220 156 -224 139 -224 ct 127 -224 116 -221 106 -215 ct 
95 -208 88 -199 83 -186 ct 78 -174 76 -156 76 -133 ct 76 0 l  33 0 l  p ef
pom
pum
3997 9748 t
12 -54 m  37 -57 l  40 -43 45 -33 52 -26 ct 59 -20 68 -17 78 -17 ct 89 -17 99 -21 108 -29 ct 
116 -37 120 -48 120 -60 ct 120 -72 116 -81 108 -89 ct 101 -96 91 -100 80 -100 ct 
75 -100 69 -99 62 -97 ct 65 -119 l  66 -119 68 -119 69 -119 ct 79 -119 89 -122 98 -127 ct 
106 -133 111 -142 111 -153 ct 111 -162 107 -170 101 -176 ct 95 -182 87 -185 77 -185 ct 
67 -185 59 -182 52 -176 ct 46 -170 42 -161 40 -148 ct 15 -153 l  18 -170 25 -183 36 -192 ct 
47 -201 60 -206 76 -206 ct 88 -206 98 -203 107 -199 ct 117 -194 124 -187 129 -179 ct 
134 -171 137 -162 137 -153 ct 137 -144 134 -136 129 -128 ct 125 -121 118 -115 108 -111 ct 
120 -108 130 -103 136 -94 ct 143 -85 147 -74 147 -60 ct 147 -42 140 -27 127 -15 ct 
114 -2 97 4 77 4 ct 59 4 44 -1 32 -12 ct 21 -23 14 -37 12 -54 ct p ef
pom

pum
4561 9542 t
33 0 m  33 -256 l  71 -256 l  71 -220 l  79 -233 90 -243 103 -251 ct 117 -258 132 -262 149 -262 ct 
168 -262 184 -258 196 -250 ct 208 -242 216 -231 221 -217 ct 242 -247 268 -262 301 -262 ct 
326 -262 345 -255 359 -241 ct 373 -227 380 -205 380 -176 ct 380 0 l  336 0 l 
336 -161 l  336 -179 335 -191 332 -199 ct 329 -207 324 -213 317 -217 ct 310 -222 301 -224 291 -224 ct 
273 -224 258 -218 246 -206 ct 234 -194 228 -175 228 -149 ct 228 0 l  185 0 l 
185 -166 l  185 -186 181 -200 174 -210 ct 167 -220 156 -224 139 -224 ct 127 -224 116 -221 106 -215 ct 
95 -208 88 -199 83 -186 ct 78 -174 76 -156 76 -133 ct 76 0 l  33 0 l  p ef
pom
pum
4972 9748 t
93 0 m  93 -49 l  4 -49 l  4 -72 l  97 -205 l  118 -205 l  118 -72 l  146 -72 l 
146 -49 l  118 -49 l  118 0 l  93 0 l  p
93 -72 m  93 -165 l  28 -72 l  93 -72 l  p ef
pom

pum
1911 5938 t
90.5 r 45 0 m  45 -49 l  94 -49 l  94 0 l  45 0 l  p ef
185 0 m  185 -49 l  234 -49 l  234 0 l  185 0 l  p ef
324 0 m  324 -49 l  373 -49 l  373 0 l  324 0 l  p ef
pom

pum
4758 5939 t
90.4 r 45 0 m  45 -49 l  94 -49 l  94 0 l  45 0 l  p ef
185 0 m  185 -49 l  234 -49 l  234 0 l  185 0 l  p ef
324 0 m  324 -49 l  373 -49 l  373 0 l  324 0 l  p ef
pom
0 5499 t 
pom
count op_count sub {pop} repeat countdictstack dict_count sub {end} repeat b4_inc_state restore
%%PageTrailer
%%Trailer
%%EOF
