<?xml version="1.0" encoding="UTF-8" standalone="no"?>
<!-- Created with Inkscape (http://www.inkscape.org/) -->

<svg
   xmlns:dc="http://purl.org/dc/elements/1.1/"
   xmlns:cc="http://creativecommons.org/ns#"
   xmlns:rdf="http://www.w3.org/1999/02/22-rdf-syntax-ns#"
   xmlns:svg="http://www.w3.org/2000/svg"
   xmlns="http://www.w3.org/2000/svg"
   xmlns:sodipodi="http://sodipodi.sourceforge.net/DTD/sodipodi-0.dtd"
   xmlns:inkscape="http://www.inkscape.org/namespaces/inkscape"
   width="744.09448819"
   height="1052.3622047"
   id="svg2"
   version="1.1"
   inkscape:version="0.48.3.1 r9886"
   sodipodi:docname="pareto_front_good.svg"
   inkscape:export-filename="/home/santiago/bitbucket/master-thesis/figures/pareto_front_bad_2.png"
   inkscape:export-xdpi="120"
   inkscape:export-ydpi="120">
  <defs
     id="defs4">
    <marker
       inkscape:stockid="Arrow2Mend"
       orient="auto"
       refY="0.0"
       refX="0.0"
       id="Arrow2Mend"
       style="overflow:visible;">
      <path
         id="path3848"
         style="fill-rule:evenodd;stroke-width:0.62500000;stroke-linejoin:round;"
         d="M 8.7185878,4.0337352 L -2.2072895,0.016013256 L 8.7185884,-4.0017078 C 6.9730900,-1.6296469 6.9831476,1.6157441 8.7185878,4.0337352 z "
         transform="scale(0.6) rotate(180) translate(0,0)" />
    </marker>
    <marker
       inkscape:stockid="Arrow2Mstart"
       orient="auto"
       refY="0.0"
       refX="0.0"
       id="Arrow2Mstart"
       style="overflow:visible">
      <path
         id="path3845"
         style="fill-rule:evenodd;stroke-width:0.62500000;stroke-linejoin:round"
         d="M 8.7185878,4.0337352 L -2.2072895,0.016013256 L 8.7185884,-4.0017078 C 6.9730900,-1.6296469 6.9831476,1.6157441 8.7185878,4.0337352 z "
         transform="scale(0.6) translate(0,0)" />
    </marker>
    <marker
       inkscape:stockid="TriangleOutL"
       orient="auto"
       refY="0.0"
       refX="0.0"
       id="TriangleOutL"
       style="overflow:visible">
      <path
         id="path3962"
         d="M 5.77,0.0 L -2.88,5.0 L -2.88,-5.0 L 5.77,0.0 z "
         style="fill-rule:evenodd;stroke:#000000;stroke-width:1.0pt"
         transform="scale(0.8)" />
    </marker>
    <marker
       inkscape:stockid="TriangleInL"
       orient="auto"
       refY="0.0"
       refX="0.0"
       id="TriangleInL"
       style="overflow:visible">
      <path
         id="path3953"
         d="M 5.77,0.0 L -2.88,5.0 L -2.88,-5.0 L 5.77,0.0 z "
         style="fill-rule:evenodd;stroke:#000000;stroke-width:1.0pt"
         transform="scale(-0.8)" />
    </marker>
    <marker
       inkscape:stockid="Arrow2Lstart"
       orient="auto"
       refY="0.0"
       refX="0.0"
       id="Arrow2Lstart"
       style="overflow:visible">
      <path
         id="path3838"
         style="fill-rule:evenodd;stroke-width:0.62500000;stroke-linejoin:round"
         d="M 8.7185878,4.0337352 L -2.2072895,0.016013256 L 8.7185884,-4.0017078 C 6.9730900,-1.6296469 6.9831476,1.6157441 8.7185878,4.0337352 z "
         transform="scale(1.1) translate(1,0)" />
    </marker>
    <inkscape:path-effect
       effect="spiro"
       id="path-effect2991"
       is_visible="true" />
    <inkscape:path-effect
       effect="spiro"
       id="path-effect2987"
       is_visible="true" />
    <marker
       inkscape:stockid="TriangleInL"
       orient="auto"
       refY="0"
       refX="0"
       id="TriangleInL-5"
       style="overflow:visible">
      <path
         inkscape:connector-curvature="0"
         id="path3953-9"
         d="m 5.77,0 -8.65,5 0,-10 8.65,5 z"
         style="fill-rule:evenodd;stroke:#000000;stroke-width:1pt"
         transform="scale(-0.8,-0.8)" />
    </marker>
  </defs>
  <sodipodi:namedview
     id="base"
     pagecolor="#ffffff"
     bordercolor="#666666"
     borderopacity="1.0"
     inkscape:pageopacity="0.0"
     inkscape:pageshadow="2"
     inkscape:zoom="0.98994949"
     inkscape:cx="413.93737"
     inkscape:cy="343.17584"
     inkscape:document-units="px"
     inkscape:current-layer="layer1"
     showgrid="false"
     inkscape:window-width="1297"
     inkscape:window-height="950"
     inkscape:window-x="1492"
     inkscape:window-y="23"
     inkscape:window-maximized="0" />
  <metadata
     id="metadata7">
    <rdf:RDF>
      <cc:Work
         rdf:about="">
        <dc:format>image/svg+xml</dc:format>
        <dc:type
           rdf:resource="http://purl.org/dc/dcmitype/StillImage" />
        <dc:title></dc:title>
      </cc:Work>
    </rdf:RDF>
  </metadata>
  <g
     inkscape:label="Layer 1"
     inkscape:groupmode="layer"
     id="layer1">
    <path
       style="fill:none;stroke:#787878;stroke-width:3.99999976;stroke-linecap:butt;stroke-linejoin:miter;stroke-miterlimit:4;stroke-opacity:1;stroke-dasharray:none"
       d="m 160.75639,475.98638 c 23.63876,222.20473 225.71214,215.71699 225.71214,215.71699"
       id="path2993"
       inkscape:connector-curvature="0"
       inkscape:export-filename="/home/santiago/bitbucket/master-thesis/figures/pareto_front_good.svg.png"
       inkscape:export-xdpi="120"
       inkscape:export-ydpi="120" />
    <path
       style="fill:none;stroke:#000000;stroke-width:4;stroke-linecap:butt;stroke-linejoin:miter;stroke-miterlimit:4;stroke-opacity:1;stroke-dasharray:none;marker-start:url(#Arrow2Mstart)"
       d="m 137.5,458.78487 0,265.90857"
       id="path3765"
       inkscape:connector-curvature="0"
       inkscape:export-filename="/home/santiago/bitbucket/master-thesis/figures/pareto_front_good.svg.png"
       inkscape:export-xdpi="120"
       inkscape:export-ydpi="120" />
    <path
       style="fill:none;stroke:#000000;stroke-width:3.99999976;stroke-linecap:butt;stroke-linejoin:miter;stroke-miterlimit:4;stroke-opacity:1;stroke-dasharray:none;marker-start:none;marker-mid:none;marker-end:url(#Arrow2Mend)"
       d="m 135.866,723.21934 268.92007,0"
       id="path3765-9"
       inkscape:connector-curvature="0"
       inkscape:export-filename="/home/santiago/bitbucket/master-thesis/figures/pareto_front_good.svg.png"
       inkscape:export-xdpi="120"
       inkscape:export-ydpi="120" />
    <text
       xml:space="preserve"
       style="font-size:40px;font-style:normal;font-weight:normal;line-height:125%;letter-spacing:0px;word-spacing:0px;fill:#000000;fill-opacity:1;stroke:none;font-family:Sans"
       x="96.306023"
       y="475.63486"
       id="text3804"
       sodipodi:linespacing="125%"
       inkscape:export-filename="/home/santiago/bitbucket/master-thesis/figures/pareto_front_good.svg.png"
       inkscape:export-xdpi="120"
       inkscape:export-ydpi="120"><tspan
         sodipodi:role="line"
         id="tspan3806"
         x="96.306023"
         y="475.63486"
         style="font-size:28px">f<tspan
   style="font-size:65.00091553%;baseline-shift:sub"
   id="tspan5744">1</tspan></tspan></text>
    <text
       xml:space="preserve"
       style="font-size:40px;font-style:normal;font-weight:normal;line-height:125%;letter-spacing:0px;word-spacing:0px;fill:#000000;fill-opacity:1;stroke:none;font-family:Sans"
       x="420.56903"
       y="732.9248"
       id="text3804-3"
       sodipodi:linespacing="125%"
       inkscape:export-filename="/home/santiago/bitbucket/master-thesis/figures/pareto_front_good.svg.png"
       inkscape:export-xdpi="120"
       inkscape:export-ydpi="120"><tspan
         sodipodi:role="line"
         id="tspan3806-5"
         x="420.56903"
         y="732.9248"
         style="font-size:28px">f<tspan
   style="font-size:65.00091553%;baseline-shift:sub"
   id="tspan5744-3">2</tspan></tspan></text>
    <text
       xml:space="preserve"
       style="font-size:23.99116707px;font-style:normal;font-variant:normal;font-weight:bold;font-stretch:normal;text-align:start;line-height:125%;letter-spacing:0px;word-spacing:0px;writing-mode:lr-tb;text-anchor:start;fill:#646464;fill-opacity:1;stroke:none;font-family:Sans;-inkscape-font-specification:Sans Bold"
       x="331.22174"
       y="726.14105"
       id="text5826"
       sodipodi:linespacing="125%"
       transform="scale(1.0136039,0.98657868)"
       inkscape:export-xdpi="120"
       inkscape:export-ydpi="120"
       inkscape:export-filename="/home/santiago/bitbucket/master-thesis/figures/pareto_front_good.svg.png"><tspan
         sodipodi:role="line"
         id="tspan5828"
         x="331.22174"
         y="726.14105"
         style="font-size:23.99116707px;font-style:normal;font-variant:normal;font-weight:bold;font-stretch:normal;text-align:start;line-height:125%;writing-mode:lr-tb;text-anchor:start;fill:#646464;fill-opacity:1;font-family:Sans;-inkscape-font-specification:Sans Bold">PF*</tspan></text>
    <path
       sodipodi:type="arc"
       style="fill:#000000;fill-opacity:1;stroke:#000000;stroke-width:4;stroke-linecap:round;stroke-linejoin:round;stroke-miterlimit:4;stroke-opacity:1;stroke-dasharray:none;stroke-dashoffset:0"
       id="path5770-9"
       sodipodi:cx="282.84271"
       sodipodi:cy="460.41278"
       sodipodi:rx="4.0406103"
       sodipodi:ry="4.0406103"
       d="m 286.88332,460.41278 a 4.0406103,4.0406103 0 1 1 -8.08122,0 4.0406103,4.0406103 0 1 1 8.08122,0 z"
       transform="translate(5.672752,209.71661)"
       inkscape:export-filename="/home/santiago/bitbucket/master-thesis/figures/pareto_front_good.svg.png"
       inkscape:export-xdpi="120"
       inkscape:export-ydpi="120" />
    <path
       transform="translate(-15.840969,197.70725)"
       sodipodi:type="arc"
       style="fill:#000000;fill-opacity:1;stroke:#000000;stroke-width:4;stroke-linecap:round;stroke-linejoin:round;stroke-miterlimit:4;stroke-opacity:1;stroke-dasharray:none;stroke-dashoffset:0"
       id="path5770-8-9"
       sodipodi:cx="282.84271"
       sodipodi:cy="460.41278"
       sodipodi:rx="4.0406103"
       sodipodi:ry="4.0406103"
       d="m 286.88332,460.41278 a 4.0406103,4.0406103 0 1 1 -8.08122,0 4.0406103,4.0406103 0 1 1 8.08122,0 z"
       inkscape:export-filename="/home/santiago/bitbucket/master-thesis/figures/pareto_front_good.svg.png"
       inkscape:export-xdpi="120"
       inkscape:export-ydpi="120" />
    <path
       transform="translate(28.471902,218.08337)"
       sodipodi:type="arc"
       style="fill:#000000;fill-opacity:1;stroke:#000000;stroke-width:4;stroke-linecap:round;stroke-linejoin:round;stroke-miterlimit:4;stroke-opacity:1;stroke-dasharray:none;stroke-dashoffset:0"
       id="path5770-8-1-2"
       sodipodi:cx="282.84271"
       sodipodi:cy="460.41278"
       sodipodi:rx="4.0406103"
       sodipodi:ry="4.0406103"
       d="m 286.88332,460.41278 a 4.0406103,4.0406103 0 1 1 -8.08122,0 4.0406103,4.0406103 0 1 1 8.08122,0 z"
       inkscape:export-filename="/home/santiago/bitbucket/master-thesis/figures/pareto_front_good.svg.png"
       inkscape:export-xdpi="120"
       inkscape:export-ydpi="120" />
    <path
       sodipodi:type="arc"
       style="fill:#000000;fill-opacity:1;stroke:#000000;stroke-width:4;stroke-linecap:round;stroke-linejoin:round;stroke-miterlimit:4;stroke-opacity:1;stroke-dasharray:none;stroke-dashoffset:0"
       id="path5770-6"
       sodipodi:cx="282.84271"
       sodipodi:cy="460.41278"
       sodipodi:rx="4.0406103"
       sodipodi:ry="4.0406103"
       d="m 286.88332,460.41278 a 4.0406103,4.0406103 0 1 1 -8.08122,0 4.0406103,4.0406103 0 1 1 8.08122,0 z"
       transform="translate(-52.370576,171.02534)"
       inkscape:export-filename="/home/santiago/bitbucket/master-thesis/figures/pareto_front_good.svg.png"
       inkscape:export-xdpi="120"
       inkscape:export-ydpi="120" />
    <path
       transform="translate(-34.983824,186.13581)"
       sodipodi:type="arc"
       style="fill:#000000;fill-opacity:1;stroke:#000000;stroke-width:4;stroke-linecap:round;stroke-linejoin:round;stroke-miterlimit:4;stroke-opacity:1;stroke-dasharray:none;stroke-dashoffset:0"
       id="path5770-8-8"
       sodipodi:cx="282.84271"
       sodipodi:cy="460.41278"
       sodipodi:rx="4.0406103"
       sodipodi:ry="4.0406103"
       d="m 286.88332,460.41278 a 4.0406103,4.0406103 0 1 1 -8.08122,0 4.0406103,4.0406103 0 1 1 8.08122,0 z"
       inkscape:export-filename="/home/santiago/bitbucket/master-thesis/figures/pareto_front_good.svg.png"
       inkscape:export-xdpi="120"
       inkscape:export-ydpi="120" />
    <path
       transform="translate(-79.956663,138.47875)"
       sodipodi:type="arc"
       style="fill:#000000;fill-opacity:1;stroke:#000000;stroke-width:4;stroke-linecap:round;stroke-linejoin:round;stroke-miterlimit:4;stroke-opacity:1;stroke-dasharray:none;stroke-dashoffset:0"
       id="path5770-8-1-7"
       sodipodi:cx="282.84271"
       sodipodi:cy="460.41278"
       sodipodi:rx="4.0406103"
       sodipodi:ry="4.0406103"
       d="m 286.88332,460.41278 a 4.0406103,4.0406103 0 1 1 -8.08122,0 4.0406103,4.0406103 0 1 1 8.08122,0 z"
       inkscape:export-filename="/home/santiago/bitbucket/master-thesis/figures/pareto_front_good.svg.png"
       inkscape:export-xdpi="120"
       inkscape:export-ydpi="120" />
    <path
       transform="translate(-113.69811,62.350097)"
       sodipodi:type="arc"
       style="fill:#000000;fill-opacity:1;stroke:#000000;stroke-width:4;stroke-linecap:round;stroke-linejoin:round;stroke-miterlimit:4;stroke-opacity:1;stroke-dasharray:none;stroke-dashoffset:0"
       id="path5770-8-3"
       sodipodi:cx="282.84271"
       sodipodi:cy="460.41278"
       sodipodi:rx="4.0406103"
       sodipodi:ry="4.0406103"
       d="m 286.88332,460.41278 a 4.0406103,4.0406103 0 1 1 -8.08122,0 4.0406103,4.0406103 0 1 1 8.08122,0 z"
       inkscape:export-filename="/home/santiago/bitbucket/master-thesis/figures/pareto_front_good.svg.png"
       inkscape:export-xdpi="120"
       inkscape:export-ydpi="120" />
    <path
       transform="translate(-118.09951,40.869071)"
       sodipodi:type="arc"
       style="fill:#000000;fill-opacity:1;stroke:#000000;stroke-width:4;stroke-linecap:round;stroke-linejoin:round;stroke-miterlimit:4;stroke-opacity:1;stroke-dasharray:none;stroke-dashoffset:0"
       id="path5770-8-1-5"
       sodipodi:cx="282.84271"
       sodipodi:cy="460.41278"
       sodipodi:rx="4.0406103"
       sodipodi:ry="4.0406103"
       d="m 286.88332,460.41278 a 4.0406103,4.0406103 0 1 1 -8.08122,0 4.0406103,4.0406103 0 1 1 8.08122,0 z"
       inkscape:export-filename="/home/santiago/bitbucket/master-thesis/figures/pareto_front_good.svg.png"
       inkscape:export-xdpi="120"
       inkscape:export-ydpi="120" />
    <path
       sodipodi:type="arc"
       style="fill:#000000;fill-opacity:1;stroke:#000000;stroke-width:4;stroke-linecap:round;stroke-linejoin:round;stroke-miterlimit:4;stroke-opacity:1;stroke-dasharray:none;stroke-dashoffset:0"
       id="path5770-2-3"
       sodipodi:cx="282.84271"
       sodipodi:cy="460.41278"
       sodipodi:rx="4.0406103"
       sodipodi:ry="4.0406103"
       d="m 286.88332,460.41278 a 4.0406103,4.0406103 0 1 1 -8.08122,0 4.0406103,4.0406103 0 1 1 8.08122,0 z"
       transform="translate(-108.04153,82.288036)"
       inkscape:export-filename="/home/santiago/bitbucket/master-thesis/figures/pareto_front_good.svg.png"
       inkscape:export-xdpi="120"
       inkscape:export-ydpi="120" />
    <path
       transform="translate(-91.269538,119.13581)"
       sodipodi:type="arc"
       style="fill:#000000;fill-opacity:1;stroke:#000000;stroke-width:4;stroke-linecap:round;stroke-linejoin:round;stroke-miterlimit:4;stroke-opacity:1;stroke-dasharray:none;stroke-dashoffset:0"
       id="path5770-8-3-3"
       sodipodi:cx="282.84271"
       sodipodi:cy="460.41278"
       sodipodi:rx="4.0406103"
       sodipodi:ry="4.0406103"
       d="m 286.88332,460.41278 a 4.0406103,4.0406103 0 1 1 -8.08122,0 4.0406103,4.0406103 0 1 1 8.08122,0 z"
       inkscape:export-filename="/home/santiago/bitbucket/master-thesis/figures/pareto_front_good.svg.png"
       inkscape:export-xdpi="120"
       inkscape:export-ydpi="120" />
    <path
       transform="translate(-100.67095,99.79765)"
       sodipodi:type="arc"
       style="fill:#000000;fill-opacity:1;stroke:#000000;stroke-width:4;stroke-linecap:round;stroke-linejoin:round;stroke-miterlimit:4;stroke-opacity:1;stroke-dasharray:none;stroke-dashoffset:0"
       id="path5770-8-1-5-1"
       sodipodi:cx="282.84271"
       sodipodi:cy="460.41278"
       sodipodi:rx="4.0406103"
       sodipodi:ry="4.0406103"
       d="m 286.88332,460.41278 a 4.0406103,4.0406103 0 1 1 -8.08122,0 4.0406103,4.0406103 0 1 1 8.08122,0 z"
       inkscape:export-filename="/home/santiago/bitbucket/master-thesis/figures/pareto_front_good.svg.png"
       inkscape:export-xdpi="120"
       inkscape:export-ydpi="120" />
    <path
       sodipodi:type="arc"
       style="fill:#000000;fill-opacity:1;stroke:#000000;stroke-width:4;stroke-linecap:round;stroke-linejoin:round;stroke-miterlimit:4;stroke-opacity:1;stroke-dasharray:none;stroke-dashoffset:0"
       id="path5770-9-1"
       sodipodi:cx="282.84271"
       sodipodi:cy="460.41278"
       sodipodi:rx="4.0406103"
       sodipodi:ry="4.0406103"
       d="m 286.88332,460.41278 a 4.0406103,4.0406103 0 1 1 -8.08122,0 4.0406103,4.0406103 0 1 1 8.08122,0 z"
       transform="translate(81.13032,230.60466)"
       inkscape:export-filename="/home/santiago/bitbucket/master-thesis/figures/pareto_front_good.svg.png"
       inkscape:export-xdpi="120"
       inkscape:export-ydpi="120" />
    <path
       transform="translate(54.759462,225.45244)"
       sodipodi:type="arc"
       style="fill:#000000;fill-opacity:1;stroke:#000000;stroke-width:4;stroke-linecap:round;stroke-linejoin:round;stroke-miterlimit:4;stroke-opacity:1;stroke-dasharray:none;stroke-dashoffset:0"
       id="path5770-8-9-6"
       sodipodi:cx="282.84271"
       sodipodi:cy="460.41278"
       sodipodi:rx="4.0406103"
       sodipodi:ry="4.0406103"
       d="m 286.88332,460.41278 a 4.0406103,4.0406103 0 1 1 -8.08122,0 4.0406103,4.0406103 0 1 1 8.08122,0 z"
       inkscape:export-filename="/home/santiago/bitbucket/master-thesis/figures/pareto_front_good.svg.png"
       inkscape:export-xdpi="120"
       inkscape:export-ydpi="120" />
    <path
       transform="translate(-67.2233,155.13965)"
       sodipodi:type="arc"
       style="fill:#000000;fill-opacity:1;stroke:#000000;stroke-width:4;stroke-linecap:round;stroke-linejoin:round;stroke-miterlimit:4;stroke-opacity:1;stroke-dasharray:none;stroke-dashoffset:0"
       id="path5770-8-1-7-0"
       sodipodi:cx="282.84271"
       sodipodi:cy="460.41278"
       sodipodi:rx="4.0406103"
       sodipodi:ry="4.0406103"
       d="m 286.88332,460.41278 a 4.0406103,4.0406103 0 1 1 -8.08122,0 4.0406103,4.0406103 0 1 1 8.08122,0 z"
       inkscape:export-filename="/home/santiago/bitbucket/master-thesis/figures/pareto_front_good.svg.png"
       inkscape:export-xdpi="120"
       inkscape:export-ydpi="120" />
  </g>
</svg>
