%!PS-Adobe-3.0 EPSF-3.0 
%%BoundingBox: 0 0 246 251
%%Pages: 0
%%Creator: LibreOffice 3.6
%%Title: none
%%CreationDate: none
%%LanguageLevel: 2
%%EndComments
%%BeginProlog
%%BeginResource: procset SDRes-Prolog 1.0 0
/b4_inc_state save def
/dict_count countdictstack def
/op_count count 1 sub def
userdict begin
0 setgray 0 setlinecap 1 setlinewidth 0 setlinejoin 10 setmiterlimit[] 0 setdash newpath
/languagelevel where {pop languagelevel 1 ne {false setstrokeadjust false setoverprint} if} if
/bdef {bind def} bind def
/c {setrgbcolor} bdef
/l {neg lineto} bdef
/rl {neg rlineto} bdef
/lc {setlinecap} bdef
/lj {setlinejoin} bdef
/lw {setlinewidth} bdef
/ml {setmiterlimit} bdef
/ld {setdash} bdef
/m {neg moveto} bdef
/ct {6 2 roll neg 6 2 roll neg 6 2 roll neg curveto} bdef
/r {rotate} bdef
/t {neg translate} bdef
/s {scale} bdef
/sw {show} bdef
/gs {gsave} bdef
/gr {grestore} bdef
/f {findfont dup length dict begin
{1 index /FID ne {def} {pop pop} ifelse} forall /Encoding ISOLatin1Encoding def
currentdict end /NFont exch definefont pop /NFont findfont} bdef
/p {closepath} bdef
/sf {scalefont setfont} bdef
/ef {eofill}bdef
/pc {closepath stroke}bdef
/ps {stroke}bdef
/pum {matrix currentmatrix}bdef
/pom {setmatrix}bdef
/bs {/aString exch def /nXOfs exch def /nWidth exch def currentpoint nXOfs 0 rmoveto pum nWidth aString stringwidth pop div 1 scale aString show pom moveto} bdef
%%EndResource
%%EndProlog
%%BeginSetup
%%EndSetup
%%Page: 1 1
%%BeginPageSetup
%%EndPageSetup
pum
0.02831 0.02829 s 
0 -8870 t
/tm matrix currentmatrix def
tm setmatrix
-4545 -3783 t 
1 1 s 

pum
7422 12182 t
0.316 0.316 0.316 c 42 0 m  42 -330 l  92 -330 l  92 -283 l  102 -299 116 -312 133 -322 ct 
150 -332 170 -337 192 -337 ct 216 -337 236 -332 252 -322 ct 267 -312 278 -297 285 -279 ct 
311 -318 345 -337 386 -337 ct 419 -337 444 -328 462 -310 ct 479 -292 488 -264 488 -226 ct 
488 0 l  433 0 l  433 -208 l  433 -230 431 -246 427 -256 ct 424 -266 417 -274 407 -280 ct 
398 -286 387 -289 374 -289 ct 351 -289 332 -281 316 -265 ct 301 -250 293 -225 293 -191 ct 
293 0 l  238 0 l  238 -214 l  238 -239 233 -258 224 -270 ct 215 -282 200 -289 179 -289 ct 
164 -289 149 -284 136 -276 ct 122 -268 113 -256 107 -240 ct 101 -224 98 -201 98 -171 ct 
98 0 l  42 0 l  p ef
pom
pum
7951 12449 t
185 -31 m  185 0 l  11 0 l  11 -8 12 -15 15 -22 ct 19 -34 26 -46 36 -57 ct 46 -69 60 -82 79 -97 ct 
107 -121 127 -139 137 -153 ct 147 -167 152 -180 152 -192 ct 152 -204 147 -215 138 -224 ct 
129 -233 117 -237 102 -237 ct 86 -237 74 -233 65 -223 ct 55 -214 51 -201 51 -185 ct 
17 -188 l  20 -213 28 -232 43 -245 ct 58 -258 78 -264 103 -264 ct 128 -264 148 -257 163 -243 ct 
178 -229 185 -212 185 -191 ct 185 -181 183 -170 178 -160 ct 174 -150 167 -139 157 -128 ct 
147 -117 130 -101 107 -82 ct 88 -65 75 -54 70 -49 ct 64 -43 60 -37 56 -31 ct 185 -31 l 
p ef
pom

pum
5221 12182 t
42 0 m  42 -330 l  92 -330 l  92 -283 l  102 -299 116 -312 133 -322 ct 150 -332 170 -337 192 -337 ct 
216 -337 236 -332 252 -322 ct 267 -312 278 -297 285 -279 ct 311 -318 345 -337 386 -337 ct 
419 -337 444 -328 462 -310 ct 479 -292 488 -264 488 -226 ct 488 0 l  433 0 l 
433 -208 l  433 -230 431 -246 427 -256 ct 424 -266 417 -274 407 -280 ct 398 -286 387 -289 374 -289 ct 
351 -289 332 -281 316 -265 ct 301 -250 293 -225 293 -191 ct 293 0 l  238 0 l 
238 -214 l  238 -239 233 -258 224 -270 ct 215 -282 200 -289 179 -289 ct 164 -289 149 -284 136 -276 ct 
122 -268 113 -256 107 -240 ct 101 -224 98 -201 98 -171 ct 98 0 l  42 0 l  p ef
pom
pum
5750 12449 t
137 0 m  105 0 l  105 -206 l  97 -199 87 -191 74 -184 ct 61 -176 50 -171 40 -167 ct 
40 -198 l  58 -207 74 -217 88 -229 ct 101 -241 111 -253 116 -264 ct 137 -264 l 
137 0 l  p ef
pom

pum
9778 12182 t
42 0 m  42 -330 l  92 -330 l  92 -283 l  102 -299 116 -312 133 -322 ct 150 -332 170 -337 192 -337 ct 
216 -337 236 -332 252 -322 ct 267 -312 278 -297 285 -279 ct 311 -318 345 -337 386 -337 ct 
419 -337 444 -328 462 -310 ct 479 -292 488 -264 488 -226 ct 488 0 l  433 0 l 
433 -208 l  433 -230 431 -246 427 -256 ct 424 -266 417 -274 407 -280 ct 398 -286 387 -289 374 -289 ct 
351 -289 332 -281 316 -265 ct 301 -250 293 -225 293 -191 ct 293 0 l  238 0 l 
238 -214 l  238 -239 233 -258 224 -270 ct 215 -282 200 -289 179 -289 ct 164 -289 149 -284 136 -276 ct 
122 -268 113 -256 107 -240 ct 101 -224 98 -201 98 -171 ct 98 0 l  42 0 l  p ef
pom
pum
10307 12449 t
15 -69 m  48 -74 l  52 -55 58 -42 67 -34 ct 76 -26 87 -22 99 -22 ct 115 -22 127 -27 138 -38 ct 
148 -48 154 -61 154 -77 ct 154 -92 149 -104 139 -114 ct 129 -123 117 -128 102 -128 ct 
96 -128 88 -127 79 -124 ct 83 -153 l  85 -153 87 -152 88 -152 ct 102 -152 114 -156 125 -163 ct 
136 -170 142 -181 142 -196 ct 142 -208 138 -218 130 -226 ct 122 -234 111 -237 99 -237 ct 
86 -237 76 -233 67 -226 ct 59 -218 53 -206 51 -190 ct 19 -196 l  23 -217 32 -234 46 -246 ct 
60 -258 77 -264 98 -264 ct 112 -264 126 -261 138 -255 ct 150 -249 159 -240 165 -230 ct 
172 -219 175 -208 175 -196 ct 175 -184 172 -174 166 -165 ct 160 -155 151 -148 139 -142 ct 
154 -139 166 -131 175 -120 ct 184 -109 188 -95 188 -77 ct 188 -55 180 -35 163 -19 ct 
146 -3 125 5 99 5 ct 76 5 57 -2 42 -16 ct 26 -29 18 -47 15 -69 ct p ef
pom

pum
12025 12182 t
42 0 m  42 -330 l  92 -330 l  92 -283 l  102 -299 116 -312 133 -322 ct 150 -332 170 -337 192 -337 ct 
216 -337 236 -332 252 -322 ct 267 -312 278 -297 285 -279 ct 311 -318 345 -337 386 -337 ct 
419 -337 444 -328 462 -310 ct 479 -292 488 -264 488 -226 ct 488 0 l  433 0 l 
433 -208 l  433 -230 431 -246 427 -256 ct 424 -266 417 -274 407 -280 ct 398 -286 387 -289 374 -289 ct 
351 -289 332 -281 316 -265 ct 301 -250 293 -225 293 -191 ct 293 0 l  238 0 l 
238 -214 l  238 -239 233 -258 224 -270 ct 215 -282 200 -289 179 -289 ct 164 -289 149 -284 136 -276 ct 
122 -268 113 -256 107 -240 ct 101 -224 98 -201 98 -171 ct 98 0 l  42 0 l  p ef
pom
pum
12554 12449 t
119 0 m  119 -63 l  5 -63 l  5 -93 l  125 -263 l  151 -263 l  151 -93 l 
187 -93 l  187 -63 l  151 -63 l  151 0 l  119 0 l  p
119 -93 m  119 -211 l  36 -93 l  119 -93 l  p ef
pom
0.812 0.906 0.960 c 5459 11427 m  4570 11427 l  4570 8887 l  6348 8887 l 
6348 11427 l  5459 11427 l  p ef
51 lw 1 lj 0.503 0.503 0.503 c 5459 11427 m  4570 11427 l  4570 8887 l 
6348 8887 l  6348 11427 l  5459 11427 l  pc
pum
5270 10274 t
0.316 0.316 0.316 c 164 -50 m  172 -1 l  156 2 142 4 130 4 ct 109 4 94 1 82 -6 ct 
71 -12 63 -20 59 -31 ct 54 -41 52 -63 52 -97 ct 52 -287 l  11 -287 l  11 -330 l 
52 -330 l  52 -412 l  108 -445 l  108 -330 l  164 -330 l  164 -287 l  108 -287 l 
108 -94 l  108 -78 109 -68 111 -63 ct 113 -58 116 -55 120 -52 ct 125 -49 131 -48 139 -48 ct 
145 -48 154 -49 164 -50 ct p ef
pom
pum
5448 10541 t
137 0 m  105 0 l  105 -206 l  97 -199 87 -191 74 -184 ct 61 -176 50 -171 40 -167 ct 
40 -198 l  58 -207 74 -217 88 -229 ct 101 -241 111 -253 116 -264 ct 137 -264 l 
137 0 l  p ef
pom

0.601 0.800 1.000 c 5459 8887 m  4570 8887 l  4570 7618 l  6348 7618 l 
6348 8887 l  5459 8887 l  p ef
0.503 0.503 0.503 c 5459 8887 m  4570 8887 l  4570 7618 l  6348 7618 l 
6348 8887 l  5459 8887 l  pc
pum
5270 8369 t
0.316 0.316 0.316 c 164 -50 m  172 -1 l  156 2 142 4 130 4 ct 109 4 94 1 82 -6 ct 
71 -12 63 -20 59 -31 ct 54 -41 52 -63 52 -97 ct 52 -287 l  11 -287 l  11 -330 l 
52 -330 l  52 -412 l  108 -445 l  108 -330 l  164 -330 l  164 -287 l  108 -287 l 
108 -94 l  108 -78 109 -68 111 -63 ct 113 -58 116 -55 120 -52 ct 125 -49 131 -48 139 -48 ct 
145 -48 154 -49 164 -50 ct p ef
pom
pum
5448 8636 t
185 -31 m  185 0 l  11 0 l  11 -8 12 -15 15 -22 ct 19 -34 26 -46 36 -57 ct 46 -69 60 -82 79 -97 ct 
107 -121 127 -139 137 -153 ct 147 -167 152 -180 152 -192 ct 152 -204 147 -215 138 -224 ct 
129 -233 117 -237 102 -237 ct 86 -237 74 -233 65 -223 ct 55 -214 51 -201 51 -185 ct 
17 -188 l  20 -213 28 -232 43 -245 ct 58 -258 78 -264 103 -264 ct 128 -264 148 -257 163 -243 ct 
178 -229 185 -212 185 -191 ct 185 -181 183 -170 178 -160 ct 174 -150 167 -139 157 -128 ct 
147 -117 130 -101 107 -82 ct 88 -65 75 -54 70 -49 ct 64 -43 60 -37 56 -31 ct 185 -31 l 
p ef
pom

0.003 0.722 1.000 c 5459 7618 m  4570 7618 l  4570 4824 l  6348 4824 l  6348 7618 l 
5459 7618 l  p ef
0.503 0.503 0.503 c 5459 7618 m  4570 7618 l  4570 4824 l  6348 4824 l 
6348 7618 l  5459 7618 l  pc
pum
5270 6338 t
0.316 0.316 0.316 c 164 -50 m  172 -1 l  156 2 142 4 130 4 ct 109 4 94 1 82 -6 ct 
71 -12 63 -20 59 -31 ct 54 -41 52 -63 52 -97 ct 52 -287 l  11 -287 l  11 -330 l 
52 -330 l  52 -412 l  108 -445 l  108 -330 l  164 -330 l  164 -287 l  108 -287 l 
108 -94 l  108 -78 109 -68 111 -63 ct 113 -58 116 -55 120 -52 ct 125 -49 131 -48 139 -48 ct 
145 -48 154 -49 164 -50 ct p ef
pom
pum
5448 6605 t
15 -69 m  48 -74 l  52 -55 58 -42 67 -34 ct 76 -26 87 -22 99 -22 ct 115 -22 127 -27 138 -38 ct 
148 -48 154 -61 154 -77 ct 154 -92 149 -104 139 -114 ct 129 -123 117 -128 102 -128 ct 
96 -128 88 -127 79 -124 ct 83 -153 l  85 -153 87 -152 88 -152 ct 102 -152 114 -156 125 -163 ct 
136 -170 142 -181 142 -196 ct 142 -208 138 -218 130 -226 ct 122 -234 111 -237 99 -237 ct 
86 -237 76 -233 67 -226 ct 59 -218 53 -206 51 -190 ct 19 -196 l  23 -217 32 -234 46 -246 ct 
60 -258 77 -264 98 -264 ct 112 -264 126 -261 138 -255 ct 150 -249 159 -240 165 -230 ct 
172 -219 175 -208 175 -196 ct 175 -184 172 -174 166 -165 ct 160 -155 151 -148 139 -142 ct 
154 -139 166 -131 175 -120 ct 184 -109 188 -95 188 -77 ct 188 -55 180 -35 163 -19 ct 
146 -3 125 5 99 5 ct 76 5 57 -2 42 -16 ct 26 -29 18 -47 15 -69 ct p ef
pom

0.812 0.906 0.960 c 7668 11427 m  6779 11427 l  6779 9649 l  8557 9649 l 
8557 11427 l  7668 11427 l  p ef
0.503 0.503 0.503 c 7668 11427 m  6779 11427 l  6779 9649 l  8557 9649 l 
8557 11427 l  7668 11427 l  pc
pum
7478 10655 t
0.316 0.316 0.316 c 164 -50 m  172 -1 l  156 2 142 4 130 4 ct 109 4 94 1 82 -6 ct 
71 -12 63 -20 59 -31 ct 54 -41 52 -63 52 -97 ct 52 -287 l  11 -287 l  11 -330 l 
52 -330 l  52 -412 l  108 -445 l  108 -330 l  164 -330 l  164 -287 l  108 -287 l 
108 -94 l  108 -78 109 -68 111 -63 ct 113 -58 116 -55 120 -52 ct 125 -49 131 -48 139 -48 ct 
145 -48 154 -49 164 -50 ct p ef
pom
pum
7656 10922 t
119 0 m  119 -63 l  5 -63 l  5 -93 l  125 -263 l  151 -263 l  151 -93 l 
187 -93 l  187 -63 l  151 -63 l  151 0 l  119 0 l  p
119 -93 m  119 -211 l  36 -93 l  119 -93 l  p ef
pom

0.601 0.800 1.000 c 7668 9649 m  6779 9649 l  6779 5586 l  8557 5586 l 
8557 9649 l  7668 9649 l  p ef
0.503 0.503 0.503 c 7668 9649 m  6779 9649 l  6779 5586 l  8557 5586 l 
8557 9649 l  7668 9649 l  pc
pum
7478 7734 t
0.316 0.316 0.316 c 164 -50 m  172 -1 l  156 2 142 4 130 4 ct 109 4 94 1 82 -6 ct 
71 -12 63 -20 59 -31 ct 54 -41 52 -63 52 -97 ct 52 -287 l  11 -287 l  11 -330 l 
52 -330 l  52 -412 l  108 -445 l  108 -330 l  164 -330 l  164 -287 l  108 -287 l 
108 -94 l  108 -78 109 -68 111 -63 ct 113 -58 116 -55 120 -52 ct 125 -49 131 -48 139 -48 ct 
145 -48 154 -49 164 -50 ct p ef
pom
pum
7656 8001 t
15 -69 m  49 -72 l  52 -56 58 -43 67 -35 ct 76 -27 87 -23 100 -23 ct 115 -23 129 -28 139 -40 ct 
150 -52 156 -67 156 -87 ct 156 -105 150 -120 140 -130 ct 130 -141 116 -146 99 -146 ct 
89 -146 80 -144 71 -139 ct 63 -135 56 -129 51 -121 ct 21 -125 l  47 -260 l  178 -260 l 
178 -229 l  72 -229 l  58 -158 l  74 -170 91 -175 108 -175 ct 131 -175 150 -167 166 -151 ct 
182 -135 190 -115 190 -90 ct 190 -66 183 -45 169 -28 ct 152 -7 129 4 100 4 ct 76 4 56 -3 41 -16 ct 
26 -30 17 -47 15 -69 ct p ef
pom

0.812 0.906 0.960 c 10030 11427 m  9141 11427 l  9141 8126 l  10919 8126 l 
10919 11427 l  10030 11427 l  p ef
0.503 0.503 0.503 c 10030 11427 m  9141 11427 l  9141 8126 l  10919 8126 l 
10919 11427 l  10030 11427 l  pc
pum
9841 9893 t
0.316 0.316 0.316 c 164 -50 m  172 -1 l  156 2 142 4 130 4 ct 109 4 94 1 82 -6 ct 
71 -12 63 -20 59 -31 ct 54 -41 52 -63 52 -97 ct 52 -287 l  11 -287 l  11 -330 l 
52 -330 l  52 -412 l  108 -445 l  108 -330 l  164 -330 l  164 -287 l  108 -287 l 
108 -94 l  108 -78 109 -68 111 -63 ct 113 -58 116 -55 120 -52 ct 125 -49 131 -48 139 -48 ct 
145 -48 154 -49 164 -50 ct p ef
pom
pum
10019 10160 t
183 -199 m  151 -197 l  148 -209 144 -219 139 -225 ct 130 -234 119 -238 106 -238 ct 
96 -238 87 -236 79 -230 ct 69 -222 61 -211 55 -197 ct 49 -183 46 -162 46 -136 ct 
54 -148 63 -157 75 -162 ct 86 -168 98 -171 110 -171 ct 132 -171 150 -163 165 -147 ct 
180 -131 188 -111 188 -86 ct 188 -69 184 -54 177 -40 ct 170 -26 160 -15 148 -7 ct 
135 0 121 4 105 4 ct 78 4 56 -6 39 -26 ct 22 -46 14 -78 14 -124 ct 14 -175 23 -212 42 -235 ct 
58 -255 81 -265 108 -265 ct 129 -265 146 -259 159 -248 ct 173 -236 180 -220 183 -199 ct 
p
51 -86 m  51 -75 53 -64 58 -54 ct 63 -44 69 -36 78 -31 ct 87 -25 95 -23 105 -23 ct 
118 -23 130 -28 140 -39 ct 150 -50 155 -65 155 -84 ct 155 -102 150 -116 140 -127 ct 
130 -137 118 -142 104 -142 ct 89 -142 76 -137 66 -127 ct 56 -116 51 -103 51 -86 ct 
p ef
pom

0.601 0.800 1.000 c 10030 8126 m  9141 8126 l  9141 6602 l  10919 6602 l 
10919 8126 l  10030 8126 l  p ef
0.503 0.503 0.503 c 10030 8126 m  9141 8126 l  9141 6602 l  10919 6602 l 
10919 8126 l  10030 8126 l  pc
pum
9841 7480 t
0.316 0.316 0.316 c 164 -50 m  172 -1 l  156 2 142 4 130 4 ct 109 4 94 1 82 -6 ct 
71 -12 63 -20 59 -31 ct 54 -41 52 -63 52 -97 ct 52 -287 l  11 -287 l  11 -330 l 
52 -330 l  52 -412 l  108 -445 l  108 -330 l  164 -330 l  164 -287 l  108 -287 l 
108 -94 l  108 -78 109 -68 111 -63 ct 113 -58 116 -55 120 -52 ct 125 -49 131 -48 139 -48 ct 
145 -48 154 -49 164 -50 ct p ef
pom
pum
10019 7747 t
17 -229 m  17 -260 l  188 -260 l  188 -235 l  171 -217 155 -193 138 -164 ct 
122 -134 109 -104 100 -73 ct 93 -51 89 -27 88 -1 ct 54 -1 l  55 -21 59 -46 66 -75 ct 
74 -105 85 -133 100 -160 ct 115 -187 130 -210 146 -229 ct 17 -229 l  p ef
pom

0.812 0.906 0.960 c 12316 11427 m  11427 11427 l  11427 9141 l  13204 9141 l 
13204 11427 l  12316 11427 l  p ef
0.503 0.503 0.503 c 12316 11427 m  11427 11427 l  11427 9141 l  13204 9141 l 
13204 11427 l  12316 11427 l  pc
pum
12126 10401 t
0.316 0.316 0.316 c 164 -50 m  172 -1 l  156 2 142 4 130 4 ct 109 4 94 1 82 -6 ct 
71 -12 63 -20 59 -31 ct 54 -41 52 -63 52 -97 ct 52 -287 l  11 -287 l  11 -330 l 
52 -330 l  52 -412 l  108 -445 l  108 -330 l  164 -330 l  164 -287 l  108 -287 l 
108 -94 l  108 -78 109 -68 111 -63 ct 113 -58 116 -55 120 -52 ct 125 -49 131 -48 139 -48 ct 
145 -48 154 -49 164 -50 ct p ef
pom
pum
12304 10668 t
65 -143 m  52 -148 42 -155 35 -164 ct 29 -173 26 -184 26 -197 ct 26 -216 32 -232 46 -245 ct 
60 -258 78 -265 101 -265 ct 124 -265 143 -258 157 -245 ct 171 -232 178 -215 178 -196 ct 
178 -184 175 -173 168 -164 ct 162 -155 152 -148 139 -143 ct 155 -138 167 -129 176 -118 ct 
184 -106 189 -92 189 -76 ct 189 -53 181 -34 165 -19 ct 149 -4 128 4 102 4 ct 76 4 55 -4 39 -19 ct 
23 -34 15 -54 15 -76 ct 15 -94 19 -108 28 -119 ct 37 -131 49 -139 65 -143 ct p
59 -198 m  59 -185 63 -175 71 -167 ct 79 -159 89 -155 102 -155 ct 114 -155 125 -159 133 -167 ct 
140 -175 144 -185 144 -196 ct 144 -208 140 -218 132 -226 ct 124 -234 114 -238 102 -238 ct 
89 -238 79 -234 71 -227 ct 63 -219 59 -209 59 -198 ct p
48 -76 m  48 -67 50 -58 55 -50 ct 59 -41 66 -34 74 -30 ct 83 -25 92 -23 102 -23 ct 
118 -23 130 -28 140 -37 ct 150 -47 155 -60 155 -75 ct 155 -91 150 -104 140 -114 ct 
130 -124 117 -129 101 -129 ct 86 -129 73 -124 63 -114 ct 53 -104 48 -91 48 -76 ct 
p ef
pom

0.601 0.800 1.000 c 12316 9141 m  11427 9141 l  11427 6856 l  13204 6856 l 
13204 9141 l  12316 9141 l  p ef
0.503 0.503 0.503 c 12316 9141 m  11427 9141 l  11427 6856 l  13204 6856 l 
13204 9141 l  12316 9141 l  pc
pum
12126 8115 t
0.316 0.316 0.316 c 164 -50 m  172 -1 l  156 2 142 4 130 4 ct 109 4 94 1 82 -6 ct 
71 -12 63 -20 59 -31 ct 54 -41 52 -63 52 -97 ct 52 -287 l  11 -287 l  11 -330 l 
52 -330 l  52 -412 l  108 -445 l  108 -330 l  164 -330 l  164 -287 l  108 -287 l 
108 -94 l  108 -78 109 -68 111 -63 ct 113 -58 116 -55 120 -52 ct 125 -49 131 -48 139 -48 ct 
145 -48 154 -49 164 -50 ct p ef
pom
pum
12304 8382 t
20 -61 m  51 -64 l  54 -50 59 -39 66 -32 ct 74 -26 83 -23 95 -23 ct 105 -23 114 -25 121 -29 ct 
129 -34 135 -40 139 -48 ct 144 -55 148 -65 151 -78 ct 155 -91 156 -104 156 -118 ct 
156 -119 156 -121 156 -124 ct 150 -114 141 -105 130 -99 ct 118 -93 106 -89 93 -89 ct 
71 -89 53 -97 38 -113 ct 23 -129 15 -150 15 -176 ct 15 -202 23 -224 39 -240 ct 
55 -257 74 -265 98 -265 ct 115 -265 131 -260 145 -251 ct 159 -242 170 -229 177 -212 ct 
185 -194 189 -170 189 -137 ct 189 -104 185 -77 178 -57 ct 170 -37 159 -22 145 -12 ct 
130 -1 114 4 94 4 ct 74 4 57 -2 44 -13 ct 31 -25 23 -41 20 -61 ct p
153 -177 m  153 -196 148 -211 138 -222 ct 128 -233 116 -238 102 -238 ct 88 -238 75 -232 65 -220 ct 
54 -209 49 -193 49 -175 ct 49 -158 54 -144 64 -134 ct 74 -123 86 -118 101 -118 ct 
116 -118 128 -123 138 -134 ct 148 -144 153 -159 153 -177 ct p ef
pom

0.003 0.722 1.000 c 12316 6856 m  11427 6856 l  11427 3809 l  13204 3809 l 
13204 6856 l  12316 6856 l  p ef
0.503 0.503 0.503 c 12316 6856 m  11427 6856 l  11427 3809 l  13204 3809 l 
13204 6856 l  12316 6856 l  pc
pum
12024 5449 t
0.316 0.316 0.316 c 164 -50 m  172 -1 l  156 2 142 4 130 4 ct 109 4 94 1 82 -6 ct 
71 -12 63 -20 59 -31 ct 54 -41 52 -63 52 -97 ct 52 -287 l  11 -287 l  11 -330 l 
52 -330 l  52 -412 l  108 -445 l  108 -330 l  164 -330 l  164 -287 l  108 -287 l 
108 -94 l  108 -78 109 -68 111 -63 ct 113 -58 116 -55 120 -52 ct 125 -49 131 -48 139 -48 ct 
145 -48 154 -49 164 -50 ct p ef
pom
pum
12202 5716 t
137 0 m  105 0 l  105 -206 l  97 -199 87 -191 74 -184 ct 61 -176 50 -171 40 -167 ct 
40 -198 l  58 -207 74 -217 88 -229 ct 101 -241 111 -253 116 -264 ct 137 -264 l 
137 0 l  p ef
218 -130 m  218 -161 221 -186 228 -205 ct 234 -224 244 -239 256 -249 ct 269 -260 285 -265 304 -265 ct 
318 -265 331 -262 341 -256 ct 352 -251 361 -242 368 -232 ct 375 -221 380 -208 384 -192 ct 
388 -177 390 -156 390 -130 ct 390 -99 387 -74 381 -56 ct 374 -37 365 -22 352 -12 ct 
339 -1 323 4 304 4 ct 279 4 259 -5 244 -23 ct 227 -45 218 -81 218 -130 ct p
252 -130 m  252 -87 257 -58 267 -44 ct 277 -30 289 -23 304 -23 ct 319 -23 332 -30 342 -44 ct 
352 -58 357 -87 357 -130 ct 357 -174 352 -202 342 -217 ct 332 -231 319 -238 304 -238 ct 
289 -238 277 -232 268 -219 ct 257 -203 252 -173 252 -130 ct p ef
pom

0.003 0.003 0.003 c 4570 11427 m  13204 11427 l  ps
0 8870 t 
pom
count op_count sub {pop} repeat countdictstack dict_count sub {end} repeat b4_inc_state restore
%%PageTrailer
%%Trailer
%%EOF
