%!PS-Adobe-3.0 EPSF-3.0 
%%BoundingBox: 0 0 121 153
%%Pages: 0
%%Creator: LibreOffice 3.6
%%Title: none
%%CreationDate: none
%%LanguageLevel: 2
%%EndComments
%%BeginProlog
%%BeginResource: procset SDRes-Prolog 1.0 0
/b4_inc_state save def
/dict_count countdictstack def
/op_count count 1 sub def
userdict begin
0 setgray 0 setlinecap 1 setlinewidth 0 setlinejoin 10 setmiterlimit[] 0 setdash newpath
/languagelevel where {pop languagelevel 1 ne {false setstrokeadjust false setoverprint} if} if
/bdef {bind def} bind def
/c {setrgbcolor} bdef
/l {neg lineto} bdef
/rl {neg rlineto} bdef
/lc {setlinecap} bdef
/lj {setlinejoin} bdef
/lw {setlinewidth} bdef
/ml {setmiterlimit} bdef
/ld {setdash} bdef
/m {neg moveto} bdef
/ct {6 2 roll neg 6 2 roll neg 6 2 roll neg curveto} bdef
/r {rotate} bdef
/t {neg translate} bdef
/s {scale} bdef
/sw {show} bdef
/gs {gsave} bdef
/gr {grestore} bdef
/f {findfont dup length dict begin
{1 index /FID ne {def} {pop pop} ifelse} forall /Encoding ISOLatin1Encoding def
currentdict end /NFont exch definefont pop /NFont findfont} bdef
/p {closepath} bdef
/sf {scalefont setfont} bdef
/ef {eofill}bdef
/pc {closepath stroke}bdef
/ps {stroke}bdef
/pum {matrix currentmatrix}bdef
/pom {setmatrix}bdef
/bs {/aString exch def /nXOfs exch def /nWidth exch def currentpoint nXOfs 0 rmoveto pum nWidth aString stringwidth pop div 1 scale aString show pom moveto} bdef
%%EndResource
%%EndProlog
%%BeginSetup
%%EndSetup
%%Page: 1 1
%%BeginPageSetup
%%EndPageSetup
pum
0.02837 0.02834 s 
0 -5398 t
/tm matrix currentmatrix def
tm setmatrix
-11182 -4171 t 
1 1 s 
1.000 1.000 1.000 c 13277 9567 m  11246 9567 l  11246 4172 l  15308 4172 l 
15308 9567 l  13277 9567 l  p ef
0 lw 1 lj 13277 9567 m  11246 9567 l  11246 4172 l  15308 4172 l  15308 9567 l 
13277 9567 l  pc

12446 8283 m  12033 8283 l  12033 7458 l  12858 7458 l  12858 8283 l  12446 8283 l 
p ef
51 lw 0.503 0.503 0.503 c 12446 8283 m  12033 8283 l  12033 7458 l  12858 7458 l 
12858 8283 l  12446 8283 l  pc
pum
12181 7955 t
0.105 0.105 0.105 c 30 0 m  30 -239 l  66 -239 l  66 -205 l  74 -217 84 -226 96 -233 ct 
109 -240 123 -244 139 -244 ct 156 -244 171 -240 182 -233 ct 193 -226 201 -215 206 -202 ct 
225 -230 249 -244 279 -244 ct 303 -244 321 -237 334 -224 ct 346 -211 353 -191 353 -164 ct 
353 0 l  313 0 l  313 -150 l  313 -166 311 -178 309 -185 ct 306 -192 301 -198 295 -202 ct 
288 -207 280 -209 270 -209 ct 254 -209 240 -203 229 -192 ct 218 -181 212 -163 212 -139 ct 
212 0 l  172 0 l  172 -155 l  172 -173 168 -186 162 -195 ct 155 -204 144 -209 130 -209 ct 
118 -209 108 -206 98 -200 ct 88 -194 81 -185 77 -174 ct 73 -162 71 -146 71 -124 ct 
71 0 l  30 0 l  p ef
pom
pum
12562 8147 t
11 -51 m  35 -54 l  37 -40 42 -31 48 -25 ct 55 -19 63 -16 72 -16 ct 83 -16 92 -20 100 -28 ct 
107 -35 111 -45 111 -56 ct 111 -67 108 -76 101 -83 ct 94 -90 85 -93 74 -93 ct 69 -93 64 -92 57 -90 ct 
60 -111 l  61 -111 63 -111 64 -111 ct 74 -111 83 -113 91 -118 ct 99 -124 102 -132 102 -142 ct 
102 -151 100 -158 94 -164 ct 88 -169 80 -172 71 -172 ct 62 -172 55 -169 49 -163 ct 
43 -158 39 -149 37 -138 ct 14 -142 l  16 -158 23 -170 33 -178 ct 43 -187 56 -191 71 -191 ct 
81 -191 91 -189 99 -185 ct 108 -180 115 -174 120 -166 ct 124 -159 127 -151 127 -142 ct 
127 -134 124 -126 120 -119 ct 115 -113 109 -107 100 -103 ct 112 -101 120 -95 127 -87 ct 
133 -79 136 -69 136 -57 ct 136 -40 130 -26 118 -14 ct 106 -3 90 3 72 3 ct 55 3 41 -2 30 -12 ct 
19 -22 13 -35 11 -51 ct p ef
pom

1.000 1.000 1.000 c 11620 8282 m  11207 8282 l  11207 7458 l  12033 7458 l 
12033 8282 l  11620 8282 l  p ef
0.503 0.503 0.503 c 11620 8282 m  11207 8282 l  11207 7458 l  12033 7458 l 
12033 8282 l  11620 8282 l  pc
pum
11356 7954 t
0.105 0.105 0.105 c 30 0 m  30 -239 l  66 -239 l  66 -205 l  74 -217 84 -226 96 -233 ct 
109 -240 123 -244 139 -244 ct 156 -244 171 -240 182 -233 ct 193 -226 201 -215 206 -202 ct 
225 -230 249 -244 279 -244 ct 303 -244 321 -237 334 -224 ct 346 -211 353 -191 353 -164 ct 
353 0 l  313 0 l  313 -150 l  313 -166 311 -178 309 -185 ct 306 -192 301 -198 295 -202 ct 
288 -207 280 -209 270 -209 ct 254 -209 240 -203 229 -192 ct 218 -181 212 -163 212 -139 ct 
212 0 l  172 0 l  172 -155 l  172 -173 168 -186 162 -195 ct 155 -204 144 -209 130 -209 ct 
118 -209 108 -206 98 -200 ct 88 -194 81 -185 77 -174 ct 73 -162 71 -146 71 -124 ct 
71 0 l  30 0 l  p ef
pom
pum
11736 8147 t
99 0 m  76 0 l  76 -149 l  70 -144 63 -138 54 -133 ct 44 -127 36 -123 29 -121 ct 
29 -143 l  42 -149 53 -157 63 -166 ct 73 -174 80 -183 84 -191 ct 99 -191 l  99 0 l 
p ef
pom

1.000 1.000 1.000 c 14087 8282 m  13674 8282 l  13674 7458 l  14499 7458 l 
14499 8282 l  14087 8282 l  p ef
0.503 0.503 0.503 c 14087 8282 m  13674 8282 l  13674 7458 l  14499 7458 l 
14499 8282 l  14087 8282 l  pc
pum
13823 7954 t
0.105 0.105 0.105 c 30 0 m  30 -239 l  66 -239 l  66 -205 l  74 -217 84 -226 96 -233 ct 
109 -240 123 -244 139 -244 ct 156 -244 171 -240 182 -233 ct 193 -226 201 -215 206 -202 ct 
225 -230 249 -244 279 -244 ct 303 -244 321 -237 334 -224 ct 346 -211 353 -191 353 -164 ct 
353 0 l  313 0 l  313 -150 l  313 -166 311 -178 309 -185 ct 306 -192 301 -198 295 -202 ct 
288 -207 280 -209 270 -209 ct 254 -209 240 -203 229 -192 ct 218 -181 212 -163 212 -139 ct 
212 0 l  172 0 l  172 -155 l  172 -173 168 -186 162 -195 ct 155 -204 144 -209 130 -209 ct 
118 -209 108 -206 98 -200 ct 88 -194 81 -185 77 -174 ct 73 -162 71 -146 71 -124 ct 
71 0 l  30 0 l  p ef
pom
pum
14203 8147 t
86 0 m  86 -46 l  3 -46 l  3 -67 l  90 -190 l  109 -190 l  109 -67 l  135 -67 l 
135 -46 l  109 -46 l  109 0 l  86 0 l  p
86 -67 m  86 -153 l  26 -67 l  86 -67 l  p ef
pom


pum
11523 8885 t
118 -36 m  124 -1 l  113 2 103 3 94 3 ct 79 3 68 1 60 -4 ct 52 -9 46 -15 43 -22 ct 
39 -30 38 -46 38 -70 ct 38 -208 l  8 -208 l  8 -239 l  38 -239 l  38 -298 l 
78 -322 l  78 -239 l  118 -239 l  118 -208 l  78 -208 l  78 -68 l  78 -56 78 -49 80 -46 ct 
81 -42 84 -40 87 -38 ct 90 -36 95 -35 101 -35 ct 105 -35 111 -35 118 -36 ct p ef
pom
pum
11650 9078 t
11 -50 m  36 -52 l  37 -40 42 -31 48 -25 ct 55 -19 63 -16 72 -16 ct 83 -16 93 -20 101 -29 ct 
109 -37 112 -49 112 -63 ct 112 -76 109 -87 101 -94 ct 94 -102 84 -106 72 -106 ct 
64 -106 58 -104 51 -101 ct 45 -97 41 -93 37 -88 ct 15 -90 l  34 -188 l  128 -188 l 
128 -166 l  52 -166 l  42 -115 l  54 -123 66 -127 78 -127 ct 95 -127 109 -121 120 -109 ct 
132 -98 137 -83 137 -65 ct 137 -48 132 -33 122 -20 ct 110 -5 93 3 72 3 ct 55 3 41 -2 30 -12 ct 
19 -21 13 -34 11 -50 ct p ef
pom

pum
12379 8922 t
118 -36 m  124 -1 l  113 2 103 3 94 3 ct 79 3 68 1 60 -4 ct 52 -9 46 -15 43 -22 ct 
39 -30 38 -46 38 -70 ct 38 -208 l  8 -208 l  8 -239 l  38 -239 l  38 -298 l 
78 -322 l  78 -239 l  118 -239 l  118 -208 l  78 -208 l  78 -68 l  78 -56 78 -49 80 -46 ct 
81 -42 84 -40 87 -38 ct 90 -36 95 -35 101 -35 ct 105 -35 111 -35 118 -36 ct p ef
pom
pum
12506 9115 t
132 -144 m  109 -142 l  107 -151 104 -158 100 -162 ct 94 -169 86 -172 77 -172 ct 
69 -172 63 -170 57 -166 ct 50 -160 44 -153 40 -142 ct 36 -132 33 -117 33 -98 ct 
39 -107 46 -113 54 -117 ct 62 -122 71 -124 79 -124 ct 95 -124 108 -118 119 -106 ct 
130 -95 136 -80 136 -62 ct 136 -50 133 -39 128 -29 ct 123 -18 116 -11 107 -5 ct 
98 0 88 3 76 3 ct 57 3 41 -4 28 -18 ct 16 -33 10 -56 10 -89 ct 10 -126 17 -153 30 -169 ct 
42 -184 58 -191 78 -191 ct 93 -191 106 -187 115 -179 ct 125 -170 130 -159 132 -144 ct 
p
37 -62 m  37 -54 39 -46 42 -39 ct 45 -31 50 -26 56 -22 ct 63 -18 69 -16 76 -16 ct 
86 -16 94 -20 101 -28 ct 108 -36 112 -47 112 -61 ct 112 -74 108 -84 101 -92 ct 
94 -99 85 -103 75 -103 ct 64 -103 55 -99 48 -92 ct 41 -84 37 -74 37 -62 ct p ef
pom

pum
14011 8885 t
118 -36 m  124 -1 l  113 2 103 3 94 3 ct 79 3 68 1 60 -4 ct 52 -9 46 -15 43 -22 ct 
39 -30 38 -46 38 -70 ct 38 -208 l  8 -208 l  8 -239 l  38 -239 l  38 -298 l 
78 -322 l  78 -239 l  118 -239 l  118 -208 l  78 -208 l  78 -68 l  78 -56 78 -49 80 -46 ct 
81 -42 84 -40 87 -38 ct 90 -36 95 -35 101 -35 ct 105 -35 111 -35 118 -36 ct p ef
pom
pum
14138 9078 t
47 -103 m  37 -107 30 -112 25 -118 ct 21 -125 18 -133 18 -142 ct 18 -156 23 -168 33 -177 ct 
43 -186 57 -191 73 -191 ct 90 -191 103 -186 113 -177 ct 123 -167 128 -155 128 -141 ct 
128 -133 126 -125 122 -118 ct 117 -112 110 -107 100 -103 ct 112 -99 121 -93 127 -85 ct 
133 -76 136 -66 136 -54 ct 136 -38 130 -25 119 -14 ct 107 -3 92 3 74 3 ct 55 3 40 -3 28 -14 ct 
17 -25 11 -39 11 -55 ct 11 -67 14 -78 20 -86 ct 26 -94 35 -100 47 -103 ct p
42 -143 m  42 -134 45 -126 51 -121 ct 57 -115 64 -112 74 -112 ct 83 -112 90 -115 96 -121 ct 
102 -126 104 -133 104 -142 ct 104 -150 101 -157 96 -163 ct 90 -169 82 -172 73 -172 ct 
64 -172 57 -169 51 -163 ct 45 -158 42 -151 42 -143 ct p
35 -55 m  35 -48 36 -42 40 -36 ct 43 -30 47 -25 54 -21 ct 60 -18 67 -16 74 -16 ct 
85 -16 94 -20 101 -27 ct 109 -34 112 -43 112 -54 ct 112 -65 109 -75 101 -82 ct 
94 -89 84 -93 73 -93 ct 62 -93 53 -89 46 -82 ct 38 -75 35 -66 35 -55 ct p ef
pom
1.000 1.000 1.000 c 13270 8283 m  12857 8283 l  12857 7458 l  13683 7458 l 
13683 8283 l  13270 8283 l  p ef
0.503 0.503 0.503 c 13270 8283 m  12857 8283 l  12857 7458 l  13683 7458 l 
13683 8283 l  13270 8283 l  pc
pum
13006 7955 t
0.105 0.105 0.105 c 30 0 m  30 -239 l  66 -239 l  66 -205 l  74 -217 84 -226 96 -233 ct 
109 -240 123 -244 139 -244 ct 156 -244 171 -240 182 -233 ct 193 -226 201 -215 206 -202 ct 
225 -230 249 -244 279 -244 ct 303 -244 321 -237 334 -224 ct 346 -211 353 -191 353 -164 ct 
353 0 l  313 0 l  313 -150 l  313 -166 311 -178 309 -185 ct 306 -192 301 -198 295 -202 ct 
288 -207 280 -209 270 -209 ct 254 -209 240 -203 229 -192 ct 218 -181 212 -163 212 -139 ct 
212 0 l  172 0 l  172 -155 l  172 -173 168 -186 162 -195 ct 155 -204 144 -209 130 -209 ct 
118 -209 108 -206 98 -200 ct 88 -194 81 -185 77 -174 ct 73 -162 71 -146 71 -124 ct 
71 0 l  30 0 l  p ef
pom
pum
13387 8147 t
86 0 m  86 -46 l  3 -46 l  3 -67 l  90 -190 l  109 -190 l  109 -67 l  135 -67 l 
135 -46 l  109 -46 l  109 0 l  86 0 l  p
86 -67 m  86 -153 l  26 -67 l  86 -67 l  p ef
pom


pum
13217 8884 t
118 -36 m  124 -1 l  113 2 103 3 94 3 ct 79 3 68 1 60 -4 ct 52 -9 46 -15 43 -22 ct 
39 -30 38 -46 38 -70 ct 38 -208 l  8 -208 l  8 -239 l  38 -239 l  38 -298 l 
78 -322 l  78 -239 l  118 -239 l  118 -208 l  78 -208 l  78 -68 l  78 -56 78 -49 80 -46 ct 
81 -42 84 -40 87 -38 ct 90 -36 95 -35 101 -35 ct 105 -35 111 -35 118 -36 ct p ef
pom
pum
13344 9077 t
13 -165 m  13 -187 l  136 -187 l  136 -169 l  124 -156 112 -139 100 -118 ct 
88 -96 79 -74 72 -52 ct 68 -36 65 -18 63 1 ct 39 1 l  39 -14 42 -33 48 -54 ct 54 -75 62 -95 72 -115 ct 
83 -135 94 -151 106 -165 ct 13 -165 l  p ef
pom
1.000 1.000 1.000 c 14888 8282 m  14475 8282 l  14475 7458 l  15299 7458 l 
15299 8282 l  14888 8282 l  p ef
0.503 0.503 0.503 c 14888 8282 m  14475 8282 l  14475 7458 l  15299 7458 l 
15299 8282 l  14888 8282 l  pc
pum
14623 7954 t
0.105 0.105 0.105 c 30 0 m  30 -239 l  66 -239 l  66 -205 l  74 -217 84 -226 96 -233 ct 
109 -240 123 -244 139 -244 ct 156 -244 171 -240 182 -233 ct 193 -226 201 -215 206 -202 ct 
225 -230 249 -244 279 -244 ct 303 -244 321 -237 334 -224 ct 346 -211 353 -191 353 -164 ct 
353 0 l  313 0 l  313 -150 l  313 -166 311 -178 309 -185 ct 306 -192 301 -198 295 -202 ct 
288 -207 280 -209 270 -209 ct 254 -209 240 -203 229 -192 ct 218 -181 212 -163 212 -139 ct 
212 0 l  172 0 l  172 -155 l  172 -173 168 -186 162 -195 ct 155 -204 144 -209 130 -209 ct 
118 -209 108 -206 98 -200 ct 88 -194 81 -185 77 -174 ct 73 -162 71 -146 71 -124 ct 
71 0 l  30 0 l  p ef
pom
pum
15004 8147 t
99 0 m  76 0 l  76 -149 l  70 -144 63 -138 54 -133 ct 44 -127 36 -123 29 -121 ct 
29 -143 l  42 -149 53 -157 63 -166 ct 73 -174 80 -183 84 -191 ct 99 -191 l  99 0 l 
p ef
pom

1.000 1.000 1.000 c 12447 5884 m  12034 5884 l  12034 5059 l  12859 5059 l 
12859 5884 l  12447 5884 l  p ef
0.503 0.503 0.503 c 12447 5884 m  12034 5884 l  12034 5059 l  12859 5059 l 
12859 5884 l  12447 5884 l  pc
pum
12182 5556 t
0.105 0.105 0.105 c 30 0 m  30 -239 l  66 -239 l  66 -205 l  74 -217 84 -226 96 -233 ct 
109 -240 123 -244 139 -244 ct 156 -244 171 -240 182 -233 ct 193 -226 201 -215 206 -202 ct 
225 -230 249 -244 279 -244 ct 303 -244 321 -237 334 -224 ct 346 -211 353 -191 353 -164 ct 
353 0 l  313 0 l  313 -150 l  313 -166 311 -178 309 -185 ct 306 -192 301 -198 295 -202 ct 
288 -207 280 -209 270 -209 ct 254 -209 240 -203 229 -192 ct 218 -181 212 -163 212 -139 ct 
212 0 l  172 0 l  172 -155 l  172 -173 168 -186 162 -195 ct 155 -204 144 -209 130 -209 ct 
118 -209 108 -206 98 -200 ct 88 -194 81 -185 77 -174 ct 73 -162 71 -146 71 -124 ct 
71 0 l  30 0 l  p ef
pom
pum
12563 5748 t
134 -22 m  134 0 l  8 0 l  8 -6 9 -11 11 -16 ct 14 -25 19 -33 26 -42 ct 33 -50 43 -59 57 -70 ct 
77 -87 91 -101 99 -111 ct 106 -121 110 -130 110 -139 ct 110 -148 106 -156 100 -162 ct 
93 -168 84 -172 74 -172 ct 63 -172 54 -168 47 -162 ct 40 -155 37 -145 37 -134 ct 
12 -136 l  14 -154 20 -168 31 -177 ct 42 -186 56 -191 74 -191 ct 93 -191 107 -186 118 -176 ct 
128 -166 134 -153 134 -138 ct 134 -131 132 -123 129 -116 ct 126 -108 121 -101 113 -93 ct 
106 -84 94 -73 77 -59 ct 63 -47 54 -39 50 -35 ct 46 -31 43 -27 41 -22 ct 134 -22 l 
p ef
pom

1.000 1.000 1.000 c 11621 5883 m  11208 5883 l  11208 5059 l  12034 5059 l 
12034 5883 l  11621 5883 l  p ef
0.503 0.503 0.503 c 11621 5883 m  11208 5883 l  11208 5059 l  12034 5059 l 
12034 5883 l  11621 5883 l  pc
pum
11357 5555 t
0.105 0.105 0.105 c 30 0 m  30 -239 l  66 -239 l  66 -205 l  74 -217 84 -226 96 -233 ct 
109 -240 123 -244 139 -244 ct 156 -244 171 -240 182 -233 ct 193 -226 201 -215 206 -202 ct 
225 -230 249 -244 279 -244 ct 303 -244 321 -237 334 -224 ct 346 -211 353 -191 353 -164 ct 
353 0 l  313 0 l  313 -150 l  313 -166 311 -178 309 -185 ct 306 -192 301 -198 295 -202 ct 
288 -207 280 -209 270 -209 ct 254 -209 240 -203 229 -192 ct 218 -181 212 -163 212 -139 ct 
212 0 l  172 0 l  172 -155 l  172 -173 168 -186 162 -195 ct 155 -204 144 -209 130 -209 ct 
118 -209 108 -206 98 -200 ct 88 -194 81 -185 77 -174 ct 73 -162 71 -146 71 -124 ct 
71 0 l  30 0 l  p ef
pom
pum
11737 5748 t
99 0 m  76 0 l  76 -149 l  70 -144 63 -138 54 -133 ct 44 -127 36 -123 29 -121 ct 
29 -143 l  42 -149 53 -157 63 -166 ct 73 -174 80 -183 84 -191 ct 99 -191 l  99 0 l 
p ef
pom

1.000 1.000 1.000 c 14088 5883 m  13675 5883 l  13675 5059 l  14500 5059 l 
14500 5883 l  14088 5883 l  p ef
0.503 0.503 0.503 c 14088 5883 m  13675 5883 l  13675 5059 l  14500 5059 l 
14500 5883 l  14088 5883 l  pc
pum
13824 5555 t
0.105 0.105 0.105 c 30 0 m  30 -239 l  66 -239 l  66 -205 l  74 -217 84 -226 96 -233 ct 
109 -240 123 -244 139 -244 ct 156 -244 171 -240 182 -233 ct 193 -226 201 -215 206 -202 ct 
225 -230 249 -244 279 -244 ct 303 -244 321 -237 334 -224 ct 346 -211 353 -191 353 -164 ct 
353 0 l  313 0 l  313 -150 l  313 -166 311 -178 309 -185 ct 306 -192 301 -198 295 -202 ct 
288 -207 280 -209 270 -209 ct 254 -209 240 -203 229 -192 ct 218 -181 212 -163 212 -139 ct 
212 0 l  172 0 l  172 -155 l  172 -173 168 -186 162 -195 ct 155 -204 144 -209 130 -209 ct 
118 -209 108 -206 98 -200 ct 88 -194 81 -185 77 -174 ct 73 -162 71 -146 71 -124 ct 
71 0 l  30 0 l  p ef
pom
pum
14204 5748 t
86 0 m  86 -46 l  3 -46 l  3 -67 l  90 -190 l  109 -190 l  109 -67 l  135 -67 l 
135 -46 l  109 -46 l  109 0 l  86 0 l  p
86 -67 m  86 -153 l  26 -67 l  86 -67 l  p ef
pom


pum
11524 6486 t
118 -36 m  124 -1 l  113 2 103 3 94 3 ct 79 3 68 1 60 -4 ct 52 -9 46 -15 43 -22 ct 
39 -30 38 -46 38 -70 ct 38 -208 l  8 -208 l  8 -239 l  38 -239 l  38 -298 l 
78 -322 l  78 -239 l  118 -239 l  118 -208 l  78 -208 l  78 -68 l  78 -56 78 -49 80 -46 ct 
81 -42 84 -40 87 -38 ct 90 -36 95 -35 101 -35 ct 105 -35 111 -35 118 -36 ct p ef
pom
pum
11651 6679 t
99 0 m  76 0 l  76 -149 l  70 -144 63 -138 54 -133 ct 44 -127 36 -123 29 -121 ct 
29 -143 l  42 -149 53 -157 63 -166 ct 73 -174 80 -183 84 -191 ct 99 -191 l  99 0 l 
p ef
pom

pum
12380 6523 t
118 -36 m  124 -1 l  113 2 103 3 94 3 ct 79 3 68 1 60 -4 ct 52 -9 46 -15 43 -22 ct 
39 -30 38 -46 38 -70 ct 38 -208 l  8 -208 l  8 -239 l  38 -239 l  38 -298 l 
78 -322 l  78 -239 l  118 -239 l  118 -208 l  78 -208 l  78 -68 l  78 -56 78 -49 80 -46 ct 
81 -42 84 -40 87 -38 ct 90 -36 95 -35 101 -35 ct 105 -35 111 -35 118 -36 ct p ef
pom
pum
12507 6716 t
134 -22 m  134 0 l  8 0 l  8 -6 9 -11 11 -16 ct 14 -25 19 -33 26 -42 ct 33 -50 43 -59 57 -70 ct 
77 -87 91 -101 99 -111 ct 106 -121 110 -130 110 -139 ct 110 -148 106 -156 100 -162 ct 
93 -168 84 -172 74 -172 ct 63 -172 54 -168 47 -162 ct 40 -155 37 -145 37 -134 ct 
12 -136 l  14 -154 20 -168 31 -177 ct 42 -186 56 -191 74 -191 ct 93 -191 107 -186 118 -176 ct 
128 -166 134 -153 134 -138 ct 134 -131 132 -123 129 -116 ct 126 -108 121 -101 113 -93 ct 
106 -84 94 -73 77 -59 ct 63 -47 54 -39 50 -35 ct 46 -31 43 -27 41 -22 ct 134 -22 l 
p ef
pom

pum
14012 6486 t
118 -36 m  124 -1 l  113 2 103 3 94 3 ct 79 3 68 1 60 -4 ct 52 -9 46 -15 43 -22 ct 
39 -30 38 -46 38 -70 ct 38 -208 l  8 -208 l  8 -239 l  38 -239 l  38 -298 l 
78 -322 l  78 -239 l  118 -239 l  118 -208 l  78 -208 l  78 -68 l  78 -56 78 -49 80 -46 ct 
81 -42 84 -40 87 -38 ct 90 -36 95 -35 101 -35 ct 105 -35 111 -35 118 -36 ct p ef
pom
pum
14139 6679 t
86 0 m  86 -46 l  3 -46 l  3 -67 l  90 -190 l  109 -190 l  109 -67 l  135 -67 l 
135 -46 l  109 -46 l  109 0 l  86 0 l  p
86 -67 m  86 -153 l  26 -67 l  86 -67 l  p ef
pom
1.000 1.000 1.000 c 13271 5884 m  12858 5884 l  12858 5059 l  13684 5059 l 
13684 5884 l  13271 5884 l  p ef
0.503 0.503 0.503 c 13271 5884 m  12858 5884 l  12858 5059 l  13684 5059 l 
13684 5884 l  13271 5884 l  pc
pum
13007 5556 t
0.105 0.105 0.105 c 30 0 m  30 -239 l  66 -239 l  66 -205 l  74 -217 84 -226 96 -233 ct 
109 -240 123 -244 139 -244 ct 156 -244 171 -240 182 -233 ct 193 -226 201 -215 206 -202 ct 
225 -230 249 -244 279 -244 ct 303 -244 321 -237 334 -224 ct 346 -211 353 -191 353 -164 ct 
353 0 l  313 0 l  313 -150 l  313 -166 311 -178 309 -185 ct 306 -192 301 -198 295 -202 ct 
288 -207 280 -209 270 -209 ct 254 -209 240 -203 229 -192 ct 218 -181 212 -163 212 -139 ct 
212 0 l  172 0 l  172 -155 l  172 -173 168 -186 162 -195 ct 155 -204 144 -209 130 -209 ct 
118 -209 108 -206 98 -200 ct 88 -194 81 -185 77 -174 ct 73 -162 71 -146 71 -124 ct 
71 0 l  30 0 l  p ef
pom
pum
13388 5748 t
134 -22 m  134 0 l  8 0 l  8 -6 9 -11 11 -16 ct 14 -25 19 -33 26 -42 ct 33 -50 43 -59 57 -70 ct 
77 -87 91 -101 99 -111 ct 106 -121 110 -130 110 -139 ct 110 -148 106 -156 100 -162 ct 
93 -168 84 -172 74 -172 ct 63 -172 54 -168 47 -162 ct 40 -155 37 -145 37 -134 ct 
12 -136 l  14 -154 20 -168 31 -177 ct 42 -186 56 -191 74 -191 ct 93 -191 107 -186 118 -176 ct 
128 -166 134 -153 134 -138 ct 134 -131 132 -123 129 -116 ct 126 -108 121 -101 113 -93 ct 
106 -84 94 -73 77 -59 ct 63 -47 54 -39 50 -35 ct 46 -31 43 -27 41 -22 ct 134 -22 l 
p ef
pom


pum
13218 6485 t
118 -36 m  124 -1 l  113 2 103 3 94 3 ct 79 3 68 1 60 -4 ct 52 -9 46 -15 43 -22 ct 
39 -30 38 -46 38 -70 ct 38 -208 l  8 -208 l  8 -239 l  38 -239 l  38 -298 l 
78 -322 l  78 -239 l  118 -239 l  118 -208 l  78 -208 l  78 -68 l  78 -56 78 -49 80 -46 ct 
81 -42 84 -40 87 -38 ct 90 -36 95 -35 101 -35 ct 105 -35 111 -35 118 -36 ct p ef
pom
pum
13345 6678 t
11 -51 m  35 -54 l  37 -40 42 -31 48 -25 ct 55 -19 63 -16 72 -16 ct 83 -16 92 -20 100 -28 ct 
107 -35 111 -45 111 -56 ct 111 -67 108 -76 101 -83 ct 94 -90 85 -93 74 -93 ct 69 -93 64 -92 57 -90 ct 
60 -111 l  61 -111 63 -111 64 -111 ct 74 -111 83 -113 91 -118 ct 99 -124 102 -132 102 -142 ct 
102 -151 100 -158 94 -164 ct 88 -169 80 -172 71 -172 ct 62 -172 55 -169 49 -163 ct 
43 -158 39 -149 37 -138 ct 14 -142 l  16 -158 23 -170 33 -178 ct 43 -187 56 -191 71 -191 ct 
81 -191 91 -189 99 -185 ct 108 -180 115 -174 120 -166 ct 124 -159 127 -151 127 -142 ct 
127 -134 124 -126 120 -119 ct 115 -113 109 -107 100 -103 ct 112 -101 120 -95 127 -87 ct 
133 -79 136 -69 136 -57 ct 136 -40 130 -26 118 -14 ct 106 -3 90 3 72 3 ct 55 3 41 -2 30 -12 ct 
19 -22 13 -35 11 -51 ct p ef
pom
26 lw 0.003 0.003 0.003 c 14501 5472 m  14520 5472 14539 5473 14557 5474 ct ps
14609 5478 m  14626 5480 14642 5482 14658 5485 ct ps
14704 5495 m  14722 5500 14739 5505 14756 5511 ct ps
14804 5531 m  14819 5538 14833 5546 14847 5554 ct ps
14888 5584 m  14902 5595 14914 5607 14926 5619 ct ps
14957 5659 m  14967 5673 14975 5687 14982 5702 ct ps
15001 5750 m  15006 5766 15010 5783 15013 5800 ct ps
15018 5850 m  15018 5866 15018 5883 15017 5901 ct ps
15010 5953 m  15008 5969 15004 5985 15000 6001 ct ps
14985 6049 m  14979 6066 14973 6082 14966 6098 ct ps
14944 6145 m  14937 6159 14929 6174 14920 6188 ct ps
14893 6231 m  14884 6246 14874 6260 14863 6275 ct ps
14832 6315 m  14822 6328 14811 6340 14800 6353 ct ps
14765 6390 m  14754 6402 14741 6415 14729 6427 ct ps
14690 6463 m  14678 6474 14665 6484 14653 6495 ct ps
14614 6526 m  14600 6537 14587 6547 14573 6557 ct ps
14530 6587 m  14515 6597 14501 6606 14486 6616 ct ps
14444 6641 m  14430 6650 14415 6658 14401 6666 ct ps
14356 6690 m  14341 6698 14325 6706 14310 6714 ct ps
14262 6736 m  14255 6740 14247 6743 14240 6746 ct 14231 6749 14223 6753 14214 6756 ct 
ps
14167 6776 m  14151 6783 14135 6789 14120 6795 ct ps
14072 6813 m  14056 6819 14040 6825 14024 6831 ct ps
13976 6848 m  13960 6853 13944 6859 13927 6864 ct ps
13879 6879 m  13862 6884 13847 6889 13831 6894 ct ps
13782 6909 m  13766 6913 13749 6918 13733 6922 ct ps
13684 6935 m  13667 6940 13651 6944 13634 6948 ct ps
13584 6960 m  13568 6964 13551 6968 13534 6972 ct ps
13485 6983 m  13468 6987 13452 6990 13435 6994 ct ps
13385 7004 m  13369 7007 13352 7011 13335 7014 ct ps
13284 7023 m  13268 7026 13251 7029 13234 7032 ct ps
13184 7041 m  13167 7044 13151 7047 13134 7050 ct ps
13084 7058 m  13067 7061 13050 7063 13033 7066 ct ps
12982 7074 m  12965 7076 12948 7079 12931 7081 ct ps
12881 7088 m  12865 7091 12848 7093 12832 7095 ct ps
12780 7102 m  12763 7105 12746 7107 12729 7109 ct ps
12678 7116 m  12661 7118 12645 7120 12628 7123 ct ps
12579 7129 m  12561 7131 12544 7134 12527 7136 ct ps
12476 7143 m  12459 7145 12442 7147 12425 7150 ct ps
12375 7157 m  12359 7159 12342 7161 12326 7164 ct ps
12274 7171 m  12257 7174 12239 7177 12223 7180 ct ps
12172 7188 m  12156 7191 12140 7194 12124 7197 ct ps
12073 7206 m  12056 7210 12038 7213 12022 7217 ct ps
11972 7229 m  11956 7233 11941 7237 11925 7241 ct ps
11874 7256 m  11857 7261 11841 7267 11825 7273 ct ps
11780 7291 m  11775 7293 11771 7295 11767 7297 ct ps
11730 7240 m  11726 7217 l  11620 7459 l  11856 7340 l  11833 7337 l  11811 7330 l 
11789 7319 l  11768 7304 l  11751 7285 l  11739 7263 l  11730 7240 l  p ef

pum
14812 8885 t
0.105 0.105 0.105 c 118 -36 m  124 -1 l  113 2 103 3 94 3 ct 79 3 68 1 60 -4 ct 
52 -9 46 -15 43 -22 ct 39 -30 38 -46 38 -70 ct 38 -208 l  8 -208 l  8 -239 l 
38 -239 l  38 -298 l  78 -322 l  78 -239 l  118 -239 l  118 -208 l  78 -208 l 
78 -68 l  78 -56 78 -49 80 -46 ct 81 -42 84 -40 87 -38 ct 90 -36 95 -35 101 -35 ct 
105 -35 111 -35 118 -36 ct p ef
pom
pum
14939 9078 t
15 -44 m  37 -46 l  39 -36 43 -28 48 -23 ct 53 -19 60 -16 69 -16 ct 76 -16 82 -18 87 -21 ct 
93 -24 97 -29 101 -34 ct 104 -40 107 -47 109 -57 ct 112 -66 113 -76 113 -85 ct 
113 -86 113 -88 113 -90 ct 108 -83 102 -77 94 -72 ct 86 -67 77 -65 67 -65 ct 52 -65 38 -71 27 -82 ct 
17 -94 11 -109 11 -127 ct 11 -146 17 -162 28 -174 ct 40 -185 54 -191 71 -191 ct 
83 -191 95 -188 105 -181 ct 115 -175 123 -165 128 -153 ct 134 -141 136 -123 136 -99 ct 
136 -75 134 -56 128 -41 ct 123 -27 115 -16 105 -8 ct 94 -1 82 3 68 3 ct 53 3 41 -1 32 -9 ct 
22 -18 16 -29 15 -44 ct p
110 -128 m  110 -142 107 -152 100 -160 ct 92 -168 84 -172 74 -172 ct 63 -172 54 -168 47 -159 ct 
39 -151 35 -140 35 -126 ct 35 -114 39 -105 46 -97 ct 53 -89 62 -86 73 -86 ct 84 -86 93 -89 100 -97 ct 
107 -105 110 -115 110 -128 ct p ef
pom
0 5398 t 
pom
count op_count sub {pop} repeat countdictstack dict_count sub {end} repeat b4_inc_state restore
%%PageTrailer
%%Trailer
%%EOF
